Original sentence,Expected sentence,Mistake categories
"Nowadays, It is possible to find any kind of Tvs programmes you want and yes, I consider that there is very much sport on television, but, not too much.","Nowadays, it is possible to find any kind of TV programme you want and, yes, I consider that there is a lot of sport on television, but not too much.",R:ORTH R:NOUN:INFL R:MORPH M:PUNCT R:OTHER U:PUNCT
"Besides this, Tvs companies have understood sports provides this relaxess moment, mainly for men.","Besides this, TV companies have understood sports provide this relaxing moment, mainly for men.",R:NOUN:INFL R:VERB:SVA R:SPELL
"In conclusion, I think that Tvs companies only want to sell their product and the people want to have their relax moment with the sports programmes.","In conclusion, I think that TV companies only want to sell their product and the people want to have their relaxing moment with the sports programmes.",R:NOUN:INFL R:MORPH
"The best thing I saw was the Valley of the temples, because there were a lot of ancient temples and monuments and ruines and they were really beautifuland also the panorama was amazing!","The best thing I saw was the Valley of the Temples, because there were a lot of ancient temples and monuments and ruins and they were really beautiful and, also, the view was amazing!",R:ORTH R:NOUN:INFL R:OTHER M:PUNCT R:NOUN
To be honest I don't believe in Ufo.,"To be honest, I don't believe in UFOs.",M:PUNCT R:NOUN:INFL
on the world recorded a lot of cases where the ufo was seen.,In the world there have been recorded a lot of cases where UFOs have been seen.,R:PREP M:OTHER U:DET R:NOUN:INFL R:VERB:TENSE
on the walls of caves are sketches and paintings which show strange creatures and flying sauceres.,On the walls of caves are sketches and paintings which show strange creatures and flying saucers.,R:ORTH R:NOUN:INFL
maybe we don't be alone and ufo exist?,Maybe we are not alone and UFOs exist?,R:ORTH R:OTHER R:NOUN:INFL
"We must stop all wars, conflict and impose human beings principls and values.","We must stop all wars, conflicts, and impose human principles and values.",R:NOUN:NUM M:PUNCT U:NOUN R:NOUN:INFL
"I really love childrens and take care of them, I also had an experience of working in summer camps and have a good experience doing delicious food because I already did this stuff in other camps.",I really love children and taking care of them. I also have experience of working in summer camps and had a good experience making delicious food because I already did these things in other camps.,R:NOUN:INFL R:VERB:FORM R:PUNCT R:VERB:TENSE U:DET R:VERB:TENSE R:VERB R:OTHER
"In spite of the informative sessions about the enviorenment, organized by the Mayor for all of the residentes, it also has lots of staff that cleans the streets, take care of the city gardens and collect the garbage.","As well as the informative sessions about the environment organized by the Mayor for all of the residents, it also has lots of staff that clean the streets, take care of the city gardens and collect the garbage.",R:OTHER R:SPELL U:PUNCT R:NOUN:INFL R:VERB:SVA
"Most illiterate people choose their proficiency as public transportations like, bus service, cab service, auto service.... etc, in order to full fill their basic needs.","Most illiterate people choose their proficiency as public transportation, like bus service, cab service, auto service.... etc, in order to fulfil their basic needs.",UNK R:NOUN:INFL M:PUNCT U:PUNCT UNK R:OTHER
"According to disadvantanges, at present, childs are aways playing with his computer games and mobile phone.","As for disadvantages, at present, children are always playing with their computer games and mobile phones.",R:OTHER R:SPELL R:NOUN:INFL R:SPELL R:DET R:NOUN:NUM
"Why not?.Firstly, what's for you education?,It's very clear for me that education is to create the conditions to do your thinkings grow.","Why not? Firstly, what's education for you? It's very clear to me that education is creating the conditions to make your thinking grow.",R:OTHER R:OTHER R:PREP R:VERB:FORM R:VERB R:NOUN:INFL
"For example, the chanel"" Animal Planet"" has a lot of informations of animals and how it lives.","For example, the channel"" Animal Planet"" has a lot of information about animals and how they live.",R:SPELL R:NOUN:INFL R:PREP R:PRON R:VERB:SVA
"Most of the cases, not only my family members but also our neighbor like to avoid carbon level increasing products those are responsible for temperature increase.","In most cases, not only my family members but also our neighbors like to avoid carbon - level - increasing products that are responsible for temperature increases.",M:PREP U:OTHER R:NOUN:INFL R:OTHER R:DET R:NOUN:NUM
"I tend to collect in three different boxes of waste, for paper, second for glas and plastic and third for rest rubbish.","I tend to collect three different boxes of waste, for paper, second for glass and plastic and third for the rest of my rubbish.",U:PREP R:NOUN:INFL M:DET M:OTHER
Actually modern life affected on our palate changing.Instance some people who work majority of their waking houres prefer to use fast food more.,"Actually, modern life has caused our palate to change. Instance some people who work the majority of their waking hours prefer to eat fast food more.",M:PUNCT R:OTHER R:VERB:FORM R:ORTH M:DET R:NOUN:INFL R:VERB
It may be cause increasing wight or reducing the number of necessary vitamines which our body needs.,It may cause increasing weight or reducing the number of necessary vitamins which our body needs.,U:VERB R:NOUN R:NOUN:INFL
"As we are fully depending on the indivitual generators, that are causing multiple problems in he weather dueto it's smoke, the oil and gass left behind, in addition to sound offcourse that are themain source for the 18 countinous hours noise.","As we are fully dependant on individual generators, these are causing multiple problems with the weather due to their smoke, oil and gas left behind, in addition to noise, of course, because they are the main source of the 18 continuous hours of noise.",R:MORPH U:DET R:SPELL R:DET R:PREP R:OTHER R:ORTH R:OTHER U:DET R:NOUN:INFL R:OTHER R:OTHER R:OTHER R:ORTH R:PREP R:SPELL M:PREP
Of course private transport has a lot of advantages like: you don't need to wait for a bus at the stopes or you can go every where you want in the time convenient for you.,"Of course, private transport has a lot of advantages, like, you don't need to wait for a bus at the stops or you can go everywhere you want at a time convenient for you.",M:PUNCT M:PUNCT R:PUNCT R:NOUN:INFL R:ORTH R:PREP R:DET
"According to this form, we can know learning knowledges takes a part of time in one day.","According to this form, we know learning knowledge takes a lot of time in one day.",U:VERB:TENSE R:NOUN:INFL R:NOUN
"Congratulations for your weding, I hope you will be all your life as happy as you are now.",Congratulations on your wedding. I hope you will be as happy as you are now your whole life.,R:PREP R:NOUN:INFL R:PUNCT R:OTHER
Television and other things invented by tecnhology are part of our lifes.,Television and other things invented by technology are part of our lives.,R:SPELL R:NOUN:INFL
Talk of getting to meet strangers who may turn out to be thiefs.,Talk of getting to meet strangers who may turn out to be thieves.,R:NOUN:INFL
"in modern day there is very little public transpotr are used, ganeral public prefer much faster and conveninece ways of traveling around.though the pulic transport are used in mager citys to avoied traffic conjustion, it is wlidly reconizge that public transport are eco friendly.","Nowadays, there is very little public transport. The general public prefer much faster and more convenient ways of traveling around. Though public transport is used in major cities to avoid traffic congestion, it is widely recognized that public transport is eco - friendly.",R:OTHER R:SPELL R:OTHER R:OTHER R:ORTH U:DET R:SPELL R:VERB:SVA R:SPELL R:NOUN:INFL R:SPELL R:SPELL R:SPELL R:SPELL R:VERB:SVA M:PUNCT
"Public transport is also used by childrens like me who want to go to school, high school or to the univerity.","Public transport is also used by children like me who want to go to school, high school or to university.",R:NOUN:INFL U:DET R:SPELL
"The qualified and nit damaged severely sheetes are supposed to be packagd and distribued, which will be cut into separate bank notes, packed and then dispatched.","The acceptable and not damaged severely sheets are supposed to be packaged and distributed, which means they will be cut into separate bank notes, packed and then dispatched.",R:ADJ R:ADV R:NOUN:INFL UNK R:SPELL R:OTHER
"On contrary, other failed sheetes will be disposal and destroyed with band notes in a secure way.","In contrast, other failed sheets will be destroyed and disposed of with band notes in a secure way.",R:OTHER R:NOUN:INFL R:OTHER UNK
Cricket is a sport that have two teams of eleven playeres each..,Cricket is a sport that has two teams of eleven players each..,R:VERB:SVA R:NOUN:INFL
"The government can to improve the public transport making a great investmenting like changing the old vehicles for new and increase the number the bus, trains and build more bus station and trains station this kind the action will help a lot the quality of the public transport for population and will become the life of the people more easy.","The government can improve public transport by making a great investment like changing the old vehicles for new and increasing the number of buses, trains and building more bus stops and trains stations. This kind of action will help a lot to improve the quality of public transport for the population and will make the life of the people easier.",U:VERB:FORM U:DET M:PREP R:NOUN:INFL R:VERB:FORM M:PREP U:DET R:NOUN:NUM R:VERB:FORM R:NOUN R:NOUN:NUM M:PUNCT M:PREP U:DET M:VERB U:DET M:DET R:VERB R:ADJ:FORM
"The diabetes is the increasing of the glucosa in the blood, The have two types, first the Diabetes Type 1 that is predent in childrens, pacient needs insuline every day, also this diabetes is caused by the destruction of the insuline realized by the person's immuny siste.","Diabetes is an increase of glucose in the blood, There are two types, first Diabetes Type 1 which is present in children, the patient needs insulin every day. Also, this diabetes is caused by the destruction of the insulin released by the person's immune system.",U:DET R:DET R:MORPH U:DET R:SPELL R:OTHER R:VERB U:DET R:DET R:SPELL R:NOUN:INFL M:DET R:SPELL R:SPELL R:OTHER R:SPELL R:VERB R:SPELL R:SPELL
So it is necessary to eat vegetabl and fruist and also to do ejercises.,So it is necessary to eat vegetables and fruit and also to do exercise.,R:NOUN:INFL R:SPELL R:SPELL
"work in your own company is very challenging because you deal with a lot of areas, manage all departments and learn about busines, management, economics, sales, engineering, tecnical support and other skills.","Working in your own company is very challenging because you deal with a lot of areas, manage all departments and learn about business, management, economics, sales, engineering, technical support and other skills.",R:VERB:FORM R:NOUN:INFL R:SPELL
"First and foremost, it can make contaminations to the environment, which can affect our health","First and foremost, it can cause contamination of the environment, which can affect our health.",R:VERB R:NOUN:INFL R:PREP M:PUNCT
"Though everythings were depressing, I still have a wonderful winner vacation with my family: we went to Formosan Aboriginal Culture Village(九族)to visited its blooming cherry blossom.(I don't know its variety~Is it from Japan??XD)Cherry blossom is very beautiful but there are so many people.","Though everything was depressing, I still had a wonderful winter vacation with my family. We went to Formosan Aboriginal Culture Village(九族) to visit its blooming cherry blossom. (I don't know its variety ~ is it from Japan??XD) The cherry blossom was very beautiful but there were so many people.",R:NOUN:INFL R:VERB:SVA R:VERB:TENSE R:NOUN R:PUNCT R:ORTH R:VERB:TENSE R:ORTH R:ORTH R:OTHER R:VERB:TENSE R:VERB:TENSE
"You can travelling to Samarkand, Bukhara, Khiva and another historical citys.","You can travel to Samarkand, Bukhara, Khiva and other historical cities.",R:VERB:FORM R:OTHER R:NOUN:INFL
"In the centre city we can go to other shopping center such as: "" Passage"",Europe"",""Scorpion"".Last weekends we visited Passage.","In the city centre we can go to other shopping centers such as: "" Passage "", Europe "", "" Scorpion "". Last weekend we visited Passage.",R:WO R:NOUN:INFL R:ORTH R:NOUN:NUM
"Compared with local shops, products' price in shoping mall is considerably higher than that in local shops but it offers more varieties of products.","Compared with local shops, products' prices in the shopping mall are considerably higher than those in local shops, but it offers a wider variety of products.",R:NOUN:NUM M:DET R:NOUN:INFL R:VERB:SVA R:DET M:PUNCT R:OTHER R:NOUN:NUM
Everyone says that our lifes are going to change in the future but that is what everyone says.,Everyone says that our lives are going to change in the future but that is what everyone says.,R:NOUN:INFL
I enjoy fun with childrens.,I enjoy fun with children.,R:NOUN:INFL
"After a few kilometer, you will find a bus stop but Metro stations are built only in major areas.","After a few kilometers, you will find a bus stop, but metro stations are built only in major areas.",R:NOUN:INFL M:PUNCT R:ORTH
Their lifes are focused on their careers.,Their lives are focused on their careers.,R:NOUN:INFL
"All in all, future houses will be looking more like airplane, and less like normal home.","All in all, future houses will look more like airplanes, and less like normal homes.",R:VERB:TENSE R:NOUN:INFL R:NOUN:NUM
This is where you would find several shops that sell most African traditional artifact.,This is where you will find several shops that sell most African traditional artifacts.,R:VERB:TENSE R:NOUN:INFL
In other words could be said that if we have more free time our lifes would become better because we can enjoy with friends and do thigs with our family.,"In other words, it could be said that if we had more free time, our lives would become better, because we can enjoy ourselves with friends and do things with our family.",M:OTHER R:VERB:TENSE M:PUNCT R:NOUN:INFL M:PUNCT M:PRON R:SPELL
"By the way, in that day Everybodys were celebrating the Day of the City.","By the way, on that day everybody was celebrating the Day of the City.",R:PREP R:NOUN:INFL R:VERB:SVA
"However, cars cannot take place of public transportations just for that convenience.","However, cars cannot take the place of public transportation just because of that convenience.",M:DET R:NOUN:INFL R:PREP
"However, most shopping center provide limited selections and sometimes the price is expensive.","However, most shopping centers provide limited selections and sometimes the price is expensive.",R:NOUN:INFL
You can find more informations also in the Internet.,You can find more information also on the Internet.,R:NOUN:INFL R:PREP
It have been a great succes and is one of the best games in the world.,It has been a great success and is one of the best games in the world.,R:VERB:SVA R:NOUN:INFL
"Paparazzoes make public their day - to - day routine, hobbies and passions.","Paparazzi make public their day - to - day routine, hobbies and passions.",R:NOUN:INFL
"They have many different cakes: profiterol, meringata, tiramisù and so on.","They have many different cakes: profiterols, meringata, tiramisù and so on.",R:NOUN:INFL
Famous people have been always sorrunded by a lot of journalists and paparazzies who follow them wherever they go.,Famous people have always been surrounded by a lot of journalists and paparazzi who follow them wherever they go.,R:WO R:SPELL R:NOUN:INFL
"In this moment there was a tropical storm, and the turbulences are horrible; but a not time I have stopped to travel by plane.","At that time, there was a tropical storm, and the turbulence was horrible; but a not time I have stopped travelling by plane.",R:PREP R:DET R:OTHER R:NOUN:INFL R:VERB:TENSE UNK R:VERB:FORM
"My favourite kinds are comedis, detective and love stories.","My favourite kinds are comedies, detective stories and love stories.",R:NOUN:INFL M:NOUN
I mostly like comedies because they create my mood put me in high spirites.,I mostly like comedies because they create my mood and put me in high spirits.,UNK M:CONJ R:NOUN:INFL
"The population grows, with more business skyscrapers, residential houses and advanced transportations, at the cost of diminishing farmland, wetland as well as deforestation.","The population grows, with more business skyscrapers, residential houses and advanced transportation, at the cost of diminishing farmland and wetland as well as deforestation.",R:NOUN:INFL M:CONJ U:PUNCT
"If you consider the cahotic traffic and the long queues to get there and impact of these factores on people's health and people's finances, I'm sure you'll change your mind about public transport.","If you consider the chaotic traffic and the long queues to get there and the impact of these factors on people's health and people's finances, I'm sure you'll change your mind about public transport.",R:SPELL M:DET R:NOUN:INFL
We learned enormous heroic stories about how those heros scarified their lives for victory.,We learned enormous heroic stories about how those heroes sacrificed their lives for victory.,R:NOUN:INFL R:VERB
"I have no idea why we had to learn those legends which were full of darkness, torture and violences.","I have no idea why we had to learn those legends, which were full of darkness, torture and violence.",M:PUNCT R:NOUN:INFL
"To illustrate, machineries and the use of fertilisers in agriculture have helped to develop massproduction and raise the availability and quantity of various types of food, having made them cheaper and more affordable.","To illustrate, machinery and the use of fertilisers in agriculture have helped to develop mass production and increase the availability and quantity of various types of food, having made them cheaper and more affordable.",R:NOUN:INFL R:ORTH R:VERB
"in my opinion this serie was wonderful and, i hope for the next one!","In my opinion, this series was wonderful and, I look forward to the next one!",R:ORTH M:PUNCT R:NOUN:INFL R:ORTH R:OTHER R:PREP
Here are some basic informations about the news.,Here is some basic information about the news.,R:VERB:SVA R:NOUN:INFL
"You will be very exciting watching St. Basils's Cathedral, the monument of Minin and Pozharsky, the Kremlin.","You will be very excited seeing St. Basil's Cathedral, the monument of Minin and Pozharsky, and the Kremlin.",R:ADJ:FORM R:VERB R:NOUN:INFL M:CONJ
"The principals cause for famine in Africa are the ethnic conflicts, which causes warms; the decrease of fertile grounds and the use of ground only to produce monocultures to export.","The principal cause of famine in Africa is the ethnic conflicts, which cause wars, the decrease of fertile land and the use of ground only to produce monoculture to export.",R:MORPH R:PREP R:VERB:SVA R:VERB:SVA R:NOUN R:PUNCT R:NOUN R:NOUN:INFL
"As you know, my country is made up of different races so there are many different traditional food in my country so you can try different cuisins like banana leaf rice and hainanese chicken rice.","As you know, my country is made up of different races, so there are many different traditional foods in my country, so you can try different cuisines like banana leaf rice and hainanese chicken rice.",M:PUNCT R:NOUN:NUM M:PUNCT R:NOUN:INFL
"For example, in the past the main transportations were ships, trains and trucks, so people had to wait long time for their parcels and letters.","For example, in the past, the main modes of transportation were ships, trains and trucks, so people had to wait a long time for their parcels and letters.",M:PUNCT M:OTHER R:NOUN:INFL M:DET
This gives me wide knowledge in petroleum jargons that open endless horizons of experience and how to work on developing my knowledge and skills.,This gives me broad knowledge of petroleum jargon which opens endless horizons of experience and of how to work on developing my knowledge and skills.,R:ADJ R:PREP R:NOUN:INFL R:DET R:VERB:SVA M:PREP
During the concert I was responsible for supervision of sort - out in toiletes.,"During the concert, I was responsible for supervision of sort - out in the toilets.",M:PUNCT UNK M:DET R:NOUN:INFL
"It affects our lives in many ways, including our communication, self- expression, bullying, isolations, friendships, and even our very own sense of humanity.","It affects our lives in many ways, including our communication, self- expression, bullying, isolation, friendships, and even our very own sense of humanity.",R:NOUN:INFL
They meet at midnight to listen to the speechs of the leaders.,They meet at midnight to listen to the speeches of the leaders.,R:NOUN:INFL
"Confronting the challenging instead of turning aside, trying to think of possible solutions instead of giving up at the beginning, always being positive to unknown instead of negative and retreating, all these are the main reason why the humankinds can keep improving.","Confronting the challenging instead of turning aside, trying to think of possible solutions instead of giving up at the beginning, always being positive about the unknown instead of negative and retreating. All these are the main reasons why humankind can keep improving.",R:OTHER R:PUNCT R:NOUN:NUM U:DET R:NOUN:INFL
"Dogs and cats are called "" furkid "" not only because their bodies are covered with fur, but also because their hosts regard pets as kids.","Dogs and cats are called "" furkids "" not only because their bodies are covered with fur, but also because their owners regard their pets as kids.",R:NOUN:INFL R:NOUN M:DET
The story tell us the importance of the perfume in all aspects of our lifes.,The story tells us the importance of perfume in all aspects of our lives.,R:VERB:SVA U:DET R:NOUN:INFL
It rather had the same shades with medieval maps that pictured dragons guarding earthen paradise somewhere near the shore of Indias.,It had the same shades as medieval maps that pictured dragons guarding an earthly paradise somewhere near the shore of India.,U:ADV R:PREP M:DET R:MORPH R:NOUN:INFL
"Interestingly, Scientology practitioners use technology to prove their hypothetical statements, for they have constructed machines that exhibit the working of brains through waves and softwares that question a practitioner and provide him with a solution to his worries.","Interestingly, Scientology practitioners use technology to prove their hypothetical statements, for they have constructed machines that exhibit the workings of brains through waves and software that questions a practitioner and provides him with a solution to his worries.",R:NOUN:NUM R:NOUN:INFL R:VERB:SVA R:VERB:SVA
"They present complex informations so smartly that an ignorant fool feels like a sagacious monk, whence he becomes the follower and a voter.","They present complex information so smartly that an ignorant fool feels like a sagacious monk, whence he becomes the follower and a voter.",R:NOUN:INFL
"Therefore, we need to think more about our future, our offsprings.","Therefore, we need to think more about our future, our offspring.",R:NOUN:INFL
I could invite my friends and relativs.,I could invite my friends and relatives.,R:NOUN:INFL
"Instead, if my goal was to increase adult's awarenes, advertising in local newspapers or offering intensive courses could prove successful.","Instead, if my goal was to increase adults' awareness, advertising in local newspapers or offering intensive courses could prove successful.",R:NOUN:POSS R:NOUN:INFL
"It is a city that keeps its history through an amazing architecture like balconies, churches like San Francisco Church which has mysterious subterranean catacombs; el Real Felipe which is the last incredible Spanish fortress; through their costumes as well as Carnival, this day you can enjoy this particular, interesting and colorful festival because you use water, paint or talc to wet your family and neighbor; their typical dance called "" La Marinera ""; also they keep their history through religion where you discover the religious enthusiasm which is represented by la Procesión del Señor de los Milagros; their gastronomy is another extraordinary and wonderful example about their symbols, like Mazamorra Morada, el Pisco Sour (wine), el Ceviche, los Picarones, etc.","It is a city that keeps its history through: amazing architecture, like balconies, churches like San Francisco Church which has mysterious subterranean catacombs; el Real Felipe, which is the last incredible Spanish fortress; through their costumes as well as the Carnival. On this day you can enjoy this particular, interesting and colorful festival because you use water, paint or talc to wet your family and neighbors. Through their traditional dance, called "" La Marinera "". They also keep their history through religion, where you discover the religious enthusiasm which is represented by la Procesión del Señor de los Milagros. Their gastronomy is another extraordinary and wonderful example of their symbols, like Mazamorra Morada, el Pisco Sour (wine), el Ceviche, los Picarones, etc.",R:OTHER M:PUNCT M:PUNCT M:DET R:OTHER R:NOUN:INFL R:OTHER R:ADJ M:PUNCT R:OTHER R:OTHER M:PUNCT R:PUNCT R:PREP
"This can help you to understand that not everyone has acces to many things you do have acces too, and to realise that perhaps you should appreciate these things, such as smartphones, computers, cars or even fresh water, which is a basic resource and we tend to take for granted that everyone can have some water to drink even though this is not true.","This can help you to understand that not everyone has access to many things you do have access to, and to realise that perhaps you should appreciate these things, such as smart phones, computers, cars or even fresh water, which is a basic resource and we tend to take for granted that everyone can have some water to drink even though this is not true.",R:NOUN:INFL R:NOUN:INFL R:OTHER R:ORTH
"This has now been intensifyed with the sale of the railways, to privite rail companys, profit motivated.","This has now been intensified with the sale of the railways to private rail companies, profit motivated.",R:VERB:INFL U:PUNCT R:SPELL R:NOUN:INFL
"Let us consider' Sky' viewes, recently beginning a subscription to view Tysons "" next Live Lights "".","Let us consider a' Sky' viewer recently beginning a subscription to view Tyson's "" next Live Lights "".",M:DET R:NOUN:INFL U:PUNCT R:NOUN:POSS
"Many people argue nowadays that, with the advent of computer technology, our mental arithmetic is poor and we are becoming a nation of couch potatos.","Many people argue nowadays that, with the advent of computer technology, our mental arithmetic is poor and we are becoming a nation of couch potatoes.",R:NOUN:INFL
"Before the invention of the airplane, long distance traveling was a very difficult, time consuming task.","Before the invention of the airplane, long - distance travel was a very difficult, time - consuming task.",M:PUNCT R:NOUN:INFL M:PUNCT
I parked the car and went ten minuts.,I parked the car and waited ten minutes.,R:VERB R:NOUN:INFL
"Since the begining of human life, people have invented ways to make their life easier.","Since the beginning of human life, people have invented ways to make their lives easier.",R:NOUN:INFL R:NOUN:NUM
There are several reasones why I wasn't satisfied with it.,There are several reasons why I wasn't satisfied with it.,R:NOUN:INFL
"Firstly, I arrived five hours before the begining of the concert in order to help the musicians to move the material from the van to the scene.","Firstly, I arrived five hours before the beginning of the concert in order to help the musicians to move the equipment from the van to the stage.",R:NOUN:INFL R:NOUN R:NOUN
We wouldn't be able to sort out informations and datas this quickly.,We wouldn't be able to process information and data so quickly.,R:VERB R:NOUN:INFL R:MORPH R:OTHER
She would give them the exam's questions and they would make all her homeworks during 3 weeks.,She would give them the exam's questions and they would do all her homework for 3 weeks.,R:VERB R:NOUN:INFL R:PREP
"His father was a shelter, He had one hundred sheeps and one dog, and he used to take the animals to the mountain to feed them.","His father was a shepherd, and he had one hundred sheep and one dog, and he used to take the animals to the mountain to feed them.",R:NOUN M:CONJ R:ORTH R:NOUN:INFL
"His little son, called Joan, decided quickly: "" I will help you. I will take care of the sheeps for you, father "".","His little son, called Joan, said quickly: "" I will help you. I will take care of the sheep for you, father "".",R:VERB R:NOUN:INFL
I am writing to answer the informations that you need from me.,I am writing to provide the information that you need from me.,R:VERB R:NOUN:INFL
The opening time recording the students while they meet outside the school and come in could be a good begining.,"The opening of the school, recording the students while they meet outside the school and come in, could be a good beginning.",R:OTHER M:PUNCT M:PUNCT R:NOUN:INFL
Also when you have forgotten to do your homeworks.,"Also, when you have forgotten to do your homework.",M:PUNCT R:NOUN:INFL
I am sometimes allowed to watch the television when I have finished my homeworks.,I am sometimes allowed to watch the television when I have finished my homework.,R:NOUN:INFL
"I use my computer for many things, such as homeworks, games, digital video or Internet.","I use my computer for many things, such as homework, games, digital video or the Internet.",R:NOUN:INFL M:DET
"They are human beings actually and they need to keep a little bit of pirvacity and freedom in their lifes to continue like normal people, to feel that they are unknown and anonymus and they do not have to wear sunglasses, hats or caps every time they want to go out home not to be recognised..","They are human beings and they need to keep a little bit of privacy and freedom in their lives to continue like normal people, to feel that they are unknown and anonymous and they do not have to wear sunglasses, hats or caps every time they want to leave home in order not to be recognised.",U:ADV R:SPELL R:NOUN:INFL R:SPELL R:OTHER M:OTHER R:PUNCT
As people are wearing thinner and thinner clothings to show off their figure They might as well just wear clothes that are see through to give it a better effect!,"As people are wearing thinner and thinner clothing to show off their figure, they might as well just wear clothes that are see - through to give it a better effect!",R:NOUN:INFL M:PUNCT R:ORTH M:PUNCT UNK
I am writing this letter to tell you the informations you need and to ask you one or two questions.,I am writing this letter to tell you the information you need and to ask you one or two questions.,R:NOUN:INFL
"I thought she could have a show in this special party so I talked to Pat, my best friend, if she could help me as she works in the production of T.V. programes.","I thought we could put on a show at this special party so I talked to Pat, my best friend, to see if she could help me as she works in the production of T.V. programmes.",R:PRON R:VERB R:PREP M:VERB R:NOUN:INFL
e.g. The Englishs.,e.g. the English.,R:ORTH R:NOUN:INFL
"Posin chemical compounds e.g. gases, liquids, are created too, they were use to kill people, most of them give radiration which can disable the person, mostly harm their brain and their bodys and it could also cause deaths.","Poisonous chemical compounds, e.g. gases and liquids, are created too. They have been used to kill people. Most of them produce radiation, which can disable a person, mostly harming their brain and their bodies, and it can also cause death.",R:SPELL M:PUNCT R:OTHER R:PUNCT R:VERB:TENSE R:VERB:FORM R:PUNCT R:VERB R:SPELL M:PUNCT R:DET R:VERB:FORM R:NOUN:INFL M:PUNCT R:VERB:TENSE R:NOUN:NUM
"Many people enjoy going shoppings meeting friends and mainly spending their money, but sometimes shopping can be a terrible experience.","Many people enjoy going shopping, meeting friends and mainly spending their money, but sometimes shopping can be a terrible experience.",R:NOUN:INFL M:PUNCT
Attituds to the video about life at our school,Attitudes to the video about life at our school,R:NOUN:INFL
The aim of this report is to summarize the pupil's attituds about video they have to be made and to suggest which lessons and other activities should be filmed.,The aim of this report is to summarize the pupil's attitudes to the video they have to make and to suggest which lessons and other activities should be filmed.,R:NOUN:INFL R:PREP M:DET R:VERB:TENSE
"In my eyes they are wasting their lifes, they are hopeless.","In my eyes they are wasting their lives, they are hopeless.",R:NOUN:INFL
"Also, we got some posteres as well.","Also, we got some posters as well.",R:NOUN:INFL
But that was only the begining of my adventure.,But that was only the beginning of my adventure.,R:NOUN:INFL
"Also, I'm unhappy about the bad informations of your advertisement, which clearly says, the play begins at 19.30 instead of 20.15 as my evening' show.","Also, I'm unhappy about the inaccurate information in your advertisement, which clearly says the play begins at 19.30, instead of 20.15 like my evening's show.",R:ADJ R:NOUN:INFL R:PREP U:PUNCT M:PUNCT R:OTHER R:NOUN:POSS
"For example, for our jobs supecial ceremonys and so on.","For example, for our jobs, special ceremonies, and so on.",M:PUNCT R:SPELL R:NOUN:INFL M:PUNCT
"Now, I enter datas and I don't need any more to calculate my figures, the work is completely made by the computer and in addition there is no mistake.","Now, I enter data and I don't need to calculate my figures anymore, the work is done completely by computer and in addition there are no mistakes.",R:NOUN:INFL R:OTHER R:OTHER U:DET R:VERB:SVA R:NOUN:NUM
"Lastly, I would be grateful if I could have following informations.","Lastly, I would be grateful if I could have the following information.",M:DET R:NOUN:INFL
I would like to know some informations about the advertisement of the show.,I would like to have some information about the advertisement for the show.,R:VERB R:NOUN:INFL R:PREP
They look like a robotes who have to do their duties - to buy.,They look like robots who have to do their duty - to buy.,U:DET R:NOUN:INFL R:NOUN:NUM
Shops are not for spending our lifes in them.,Shops are not for spending our lives in them.,R:NOUN:INFL
"Besides golf, taking wonderful photographs of sceneries has been my dream, even though I am a beginner.","Besides golf, taking wonderful photographs of scenery has been my dream, even though I am a beginner.",R:NOUN:INFL
"But obviously, if these people are all the time in the newspaper, on TV and so on, is because, although we don't want to accept it, we love following their lifes.","But obviously, if these people are all the time in the newspaper, on TV and so on, it is because, although we don't want to accept it, we love following their lives.",M:PRON R:NOUN:INFL
So as soon as the show was over we walked out and followed all the signs for about 5 minutes desparately searching for your restaurants our stomaches rumbling for food.,"So as soon as the show was over we walked out and followed all the signs for about 5 minutes, desperately searching for your restaurant, our stomachs rumbling for food.",M:PUNCT R:SPELL R:NOUN:NUM M:PUNCT R:NOUN:INFL
"exept a few phcyco groups, some of the more serious ones decided to raid this party, just for the fun and meannes of it.","except a few psycho groups. Some of the more serious ones decided to raid this party, just for the fun and meanness of it.",R:SPELL R:SPELL R:PUNCT R:NOUN:INFL
"For example, you have to do more homeworks or they are sending you home etc.","For example, you have to do more homework or they send you home etc.",R:NOUN:INFL R:VERB:TENSE
I have a relaxed family and we are sharing all the houseworks.,I have a relaxed family and we share all the housework.,R:VERB:TENSE R:NOUN:INFL
"I went there because I had read a banner about the musical show "" Over the rainbow "", but many informations were wrong.","I went there because I had read a banner about the musical show "" Over the rainbow "", but a lot of information was wrong.",UNK R:OTHER R:NOUN:INFL R:VERB:SVA
"In everytime of the day I can communicate with people of all nationality of the world, I can have informations about everything, I can buy something which I can't find in the shops of my town, so I can do anything just clicking on the mouse!","At every time of the day I can communicate with people of all nationalities of the world, I can get information about everything, I can buy something which I can't find in the shops in my town, so I can do anything just by clicking on the mouse!",R:PREP R:ORTH R:NOUN:NUM R:VERB R:NOUN:INFL R:PREP M:PREP
"I always want to buy T - shirts, Jeans, Skirts, cosmetic, hairband, accessories, ring, earings, bracelet, shoes, hats, bags, fancy stationeries, interior stuffs and CD.","I always want to buy T - shirts, Jeans, Skirts, cosmetics, haribands, accessories, rings, earrings, bracelets, shoes, hats, bags, fancy stationery, interior stuff and CDs.",R:NOUN:NUM R:NOUN R:NOUN:NUM R:SPELL R:NOUN:NUM R:NOUN:INFL R:NOUN:NUM R:NOUN:NUM
"Nowaday, I organise my activities with an electronic organizer that authorizes me to connect to Internet by infra - red link with my mobile phone to get informations and electronic mails.","Nowadays, I organise my activities with an electronic organizer that allows me to connect to the Internet by infra - red link with my mobile phone to get information and electronic mail.",R:MORPH R:VERB M:DET R:NOUN:INFL R:NOUN:NUM
I often go on Internet to find informations for studying a precise subject more accutely (university technology sites).,I often go on the Internet to find information when studying a particular subject more closely (university technology sites).,M:DET R:NOUN:INFL R:OTHER R:ADJ R:SPELL
At work my personal job uses two standard PC with specifical softwares plus one workstation with the Stanford University Network (SUN) operating system and a particular computer that my firm is developping now.,At work my particular job involves two standard PCs with specific software plus one workstation with the Stanford University Network (SUN) operating system and a special computer that my firm is now developing.,R:ADJ R:VERB R:NOUN:NUM R:SPELL R:NOUN:INFL R:ADJ R:OTHER
Like my heros I would like to live in a ship and decided to build something in a tree.,"Like my heroes, I would have liked to live in a ship and decided to build something in a tree.",R:NOUN:INFL M:PUNCT R:VERB:TENSE
"Finally, may I ask some more informations.","Finally, may I ask for some more information?",M:PREP R:NOUN:INFL R:PUNCT
It must show the daily lifes of the English students at the school.,It must show the daily lives of the English students at the school.,R:NOUN:INFL
"I prefer to stay in log cabins than in tentes, because log cabins has much esctructure, that I need to stay for a few days.","I prefer to stay in log cabins rather than in tents, because log cabins have much esctructure, that I need to stay for a few days.",M:ADV R:NOUN:INFL R:VERB:SVA UNK
"So, I start every day, swiching on my mobile phone, to see if there are any more SMS messages before I go to the library to check my e - mail and that's just the begining of the day...","So, I start every day by switching on my mobile phone, to see if there are any more SMS messages before I go to the library to check my e - mail and that's just the beginning of the day...",U:PUNCT M:PREP R:SPELL R:NOUN:INFL
"It was exiting looking all three mens working together and building a scene, and it was interresting to help the sound engineer to check the sound and configuring his computers to get the best sound possible.","It was exciting looking at all three men working together and building a stage, and it was interesting to help the sound engineer to check the sound and configure his computers to get the best sound possible.",R:OTHER M:PREP R:NOUN:INFL R:NOUN R:SPELL R:MORPH
I have to get everythings that they need up to the stair.,I had to get everything that they needed up the stairs.,R:VERB:TENSE R:NOUN:INFL R:VERB:TENSE U:PREP R:NOUN:NUM
After the concert had finish i have to help them again to clean all the stuff. the carry everythings that I can carry back to the bus.,"After the concert had finished I had to help them again to clean all the stuff, I had to carry everything that I could carry back to the bus.",R:VERB:FORM R:ORTH R:VERB:TENSE R:PUNCT R:OTHER M:VERB:FORM R:NOUN:INFL R:VERB:TENSE
Finaly I would like to ask you for some further informations about the clothes and the money we will need.,Finally I would like to ask you for some further information about the clothes and the money we will need.,R:SPELL R:NOUN:INFL
"It is so practical, in five minuts my friend can read my letter.","It is so practical, in five minutes my friend can read my letter.",R:NOUN:INFL
Thank you for all informations you could give me.,Thank you for all the information you can give me.,M:DET R:NOUN:INFL R:VERB:TENSE
I hope I gave you all informations you need.,I hope I have given you all the information you need.,R:VERB:TENSE M:DET R:NOUN:INFL
It seems to me that more people in my hometown tend to go shopping in their free time because the shopping complexs nowadays are more attractive and combine every facilities inside.,It seems to me that more people in my hometown tend to go shopping in their free time because the shopping complexes nowadays are more attractive and combine every facility inside.,R:NOUN:INFL R:NOUN:NUM
"I also would prefer to sleep into tents which are more comfortable and, because I have been doing lots of campings, I am quite used to this kind of accomodation.","I also would prefer to sleep in tents, which are more comfortable, and, because I have been doing lots of camping, I am quite used to this kind of accommodation.",R:PREP M:PUNCT M:PUNCT R:NOUN:INFL R:SPELL
"Secondly, all the spectators were waiting the begining of the play at 19.30 and it started at 20.15 then I would like to know why do you say one time in the advertisement why do you do what you want.","Secondly, the whole audience were waiting for the beginning of the play at 19.30 and it started at 20.15, so I would like to know why you say one time in the advertisement and why you do what you want.",R:OTHER R:NOUN M:PREP R:NOUN:INFL M:PUNCT R:OTHER U:VERB:TENSE M:CONJ U:VERB:TENSE
Ealyer I had seen an advertisement for the show but the informationes on it caused fals.,Earlier I had seen an advertisement for the show but the information on it was false.,R:SPELL R:NOUN:INFL R:VERB R:SPELL
When I neaded some informationes I had to go to liblary to find it in books or newspapers.,When I needed some information I had to go to the library to find it in books or newspapers.,R:SPELL R:NOUN:INFL M:DET R:SPELL
"The main adventage is that, it provides you all the informations that you need.",The main advantage is that it provides you with all the information that you need.,R:SPELL U:PUNCT M:PREP R:NOUN:INFL
You get into the internet and you're looking for those facts and informations which will help you to do your homework.,You get on to the Internet and you're looking for those facts and information which will help you to do your homework.,R:PREP R:ORTH R:NOUN:INFL
"In answer to your letter, you will find below the informations you need.","In answer to your letter, you will find below the information you need.",R:NOUN:INFL
I am delighted to answer you back to give you more informations about me since I have won such a nice price.,I am delighted to reply to give you more information about me since I have won such a nice prize.,R:OTHER R:NOUN:INFL R:NOUN
"There are some things I would like to ask: the tipe (and quantity) of Clothes I will have to take, if it is necessary to take some money and any additional stuff (like raincoates).","There are some things I would like to ask about: the type (and quantity) of Clothes I will have to take, and if it is necessary to take some money or any additional stuff (like raincoats).",M:PREP R:SPELL M:CONJ R:CONJ R:NOUN:INFL
"He ran but it was too late, somebody had stolen the luggages.","He ran but it was too late, somebody had stolen the luggage.",R:NOUN:INFL
"Secondary, the advertising shows as the musical start 14.30 and 19:30, but the musical started 20:15, it's 45 minuts late, and also, I'd asked discount ticket in the ticket counter, but there are not available any discount tickets.","Secondly, the advertising states the musical starts at 14.30 and 19:30, but the musical started at 20:15. That's 45 minutes late, and also I asked for a discount ticket at the ticket counter, but no discount tickets were available.",R:MORPH R:VERB U:PREP R:VERB:SVA M:PREP M:PREP R:OTHER R:NOUN:INFL U:PUNCT U:CONTR M:OTHER R:PREP R:OTHER
"Nowadays, almost everybody have a microwaves oven, where you put your milk less than two minuts and it is ready to delight your mouth.","Nowadays, almost everybody has a microwave oven, where you put your milk for less than two minutes and it is ready to delight your mouth.",R:VERB:SVA R:NOUN:NUM M:PREP R:NOUN:INFL
"In addition childrens have so much lessons at school that they doesn't have enough spare time to see their parents, when they are in home.","In addition children have so many lessons at school that they don't have enough spare time to see their parents, when they are at home.",R:NOUN:INFL R:ADJ R:VERB:SVA R:PREP
"I was asked to put in order all the chair for the singer, this was only in the begining, after that I need to control all the microfons.",I was asked to put all the chairs in order for the singer. This was only in the beginning. After that I needed to check all the microphones.,R:OTHER R:PUNCT R:NOUN:INFL R:PUNCT R:VERB:TENSE R:VERB R:SPELL
Boys pearce their bodys just like girls do. and the other way around.,Boys pierce their bodies just like girls do and vice versa.,R:SPELL R:NOUN:INFL U:PUNCT R:OTHER
"My computer helps me in my studies, homeworks and projects for school.","My computer helps me with my studies, homework and projects for school.",R:PREP R:NOUN:INFL
"I received your letter, so I write you to give you some informations from me.","I received your letter, so I am writing to you to give you some information about me.",R:VERB:TENSE M:PREP R:NOUN:INFL R:PREP
HOW HAS TECHNOLOGY CHANGED OUR DAYLY LIFES,HOW HAS TECHNOLOGY CHANGED OUR DAILY LIVES?,R:SPELL R:NOUN:INFL M:PUNCT
"Conclugen: To sum up the above I'd like to suggest not to film anything longer than 1 or 2 minuts and have a nice mixture of places, faces and events.","Conclusion: To sum up the above I'd like to suggest not filming anything longer than 1 or 2 minutes and having a nice mixture of places, faces and events.",R:SPELL R:VERB:FORM R:NOUN:INFL R:VERB:FORM
Fist of all I'm going to give some informations about me.,First of all I'm going to give you some information about myself.,R:OTHER M:PRON R:NOUN:INFL R:PRON
At the begining I was very angry but in the end I said that everything is O.K.,At the beginning I was very angry but in the end I said that everything was O.K.,R:NOUN:INFL R:VERB:TENSE
At home young people should help their parents do some houseworks.,"At home, young people should help their parents do some housework.",M:PUNCT R:NOUN:INFL
"I think technology has become a part of our lifes, so we have to learn how to live in this new world, that is changing as fast as computers change.","I think technology has become a part of our lives, so we have to learn how to live in this new world, which is changing as fast as computers change.",R:NOUN:INFL R:DET
I was waiting for 45 minuts.,I was waiting for 45 minutes.,R:NOUN:INFL
"On Tuesday we have such lessons English, Math, Economics and Phisics.","On Tuesday we have these lessons: English, Maths, Economics and Physics.",R:OTHER M:PUNCT R:NOUN:INFL R:SPELL
"It is comfortable, not too big with a lot of carpets and antiques components for example potterys, my bed, and a wardrobe of my grandmother.","It is comfortable, not too big with a lot of carpets and antique objects, for example, pottery, my bed, and a wardrobe of my grandmother 's.",R:MORPH R:NOUN M:PUNCT M:PUNCT R:NOUN:INFL M:NOUN:POSS
Following the Famous people in order to discover something new of their lifes.,Following Famous people in order to discover something new about their lives.,U:DET R:PREP R:NOUN:INFL
The show started 45 minuts late without valid reasons!,The show started 45 minutes late without any valid reasons!,R:NOUN:INFL M:DET
So I decided to write you this letter to note that wrong informations and to ask for the restitution of the price of ticket or a part of that.,So I decided to write you this letter to complain about the inaccurate information and to ask for a refund for the price of the ticket or a part of that.,R:OTHER R:NOUN:INFL R:DET R:NOUN R:PREP M:DET
And of course the furnitures of people's home will not change as well.,And of course the furniture of people's homes will not change either.,R:NOUN:INFL R:NOUN:NUM R:ADV
"It is an obligation shopping medicines, clothes to winter, doctor visites, and so forth.","It is an obligation to shop for medicines, clothes for winter, doctor's visits, and so forth.",R:OTHER M:PREP R:PREP M:NOUN:POSS R:NOUN:INFL
Despite all this I would like to complain about some detailes.,Despite all this I would like to complain about some details.,R:NOUN:INFL
"For example 20 years ago, people who were affected by the AIDS Virus couldn't live more than two or three years, but now with the new science, there is several therapi and now people affected by this virus can live many years.","For example, 20 years ago, people who were affected by the AIDS Virus couldn't live more than two or three years, but now with the new science, there are several therapies and now people affected by this virus can live many years.",M:PUNCT R:VERB:SVA R:NOUN:INFL
I was doing my homeworks when I heard an explosion.,I was doing my homework when I heard an explosion.,R:NOUN:INFL
"Anyway, even in families they usauly have this problem that when they bought a new one, suddenly they have a problem that where the old one is going to be and that is the begining of argument between mother and farther or parents and chilldren.","Anyway, in families they usually have this problem that when they buy a new one, suddenly they have a problem about where the old one is going to be and that is the beginning of an argument between mother and father or parents and children.",U:ADV R:SPELL R:VERB:TENSE UNK R:OTHER R:NOUN:INFL M:DET R:OTHER R:SPELL
"Some people think that going shopping can keep you away from depression. You can enjoy your time spending all the money you have, buying clothes, jewells, furnitures, etc.","Some people think that going shopping can keep you away from depression. You can enjoy your time spending all the money you have, buying clothes, jewellery, furniture, etc.",R:SPELL R:NOUN:INFL
In your letter you needed some informations about me.,In your letter you asked for some information about me.,R:VERB M:PREP R:NOUN:INFL
I still studing at the moment I will finish at the end of June so I will be able to leave at the begining of July.,I am still studying at the moment I will finish at the end of June so I will be able to leave at the beginning of July.,M:VERB:TENSE R:SPELL R:NOUN:INFL
"In conclusion, we should work hard to learn knowledges, making the future better and better.","In conclusion, we should work hard to acquire knowledge to make the future better and better.",R:VERB R:NOUN:INFL U:PUNCT R:VERB:FORM
My holidays will finish in the begining of September and will be good to travel during this time.,My holidays will finish at the beginning of September and it will be good to travel during this period.,R:PREP R:NOUN:INFL M:PRON R:NOUN
"I would like to do tennis, because I used to play when I was at school and swiming because I like water sports and because I am good at it.","I would like to do tennis, because I used to play when I was at school, and swimming because I like water sports and because I am good at it.",M:PUNCT R:NOUN:INFL
"The day of the concert we helped to clean the place where the concert was performed and to have everything in order so the concert could be a succes, which it was.","The day of the concert we helped to clean the place where the concert was performed and to get everything in order so the concert could be a success, which it was.",R:VERB R:NOUN:INFL
What I particularly liked about this experience was meeting my favourite pop group and talk with them about their lifes as a pop group.,What I particularly liked about this experience was meeting my favourite pop group and talking with them about their lives as members of a pop group.,R:VERB:FORM R:NOUN:INFL M:OTHER
"First of all they are humans like everyone else, so yes everyone want privacy in their lifes.","First of all they are humans like everyone else, so yes everyone wants privacy in their lives.",R:VERB:SVA R:NOUN:INFL
I am very glad to hear that and would like to tell you all the informations you need to know from me.,I am very glad to hear that and would like to tell you all the information you need to know from me.,R:NOUN:INFL
"And first of all, before to ask for informations about the travel, I want to tell you thanks a lot.","And first of all, before I ask for information about the trip, I want to say thanks a lot.",M:PRON U:VERB:FORM R:NOUN:INFL R:NOUN R:VERB U:PRON
I would like to ask you for further informations about this travel.,I would like to ask you for further information about this trip.,R:NOUN:INFL R:NOUN
"Thanks for all these informations, I'm looking forward to hearing you again.",Thanks for all the information. I'm looking forward to hearing from you again.,R:DET R:NOUN:INFL R:PUNCT M:PREP
We are also enthusiastic about your sightseing in bus and River trip to Greenwich on Monday and visiting to National Art Gallery on Wednesday.,We are also enthusiastic about your sightseeing in bus and the River trip to Greenwich on Monday and visiting the National Art Gallery on Wednesday.,R:NOUN:INFL M:DET U:PREP M:DET
"This technologic improvement is changing people's lifes, behaviours even their homes.","This technological improvement is changing people's lives, behaviour, even their homes.",R:SPELL R:NOUN:INFL R:NOUN:NUM M:PUNCT
"Of course these gadgets will do our hard houseworks but otherwise we will get lazy, we will lose our abilities that we have now.","Of course these gadgets will do our hard housework but otherwise we will get lazy, we will lose the skills that we have now.",R:NOUN:INFL UNK R:DET R:NOUN
It means we'll lose our social lifes.,It means we'll lose our social life.,R:NOUN:INFL
They should seek to other lifes outside their homes.,They should seek another life outside their homes.,U:PREP R:OTHER R:NOUN:INFL
Our homes should just protect us dangeres from outside.,Our homes should just protect us from dangers from outside.,M:PREP R:NOUN:INFL
"We intrsted in politicians's and film stars's wear, hobbys, passions and the intrigues.","We are interested in politicians' and film stars' clothes, hobbies, passions and intrigues.",M:VERB R:SPELL R:NOUN:POSS R:NOUN:POSS R:NOUN R:NOUN:INFL U:DET
I asked her for hepl and she promised me do everythings what she can and keep my secret.,I asked her for help and she promised me she would do everything that she could and keep my secret.,R:SPELL M:OTHER R:NOUN:INFL R:PRON R:VERB:TENSE
I suggest to film our English lessons and Math lessons.,I suggest filming our English lessons and Maths lessons.,R:VERB:FORM R:NOUN:INFL
Also Math.,Also Maths,R:NOUN:INFL U:PUNCT
Many people don't like Math because they think that it's boreing subject.,Many people don't like Maths because they think that it's a boring subject.,R:NOUN:INFL M:DET R:MORPH
Our Math.,Our Maths,R:NOUN:INFL U:PUNCT
I think we should film the Math.,I think we should film the Maths,R:NOUN:INFL U:PUNCT
"lessons, so students and some teachers will change their opinion about Math.","lessons, so students and some teachers will change their opinion about Maths.",R:NOUN:INFL
I would like to know what the weather would be like at that time of the year so I am able to pack the essential clothings.,I would like to know what the weather is like at that time of the year so I am able to pack the essential clothing.,R:VERB:TENSE R:NOUN:INFL
"In accordance with study or work, I use a internet, which is the easist way to get informations all around the world.","In accordance with study or work, I use the Internet, which is the easiest way to get information from all around the world.",UNK R:DET R:ORTH R:SPELL R:NOUN:INFL M:PREP
"The concert was in the University in the middle of the field and at the begining when we arrived there weren't many people, only those who had to prepare the stage and the sound and of course us who had the job of serving drinks during the concert.","The concert was in the university in the middle of the field and at the beginning when we arrived there weren't many people, only those who had to prepare the stage and the sound system and of course us, who had the job of serving drinks during the concert.",R:ORTH R:NOUN:INFL M:NOUN M:PUNCT
I am looking on the shelfs but I'm not able to find anything from my shopping list.,I am looking on the shelves but I'm not able to find anything from my shopping list.,R:NOUN:INFL
"The last ten year computers had entered almost every house, especially in rich countrys.","In the last ten years computers have entered almost every house, especially in rich countries.",M:PREP R:NOUN:NUM R:VERB:TENSE R:NOUN:INFL
I like going between colourful shelfs and picking some nice things for dinner or for decorating our house with.,I like going between colourful shelves and picking some nice things for dinner or for decorating our house with.,R:NOUN:INFL
"So when the miserable musical came to his end, we were happy to leave the theater room, but we both wanted to have dinner in the theatre restaurant, because no restaurantes were opened anymore, because it started too late.","So when the miserable musical came to its end, we were happy to leave the theatre auditorium, but we both wanted to have dinner in the theatre restaurant, because no restaurants were open anymore, because it started too late.",R:DET R:SPELL R:NOUN R:NOUN:INFL R:MORPH
"Secondly, despite of your advertisement of the possibility of discounts, when I showed my student identity card to one of your employes she angrily told me that I had to pay the whole prize.","Secondly, despite your advertising the possibility of discounts, when I showed my student identity card to one of your employees she angrily told me that I had to pay the full price.",U:PREP R:MORPH U:PREP R:NOUN:INFL R:ADJ R:NOUN
"First, most part of shoping centres uses artificial illumination and refiguration, which are bad for our health. Queues and lots of people going round can be stressful and tiring.","First, most areas in shopping centres use artificial illumination and air conditioning, which are bad for our health. Queues and lots of people going round can be stressful and tiring.",R:NOUN R:PREP R:NOUN:INFL R:VERB:SVA R:NOUN
It's a part of our lifes.,It's a part of our lives.,R:NOUN:INFL
Why going to the countryside if you can sit there with a bowl of popcorns and watch T.V.,Why go to the countryside if you can sit there with a bowl of popcorn and watch TV.,R:VERB:FORM R:NOUN:INFL R:OTHER
Computer technology keeps improving all the time and consumes like me and you definitely have to pay our money to keep our personal computer up to date and able to work with new computer softwares that require more and more performance of computer hardware.,Computer technology keeps improving all the time and consumers like you and me definitely have to spend our money to keep our personal computer up to date and capable of working with the new computer software that requires more and more performance of computer hardware.,R:MORPH R:WO R:VERB R:OTHER R:VERB:FORM M:DET R:NOUN:INFL R:VERB:SVA UNK
But I hope that next year visitores of festival would be able to introduce with more art groups from all over the world.,But I hope that next year visitors to the festival will be able to be introduced to more art groups from all over the world.,R:NOUN:INFL R:PREP M:DET R:VERB:TENSE R:VERB:TENSE R:PREP
"We can also show one off de youngest classes and at the end one off de oldest, with this, the people who see the video will know the progres of our students.","We can also show one of the youngest classes and at the end one of the oldest. This way, the people who see the video will see the progress of our students.",R:PART R:OTHER R:PREP R:OTHER R:OTHER R:VERB R:NOUN:INFL
Every student in our school has one math class everyday.,Every student in our school has one maths class every day.,R:NOUN:INFL R:ORTH
Because of computeres or telephones I could have less chances to meet my friends than before.,Because of computers or telephones I could have less opportunities to meet my friends than before.,R:NOUN:INFL R:NOUN
Having won the trip to California delights me and I am providing you the further informations you asked for:,Having won the trip to California delights me and I am providing you with the further information you asked for:,M:PREP R:NOUN:INFL
Now I will give you the informations which you asked for.,Now I will give you the information which you asked for.,R:NOUN:INFL
In spite of this I am very happy because I know that Alice is preparing many activities to do together and to spend the best week in our lifes.,In spite of this I am very happy because I know that Alice is preparing many activities for us to do together so we have the best week of our lives.,M:OTHER R:OTHER M:PRON R:VERB R:PREP R:NOUN:INFL
"Good because you can have acess to a lot of informations, and it is bad because the computers are getting the people's work.","Good because you can have access to a lot of information, and it is bad because the computers are doing people's work.",R:SPELL R:NOUN:INFL R:VERB U:DET
"I think that anything that can make our lifes better, should be done, because that way we wouldn't have so many things to be concerned about, and we would be able to live a happier and more relaxed life.","I think that anything that can make our lives better should be done, because that way we won't have so many things to be concerned about, and we will be able to live a happier and more relaxed life.",R:NOUN:INFL U:PUNCT R:VERB:TENSE R:VERB:TENSE
"Let me explain you what it is: It must be an exhibition which takes place in the "" Central Exhibition Hall "" on Tuesday and deals with the latest fashions, the different leisures, make up and so on...","Let me explain to you what it is: It is an exhibition which takes place in the "" Central Exhibition Hall "" on Tuesday and deals with the latest fashions, the different leisure, make - up and so on...",M:PREP R:VERB:TENSE R:NOUN:INFL M:PUNCT
I would prefer to be accomodated in a log cabin as do not like sleeping on the mattres and I get allergy to rubber.,I would prefer to be accommodated in a log cabin as I do not like sleeping on a mattress and I get an allergy to rubber.,R:SPELL M:PRON R:DET R:NOUN:INFL M:DET
"We all have been shooping once in our lifes and sometimes it probably has not been very enjoyable, why? we had a class discussion and we all agree in some points.","We have all been shopping once in our lives and sometimes it probably has not been very enjoyable, why? We had a class discussion and we all agree on some points.",R:WO R:SPELL R:NOUN:INFL R:ORTH R:PREP
The main advantage of modern technology is getting more informations in shorter time.,The main advantage of modern technology is getting more information in a shorter time.,R:NOUN:INFL M:DET
I don't have to go to library and read hundred's of books to find informations anymore.,I don't have to go to the library and read hundreds of books to find information anymore.,M:DET R:OTHER R:NOUN:INFL
I have TV's and radios so I can watch or listen to various newses and I don't have to go to football pitches to see how the players are playing.,I have TV's and radios so I can watch or listen to various news and I don't have to go to football stadiums to see how the players are playing.,R:NOUN:INFL R:NOUN
Begin at the begining.,Begin at the beginning.,R:NOUN:INFL
However it's just the begining of the problems we had.,"However, that's just the beginning of the problems we had.",M:PUNCT R:PRON R:NOUN:INFL
It already started and don't have limites to go.,It has already started and has no limits.,M:VERB:TENSE R:OTHER R:NOUN:INFL U:VERB
Joging or doing some sports?,Jogging or some sports?,R:NOUN:INFL U:VERB
"And, we can also share important informations with other people.",And we can also share important information with other people.,U:PUNCT R:NOUN:INFL
I can also then wake up in the morning and take photographs of the wonderful sceneries.,I can also then wake up in the morning and take photographs of the wonderful scenery.,R:NOUN:INFL
"I do agree that shopping is not always enjoyable because of crowded shops and the price of clothes but I am sure that the majority of people do like shopping and I am sure that in the future, there will be no more crowded streets because of the' internet' which you can order onlines.","I do agree that shopping is not always enjoyable because of crowded shops and the price of clothes but I am sure that the majority of people do like shopping and I am sure that in the future there will be no more crowded streets because of the' Internet,' on which you can order online.",U:PUNCT R:ORTH M:PUNCT M:PREP R:NOUN:INFL
I use also the internet when I need any informations for example I need them for school or private for myself.,"I also use the Internet when I need any information, for example if I need some information for school or privately, for myself.",R:WO R:ORTH R:NOUN:INFL M:PUNCT M:PREP R:OTHER R:MORPH M:PUNCT
I think the advantage of modern technology is that all I do goes very fast and I have more time for my hobbys or for friends.,I think the advantage of modern technology is that everything I do goes very fast and I have more time for my hobbies or for friends.,R:OTHER R:NOUN:INFL
"Another technology that changed my life is the computer because you can do many things with it like homeworks, works, photos, but the most important at my eyes is the communication with my friends from different parts of the world by the web.","Another piece of technology that changed my life is the computer because you can do many things with it, like homework, work, photos, but the most important in my eyes is communication with my friends from different parts of the world via the web.",M:OTHER M:PUNCT R:NOUN:INFL R:NOUN:NUM R:PREP U:DET R:PREP
Here there are the informations you require.,Here is the information you require.,U:ADV R:VERB:SVA R:NOUN:INFL
"I really enjoyed to be next to the pop stars I got a lot of autographes, that was the first time I've seen like Jagger a lot of well know pop stars was there.",I really enjoyed being next to the pop stars. I got a lot of autographs. That was the first time I've seen someone like Jagger. A lot of well - known pop stars were there.,R:VERB:FORM M:PUNCT R:NOUN:INFL R:PUNCT M:NOUN M:PUNCT R:OTHER R:VERB:SVA
Could you send me more informations about clothes to take with?,Could you send me more information about what clothes to take with me?,R:NOUN:INFL M:PRON M:PRON
When the clock showed 8:00 they hide themselves under the tables and the furnitures.,When the clock showed 8:00 they hid themselves under the tables and the other furniture.,R:VERB:TENSE M:ADJ R:NOUN:INFL
"And when we understand internet, we thought that meeting people from other countrys and could "" chat "" with them, was the top of the tecnology.","And when we understood the Internet, we thought that meeting people from other countries and being able "" to chat "" with them was the height of technology.",R:VERB:TENSE M:DET R:ORTH R:NOUN:INFL R:OTHER M:VERB:TENSE U:PUNCT R:NOUN U:DET R:SPELL
"It is closed all sundays, you have to say it.",It is closed every Sunday; you have to say that.,R:DET R:NOUN:INFL R:PUNCT R:PRON
"This show give us a lot of informations about current activities, fashion and what is happened here in London for example lastest fashions, leisure and sports wear, make up, hairstyles.","This show would give us a lot of information about current activities, fashion and what is happening here in London with, for example, the latest fashions, leisure and sports wear, make - up, and hairstyles.",M:VERB:TENSE R:NOUN:INFL R:VERB:FORM M:PREP M:PUNCT M:PUNCT M:DET R:SPELL M:PUNCT M:CONJ
"We have more time to stay together at home, watching TV, playing games, etc.... because we can access to internet at home we can have all informations from internet.","We have more time to stay together at home, watching TV, playing games, etc.... because we can access the Internet at home. We can have all the information from the Internet.",U:PREP M:DET R:ORTH M:PUNCT M:DET R:NOUN:INFL M:DET R:ORTH
"When someone comes specially to see Danny Brook acting, one of my favourites singers, whose career I have been following since the begining, and never appear, and nobody give any reason to the audience, how should one feel?","When someone comes specially to see Danny Brook acting, one of my favourite singers, whose career I have been following from the beginning, and Danny Brook never appears, and nobody gives any reason to the audience, how should one feel?",R:MORPH R:PREP R:NOUN:INFL M:NOUN R:VERB:SVA R:VERB:SVA
"I mean, they enjoin being the point of view or the center of everyone, even though it means to see their lifes.","I mean, they enjoy being the focus or the centre of attention for everyone, even though it means seeing their lives.",R:VERB R:OTHER R:OTHER R:PREP R:VERB:FORM R:NOUN:INFL
"Nevertheless, sometimes communications disturb their lifes in a wrong way.","Nevertheless, sometimes the media disturbs their lives in a wrong way.",R:OTHER R:VERB:SVA R:NOUN:INFL
"In the first place, some housewifes don't like to go to the supermarket because it is not fun to go shopping with a long list and decide which one is the first and the second.","In the first place, some housewives don't like to go to the supermarket because it is not fun to go shopping with a long list and decide which one is the first and the second.",R:NOUN:INFL
Shoping is not always enjoyable.,Shopping is not always enjoyable.,R:NOUN:INFL
I chat with other people in order to exchange our points of view or I look for informations I need for my studies.,I chat with other people in order to exchange our points of view or I look for information I need for my studies.,R:NOUN:INFL
", you can find all informations you need for yourself.",", you can find all the information you need for yourself.",M:DET R:NOUN:INFL
Therefore it make sense to use the inovation which are standing for environmental destructions.,Therefore it makes sense to use the innovations which are causing environmental destruction.,R:VERB:SVA R:SPELL R:VERB U:PREP R:NOUN:INFL
"For pratical informations, this show start at 10.00 and close at 19.00.","For practical information, this show starts at 10.00 and closes at 19.00.",R:SPELL R:NOUN:INFL R:VERB:SVA R:VERB:SVA
"BUT IT IS NEARLY IMPOSSIBLE TO DEFINE IT OR TO FIX THE RULES WITHIN WHICH IT DEVELOPES; NOWADAYS THE FASHION WORLD INCLUDES (AND IS CREATED BY) STYLISTS FROM ALL OVER THE WORLD, EACH ONE PRESENTING A DIFFERENT MODEL OF BEAUTY, SOMETIMES ONE OPPOSITE FROM ANOTHER.","BUT IT IS NEARLY IMPOSSIBLE TO DEFINE IT OR TO FIX THE RULES WITHIN WHICH IT DEVELOPS; NOWADAYS THE FASHION WORLD INCLUDES (AND IS CREATED BY) DESIGNERS FROM ALL OVER THE WORLD, EACH ONE PRESENTING A DIFFERENT MODEL OF BEAUTY, SOMETIMES ONE THE OPPOSITE OF ANOTHER.",R:NOUN:INFL R:VERB M:DET R:PREP
Your letter contains few questions about detailes of my holiday which I would like to clarify for you.,Your letter contains a few questions about the details of my holiday which I would like to answer for you.,M:DET M:DET R:NOUN:INFL R:VERB
At the end I would like ones more to say thanks for your letter and I look forward to hearing from you by post with all detailes about holiday.,Finally I would like once more to say thanks for your letter and I look forward to hearing from you by post with all the details about the holiday.,R:OTHER R:OTHER M:DET R:NOUN:INFL M:DET
I will like to have more information about the prices of the clothes and souvenires.,I would like to have more information about the prices of the clothes and souvenirs.,R:VERB:TENSE R:NOUN:INFL
"We sed yes inmidiatly, I nearly shouted of happines when they told us that, Luis Miguel was doing the concert, he is my favorite singer.",We said yes immediately. I nearly shouted with happiness when they told us that Luis Miguel was giving the concert. He is my favourite singer.,R:SPELL R:SPELL R:PUNCT R:PREP R:NOUN:INFL U:PUNCT R:VERB R:PUNCT R:SPELL
"Despite the bad aspects that the modern technology can bring, in my opinion, if the governments tryed to do the best, and if everybody contribute with a little bit, we can solve the main problems and only take advantage of the benefits to our lifes.","Despite the bad things that modern technology can bring, in my opinion, if the governments tried to do their best, and if everybody contributed a little bit, we could solve the main problems and only take advantage of the benefits to our lives.",R:NOUN U:DET R:VERB:INFL R:DET R:VERB:TENSE U:PREP R:VERB:TENSE R:NOUN:INFL
It seemed very attractive and the different informations on the ad pushed me into going to it.,It seemed very attractive and the information on the ad pushed me into going to it.,U:ADJ R:NOUN:INFL
"As far as I am concerned, the first way modern technology influence me is in my work: the internet has become such an incredible tool, I can make research about everything I want, find informations for lectures for example or exercices.","As far as I am concerned, the first way modern technology influences me is through my work: the Internet has become such an incredible tool, I can research into everything I want, find information for lectures, for example, or exercises.",R:VERB:SVA R:PREP R:ORTH U:VERB R:PREP R:NOUN:INFL M:PUNCT M:PUNCT R:SPELL
I am sending you this reply with the informations that you need.,I am sending you this reply with the information that you need.,R:NOUN:INFL
Most of the weekend I go for swiming and tennis.,Most of the weekend I go swimming and play tennis.,UNK U:PREP R:NOUN:INFL M:VERB
"My last holiday in tend I had very bad experience, the mosquitos nearly killed me.","On my last holiday in a tent I had a very bad experience, the mosquitoes nearly killed me.",M:PREP M:DET R:NOUN M:DET R:NOUN:INFL
"Although many people think that the home of the future will be something like an UFO, in my opinion the changes won't be very important, they will probably consist on making the houseworks easier.","Although many people think that the home of the future will be something like a UFO, in my opinion the changes won't be very great, they will probably consist of making the housework easier.",R:DET R:ADJ R:PREP R:NOUN:INFL
"In my opionion, I think you should organised this programme in the afternoon instead of going for shopping and move the shoping time in the afternoon on Wednesday.","In my opinion, I think you should have this event in the afternoon instead of going shopping and move the shopping slot to the afternoon on Wednesday.",R:SPELL R:VERB R:NOUN U:PREP R:NOUN:INFL R:NOUN R:PREP
There's really no way to be together just only with your friends or relatives without being disturbed by these paparazzis.,There's really no way to be together simply with your friends or relatives without being disturbed by the paparazzi.,U:ADV R:ADV R:DET R:NOUN:INFL
For example Lady Diana. Do you think she would have been still alive if she and her boyfriend hadn't been followed by these nosy paparazzis?,"For example, Lady Diana. Do you think she would still be alive if she and her boyfriend hadn't been followed by those nosy paparazzi?",M:PUNCT R:OTHER R:DET R:NOUN:INFL
But i hope that i will be time when each person can buy to himself everything that he or she want. and shoppings will be allways enjoyable.,But I hope that there will be a time when each person can buy himself everything that he or she wants and shopping will always be enjoyable.,R:ORTH R:OTHER M:DET U:PREP R:VERB:SVA U:PUNCT R:NOUN:INFL R:OTHER
"It affects our lifes, my too.",It affects our lives - mine too.,R:NOUN:INFL R:PUNCT R:OTHER
Shoping is not always enjoyable,Shopping is not always enjoyable,R:NOUN:INFL
"In my opinion the better time for shoping is weekdays, preferably in the morning.","In my opinion the best time for shopping is weekdays, preferably in the morning.",R:ADJ:FORM R:NOUN:INFL
"But, for luck, it wasn't achieved with succes of our concert. You have to admit, that the show was magnificent.","But, luckily, it wasn't achieved with success of our concert. You have to admit, that the show was magnificent.",R:OTHER R:NOUN:INFL
"The technology has changed, is changing and it will change our daily lifes.","Technology has changed, is changing and it will change our daily lives.",U:DET R:NOUN:INFL
Our lifes are very different from our grandparent's lifes and that's because the technology.,Our lives are very different from our grandparents' lives and that's because of technology.,R:NOUN:INFL R:NOUN:POSS R:MORPH M:PREP U:DET
"On the other hand, famous people have point, if they do not allow paparazzis to take their pictures. Because, althoug they are famous they have also their private life.","On the other hand, famous people have a point if they do not allow the paparazzi to take their pictures, because although they are famous they also have their private life.",M:DET U:PUNCT M:DET R:NOUN:INFL R:PUNCT U:PUNCT R:SPELL R:WO
Can you give this informations?,Can you give me this information?,M:PRON R:NOUN:INFL
"Those things can and do make our lifes easier and more comfortable, but the call us away from our friends, our families and more over they lead us to madness and cut any relantionship with everything that suround us and keep us in life.","Those things can and do make our lives easier and more comfortable, but they take us away from our friends, our families and moreover they lead us to madness and cut off any relationship with everything that surrounds us and keeps us alive.",R:NOUN:INFL R:PRON R:VERB R:ORTH M:PART R:SPELL R:SPELL R:VERB:SVA U:PREP R:OTHER
"I told myself, I could eat over there and maybe spend a better evening than at the begining but I wasn't lucky because the restaurant was closed!","I told myself, I could eat over there and maybe have a better evening than I was having at the beginning of the show but I wasn't lucky because the restaurant was closed!",R:VERB M:OTHER R:NOUN:INFL M:OTHER
"From the begining of the century to now, modern technology has changed and has made our daily life easier.","From the beginning of the century to now, modern technology has changed and has made our daily life easier.",R:NOUN:INFL
Material and coloures of your cloths has changed since the early 1900's to 2000.,The material and colours of your clothes have changed since the early 1900s.,M:DET R:NOUN:INFL R:MORPH R:VERB:SVA R:OTHER U:OTHER
You ask me for some informations - here they are.,You ask me for some information - here it is.,R:NOUN:INFL R:PRON R:VERB:SVA
"Actually, whereas they used to talk about how their daily life had changed in comparison with previous generations ', we remain astonished looking how our lifes are changing frenetically.","Actually, whereas they used to talk about how their daily lives had changed in comparison with previous generations ', we remain astonished, looking at how our lives are changing frenetically.",R:NOUN:NUM M:PUNCT M:PREP R:NOUN:INFL
Also the sports - activities should be filmed; they express an aggregative and social way of living school - life and can be useful to see and check out the moviments of the bodys during the atletics - school games.,Also the sports activities should be filmed; they express an aggregative and social way of living school life and can be useful to show the movements of the bodies during the school athletics events.,U:PUNCT UNK U:PUNCT R:VERB U:OTHER R:SPELL R:NOUN:INFL R:OTHER
"TODAY, I CAN TAKE MOST OF MY SCHOOL'S HOMEWORKS FROM THE COMPUTER ENCYCLOPAEDIA AND IT DOESN'T WEIGHT MORE THAN AN APPLE!","TODAY, I CAN DO MOST OF MY SCHOOL HOMEWORK WITH THE COMPUTER ENCYCLOPAEDIA AND IT DOESN'T WEIGH MORE THAN AN APPLE!",R:VERB U:NOUN:POSS R:NOUN:INFL R:PREP R:ADV
What we all did was making many cups of coffees and help to find their missing socks or any other clothings.,What we all did was make many cups of coffee and help to find their missing socks or any other clothing.,R:VERB:FORM R:NOUN:NUM R:NOUN:INFL
- At the math lesson and the English lesson we could show how the teacher learn at his students.,- In the maths lesson and the English lesson we could show how the teacher teaches his students.,R:PREP R:NOUN:INFL R:VERB U:PREP
"If you ask at twenty womans what is their favorite hobbies probably the most of them will answer "" shopping "".","If you ask twenty women what their favourite hobbies are probably most of them will answer "" shopping "".",U:PREP R:NOUN:INFL R:OTHER U:DET
Now I am going to give you some further informations I would like to travel only in July because I am a student in High school and this is most important year of my life I am studying to university entrance exams and I have to study until the end of June and then by the end of June I will be having university entrance exam after that in July I am going to be alright.,"Now I am going to give you some further information: I would like to travel only in July because I am a student in high school and this is the most important year of my life. I am studying for the university entrance exams and I have to study until the end of June and then at the end of June I will have the university entrance exam and after that, in July, I am going to be alright.",R:NOUN:INFL M:PUNCT R:ORTH M:DET M:PUNCT R:PREP M:DET R:PREP R:VERB:TENSE M:DET M:CONJ M:PUNCT M:PUNCT
Of course in the begining it is hard but you can learn a lot and if you're good at you'll also earn some money.,Of course in the beginning it is hard but you can learn a lot and if you're good at it you'll also earn some money.,R:NOUN:INFL M:PRON
Nowadays students have much more facilitis in education than before.,Nowadays students have many more facilities in education than before.,R:OTHER R:NOUN:INFL
"Maybe, in a few years later we'll have a bigger TV, a more suitable radio but, from my point of view, I think these facts will not change the way of our lifes. We will be able to accelerate the process of the computer's games for example...","Maybe, in a few years' time we'll have a bigger TV, a more suitable radio but, in my opinion, I think these facts will not change our way of life. We will be able to speed up the running of computer games, for example...",M:NOUN:POSS R:OTHER R:OTHER R:DET U:DET R:NOUN:INFL R:VERB R:NOUN U:DET U:NOUN:POSS M:PUNCT
"In conclusion, I strongly believe that the the house of the future will be the house of a new mindness it will be a very positiu point for opening our lifes.","In conclusion, I strongly believe that the house of the future will be the house of a new awareness. It will be a very positive point for opening up our lives.",U:DET R:NOUN M:PUNCT R:SPELL M:PART R:NOUN:INFL
I used to go to campings.,I used to go camping.,U:PREP R:NOUN:INFL
"That evening was terrible for me and for my friends, so I'm not satisfied about your informations and I ask some money back.","That evening was terrible for me and for my friends, so I'm not satisfied with your information and I ask for some money back.",R:PREP R:NOUN:INFL M:PREP
"WE THINK IS A GRATE OPORTUNITY, BECAUSE AS YOU KNOW, WE DON'T HAVE ACCES TO THAT KIND OF SHOWS IN THIS CITY.","WE THINK IT IS A GREAT OPPORTUNITY, BECAUSE AS YOU KNOW, WE DON'T HAVE ACCESS TO THAT KIND OF SHOW IN THIS CITY.",M:PRON R:NOUN R:SPELL R:NOUN:INFL R:NOUN:NUM
Best regardes!,Best regards!,R:NOUN:INFL
Shoping is not always enjoyable.,Shopping is not always enjoyable.,R:NOUN:INFL
Last week I was on holiday in London and I went to the theatre for entertaining but I wish I'd not go there because everythings went wrong.,Last week I was on holiday in London and I went to the theatre for entertaining but I wish I'd not gone there because everything went wrong.,UNK R:VERB:FORM R:NOUN:INFL
We had a fantastic time together for three monthes.,We had a fantastic time together for three months.,R:NOUN:INFL
"Imagine that all the people have masks on their mouthes and noses like we have sun - glasses, and that all the masks are designers brands, which are made of special material to prevent us from breathing in polluted air.","Imagine that all the people have masks on their mouths and noses like we have sun - glasses, and that all the masks are designer brands, which are made of a special material to prevent us from breathing in polluted air.",R:NOUN:INFL R:NOUN:NUM M:DET
The fashion of nowaday clothings is just keep on changing.,The fashion in nowaday clothing just keeps on changing.,R:PREP UNK R:NOUN:INFL U:VERB:TENSE R:VERB:SVA
Maybe paper can also be a farbic use for make clothings and for those who like to wear new clothes everyday.,Maybe paper can also be a fabric used to make clothing and for those who like to wear new clothes every day.,R:SPELL R:VERB:FORM U:PREP M:VERB:FORM R:NOUN:INFL R:ORTH
It helps me in preparing my homeworks.,It helps me with preparing my homework.,R:PREP R:NOUN:INFL
At the begining I would like to thank You for Your letter - it pleased me much.,At the beginning I would like to thank You for Your letter - it pleased me much.,R:NOUN:INFL
I would like You to know also about my two hobbys: swimming and surfing.,I would also like you to know about my two hobbies: swimming and surfing.,R:WO R:NOUN:INFL
They are able to give and receive informations very quickly.,They are able to give and receive information very quickly.,R:NOUN:INFL
This animated box can give us a lot of informations coming from all around the world.,This animated box can give us a lot of information from all around the world.,R:NOUN:INFL U:VERB
"I hope that these informations will bring you to visit Biasco and its,, house "".","I hope that this information will encourage you to visit Biasco and its,, house "".",R:DET R:NOUN:INFL R:VERB
"As you already know we are going to have the end - of - conference party where the Head of the college will give a small speech at the begining, then it will a buffet and a disco.","As you already know, we are going to have an end - of - conference party where the Head of the college will give a short speech at the beginning, then there will be a buffet and a disco.",M:PUNCT R:DET R:ADJ R:NOUN:INFL R:OTHER M:VERB
"The hystorical museum is simply a symbol, a proof of what greek have always considered as main principal: their freedom.","The historical museum is simply a symbol, a proof of what the Greeks have always considered as a fundamental principle: their freedom.",R:SPELL UNK M:DET R:NOUN:INFL M:DET R:ADJ R:NOUN
In this year the familys they have 3 cars in one family one by one person.,This year the families they have 3 cars in one family one by one person.,U:PREP R:NOUN:INFL
"The computer is very useful and It has affect our own lifes, in differents meanings.",The computer is very useful and it has affected our own lives in different ways.,R:ORTH R:VERB:FORM R:NOUN:INFL U:PUNCT R:MORPH R:NOUN
And you can take lots of informations about a lot of things.,And you can get lots of information about a lot of things.,R:VERB R:NOUN:INFL
"However, due to the congestions and delay near the hotel, the best way to get from there to the conference is by underground, Victoria Street station.","However, due to the congestion and delays near the hotel, the best way to get from there to the conference is on the underground, from Victoria Street Station.",R:NOUN:INFL R:NOUN:NUM R:PREP M:DET M:PREP R:ORTH
"Another point in favour of the invention for the TV is, that they telling about interesting reports, for instance about animals or different culture from other countrys.","Another point in favour of the TV is that it shows interesting reports, for instance about animals or the different culture of other countries.",U:OTHER U:PUNCT R:PRON R:VERB U:PREP M:DET R:PREP R:NOUN:INFL
"It has been affecting our lifes very quickly, although there were some different ways of communication as TV, for instance.","It affected our lives very quickly, although there are some different means of communication such as TV, for instance.",R:VERB:TENSE R:NOUN:INFL R:VERB:TENSE R:NOUN M:ADJ
"Since the internet was introduced, many of us wouldn't have imagined the lifes without this.","Since the Internet was introduced, many of us can't imagine life without it.",R:ORTH R:OTHER U:DET R:NOUN:INFL R:PRON
There are some informations you have asked me about.,There is some information you have asked me about.,R:VERB:SVA R:NOUN:INFL
"I do welcome you and your group, and I am willing to help you by giving the informations that you have asked me.","I do welcome you and your group, and I am willing to help you by giving the information that you have asked me for.",R:NOUN:INFL M:PREP
But to my opinion if peoples inventions take a place in our lifes they are right then.,But in my opinion if people's inventions have a place in our lives they are right then.,R:PREP R:NOUN:POSS R:VERB R:NOUN:INFL UNK
I think the telefone is the most important thing in many people's lifes as it makes you to be able to get in touch with anyone doesn't matter wherever you are (I am talking about mobile phones which now have a majority of our choice).,"I think the telephone is the most important thing in many people's lives as it allows you to get in touch with anyone and it doesn't matter where you are (I am talking about mobile phones, which a majority now have through choice).",R:SPELL R:NOUN:INFL R:VERB U:OTHER M:OTHER R:ADV M:PUNCT R:WO R:PREP U:DET
I hope that these informations will help you,I hope that this information will help you.,R:DET R:NOUN:INFL M:PUNCT
"I am sure, the phone has saved many lifes.",I am sure the phone has saved many lives.,U:PUNCT R:NOUN:INFL
I think I gave you all importen informations.,I think I have given you all the important information.,R:VERB:TENSE M:DET R:SPELL R:NOUN:INFL
I'm positive that after such an experience everyone says that the oven is a really important invention for our lifes.,I'm positive that after such an experience everyone would say that the oven is a really important invention for our lives.,R:VERB:TENSE R:NOUN:INFL
"In our lifes, may be, couldn't be without electricity.","In our lives, maybe, couldn't be without electricity.",R:NOUN:INFL R:ORTH
Small things but very importants in our lifes.,Small things but very important in our lives.,R:MORPH R:NOUN:INFL
"Now, just you need to think that you would do or what would happen in a city, with a car, aeroplans, shoops, all these things without lights.","Now, you just need to think that you would do or what would happen in a city, with a car, aeroplanes, shops, all these things without lights.",R:WO R:NOUN:INFL R:SPELL
"I hope that these informations below are very useful to you, during your attempt of conference.","I hope that the information below is very useful to you, during your attendance at the conference.",R:DET R:NOUN:INFL R:VERB:SVA R:NOUN R:PREP M:DET
"In these gallaries there are Historical paintings, antique furnitures which Chiang used.",In these galleries there are Historical paintings and antique furniture which Chiang used.,R:SPELL UNK R:OTHER R:NOUN:INFL
"I am very happy to help you and I hope that the informations, that I am going to give you, will be enough.",I am very happy to help you and I hope that the information that I am going to give you will be satisfactory.,R:NOUN:INFL U:PUNCT U:PUNCT R:ADJ
The aim of this report is to give further informations on an interesting building to visit in Lausanne.,The aim of this report is to give you further information on an interesting building to visit in Lausanne.,M:PRON R:NOUN:INFL
I will give you some informations on the yverdon's castle.,I will give you some information on Yverdon's castle.,R:NOUN:INFL U:DET R:ORTH
"Our city has got the biggest shoping centre in South England, there gathers so many shops.",Our city has got the biggest shopping centre in South England. There are so many shops.,R:NOUN:INFL R:PUNCT R:VERB
I am writing to you to give you more informations about an international student conference.,I am writing to you to give you more information about the international student conference.,R:NOUN:INFL R:DET
"On the positive side, you and the group will be abe to learn more about Welsh art works which are presented on the wall, on the door and some furnitures.","On the positive side, you and the group will be able to learn more about Welsh artworks which are presented on the wall, on the door and some furniture.",R:SPELL R:ORTH R:NOUN:INFL
Todays nobody could imagine such a situation.,Today nobody could imagine such a situation.,R:NOUN:INFL
best regardes,best regards,R:NOUN:INFL
"There are plenty of churchs, cathedrals, and olds cotages.","There are plenty of churches, cathedrals, and old cottages.",R:NOUN:INFL R:MORPH R:SPELL
The churchs and the cathedral are very intesting because of their differents romanics styles.,The churches and the cathedral are very interesting because of their different Romanic styles.,R:NOUN:INFL R:SPELL R:MORPH R:MORPH
