Original sentence,Expected sentence,Mistake categories
"Suddenly, he heard something, was it an animal?, he thinked.","Suddenly, he heard something. Was it an animal?, he thought.",R:PUNCT R:VERB:INFL
The lion was getting closer and when he reached Max he layed on the floor and looked at the boy.,The lion was getting closer and when he reached Max he lay on the floor and looked at the boy.,R:VERB:INFL
"Second, the text support that the computers were evaluated by the own people that submited the test.","Second, the text support that the computers were evaluated by the same people that submitted the test.",UNK R:ADJ R:VERB:INFL
"I wanted we can live together forever, they taked care of me, loved me, we lived in the same house, we had a happy family.","I wanted us to be able to live together forever. They took care of me, loved me, we lived in the same house, we had a happy family.",R:OTHER R:OTHER R:PUNCT R:VERB:INFL
I thinked these things.,I thought these things.,R:VERB:INFL
"Nowadays, an increasing number of people are concerned about the phenomenon that armland, forest and wetland is disappearing for some long - term human activities, for instant housing and transport networks is builded by destroying the balance of environment.","Nowadays, an increasing number of people are concerned about the phenomenon of farmland, forest and wetland disappearing because of some long - term human activities, for instance housing and transport networks are built, destroying the balance of the environment.",R:OTHER R:SPELL U:VERB:TENSE R:PREP R:MORPH R:VERB:SVA R:VERB:INFL R:OTHER M:DET
"Firstly it is clear that more house and transport networks is convenient for our people, what is knowed to us is that the population growth is a big problems, which is needed for more palce to living.","Firstly, it is clear that more houses and transport networks are convenient for our people. What is known to us is that the population growth is a big problem which creates a need for more space for living in.",M:PUNCT R:NOUN:NUM R:VERB:SVA R:PUNCT R:VERB:INFL R:OTHER R:OTHER R:SPELL R:PREP M:PREP
"Although the number of cars are increasing day by day, however most of the people traveled through the public transport.Their limited income restrict them to buy cars.","Although the number of cars is increasing day by day, most people travel via public transport. Their limited income restricts their ability to buy cars.",R:VERB:SVA U:ADV U:OTHER R:VERB:INFL R:PREP U:DET R:ORTH R:VERB:SVA R:OTHER
"But everything became out of control for the criminals when one of her captors kicked on her abdomen, the substance spilles through her body and she begins to experience a different state of consciousness in which she dizzily enhanced her IQ from 2% to almost 100% of his capacity.",But everything went out of control for the criminals when one of her captors kicked her in her abdomen. The substance spills through her body and she begins to experience a different state of consciousness in which she dizzily enhanced her IQ from 2% to almost 100% of its capacity.,R:VERB M:PRON R:PREP R:PUNCT R:VERB:INFL R:DET
"From the beginning of the world till now, human wants the fast income and the easy ways of live, so he tries more and more to find a solution for his problems by creating a new ways of liveing more easy and more convenient for him.","From the beginning of the world till now, mankind has wanted a fast income and an easy way of life, so he tries more and more to find a solution to his problems by creating new ways of living more easily and more conveniently for him.",R:OTHER R:VERB:TENSE R:DET R:DET R:NOUN:NUM R:OTHER R:PREP U:DET R:VERB:INFL R:MORPH R:MORPH
"Beacuse we were borned in' the internet generation' as everyone says, so this aspect might be helpful for us.","Because we were born in' the internet generation' as everyone says, so this aspect might be helpful for us.",R:SPELL R:VERB:INFL
It usually saled most in Apr - Jun and Oct - Dec and slided to the bottom in Jul - Sep.,It usually sold most in Apr - Jun and Oct - Dec and slid to the bottom in Jul - Sep.,R:SPELL R:VERB:INFL
"Because, When I was young, My parents Feeded it for me every summer Seasons.","This is because, when I was young, my parents fed it to me every summer season.",M:OTHER R:ORTH R:ORTH R:VERB:INFL R:PREP R:NOUN:NUM
"For example, the planetarium in a navigate room for learnt about the position of star, four small boats use for practiced the leadership and navigation in Pontevedra river, or even the simulation for maked the situations which are seldom happen.","For example, the planetarium in a navigation room for learning about the position of stars, four small boats used to practice leadership and navigation in the Pontevedra river, or even the simulation for creating situations which seldom arise.",R:MORPH R:VERB:FORM R:NOUN:NUM R:VERB:FORM R:VERB:TENSE R:VERB:INFL U:DET M:DET R:VERB U:DET U:VERB:TENSE R:VERB
"Nowadays, I see everywhere bins and even a small kid of 3 years being teached to put unwanted materials in the bin.","Nowadays, I see bins everywhere and even a small child of 3 being taught to put unwanted materials in the bin.",R:WO R:NOUN U:NOUN R:VERB:INFL
On Saturday they fighted and Michael closed the door and knew at that moment he had made a mistake.,On Saturday they fought and Michael closed the door and knew at that moment he had made a mistake.,R:VERB:INFL
Traveling by cars gives flexibility in our schedule.,Travelling by car gives flexibility in our schedule.,R:VERB:INFL R:NOUN:NUM
"Then, the large number of entertainment programs broadcasted discourage those who want more cultural or factual programs, as they have been drastically reduced.","Then, the large number of entertainment programs broadcast discourage those who want more cultural or factual programs, as they have been drastically reduced.",R:VERB:INFL
that is why I don't understand why is it so important for people to know what happenes with celebrity?,and that is why I don't understand why is it so important for people to know what happens to a celebrity?,M:CONJ R:VERB:INFL R:PREP M:DET
"Mankind has always strived for freedom in one way or another, and taking away the control of their own house, their sanctuary, will not be taken lightly by them.","Mankind has always striven for freedom in one way or another, and taking away control over their own house, their sanctuary, will not be taken lightly by them.",R:VERB:INFL U:DET R:PREP
"One of my carachteristics is that I'm a very precise person, for example I enjoy making lists because they make my mind clearer, and I strictly follow what I wrote so everything, hopefully, endes well.","One of my characteristics is that I'm a very precise person. For example, I enjoy making lists because they make my mind clearer, and I strictly follow what I wrote so everything, hopefully, ends well.",R:SPELL R:PUNCT M:PUNCT R:VERB:INFL
I considerer that Granada score 6.5 of 10 about taking care of envirnoment.,I consider that Granada scores 6.5 out of 10 for taking care of the environment.,R:VERB:INFL R:VERB:SVA M:PREP R:PREP M:DET R:SPELL
- Method: Data selection- The three songs we will be analyzed and the reasons why we've chose them,- Method: Data selection- The three songs we will be analyzing and the reasons why we've chosen them,R:VERB:INFL R:VERB:FORM
"Anastasia's song tells a story of a victim, meanwhile the others talk about women that fell guilty because they have hurted men.","Anastasia's song tells a story of a victim. Meanwhile, the others talk about women that feel guilty because they have hurt men.",R:PUNCT M:PUNCT R:VERB R:VERB:INFL
"Peter tryed to stop them but it was impossible, so he tried to find somebody to separate them.","Peter tried to stop them but it was impossible, so he tried to find somebody to separate them.",R:VERB:INFL
It calmes me down and freaks me out at the same time.,It calms me down and freaks me out at the same time.,R:VERB:INFL
"From booking a flight to videocall a distant friend, anything seems very handy nowadays.","From booking a flight to videocalling a distant friend, everything seems very handy nowadays.",R:VERB:INFL R:NOUN
"In the last few years forensic biology has developed many aspects like better sensibility, robustness of results and less time required for analyze a sample, but what struck me most is how fast this change happens.","In the last few years, forensic biology has developed many aspects like better sensitivity, robustness of results and less time required for analyzing a sample, but what struck me most is how fast this change has happened.",M:PUNCT R:NOUN R:VERB:INFL R:VERB:TENSE
the two boys heard that he was planing to steal some money and kill people so the boys start their adventure on stoping Injuin Joe...,"The two boys heard that he was planning to steal some money and kill people, so the boys started their adventure with stopping Injuin Joe...",R:ORTH R:VERB:FORM M:PUNCT R:VERB:TENSE R:PREP R:VERB:INFL
"This has now been intensifyed with the sale of the railways, to privite rail companys, profit motivated.","This has now been intensified with the sale of the railways to private rail companies, profit motivated.",R:VERB:INFL U:PUNCT R:SPELL R:NOUN:INFL
"Today, boxing has become a very popular sport, with T.V. channels competeing for coverage of certain events and fighters earning a lot of money, this is a big business.","Today, boxing has become a very popular sport, with TV channels competing for coverage of certain events and fighters earning a lot of money, this is a big business.",R:NOUN R:VERB:INFL
"Therefore, since the invention of television, society has becomed more informed but too lazy to think about this new information, and has distanced itself from family life.","Therefore, since the invention of television, society has become more informed but too lazy to think about this new information, and has distanced itself from family life.",R:VERB:INFL
This subject teachs the pupils how to make good presentations.,This subject teaches the pupils how to make good presentations.,R:VERB:INFL
"Thirdly, it was written that discounts were available but we were again frustrated, seing they were not available.","Thirdly, it said that discounts were available but we were again frustrated, seeing they were not available.",R:VERB R:VERB:INFL
It even varys with people whom you shop with.,It even varies depending on the people whom you shop with.,R:VERB:INFL R:OTHER M:DET
It will give me an adventure feeling and I have always prefered tents to log cabins.,It will give me a feeling of adventure and I have always preferred tents to log cabins.,R:OTHER R:VERB:INFL
Finally I would like to know how much money I have to prepare and which sorts of clothes are usually weared in California.,Finally I would like to know how much money I have to bring and what sorts of clothes are usually worn in California.,R:VERB R:DET R:VERB:INFL
He get a big swordfish hooked and after a long fight the fish is finally catched.,He gets a big swordfish hooked and after a long fight the fish is finally caught.,R:VERB:SVA R:VERB:INFL
"You will understand how upseting all this was, and I decided to visit your restaurant, thinking that could save my visit to the theatre, but it was closed and I had to go back to my hotel felling mad an hungry.","You will understand how upsetting all this was, and I decided to visit your restaurant, thinking that could save my visit to the theatre, but it was closed and I had to go back to my hotel feeling mad and hungry.",R:VERB:INFL R:VERB R:OTHER
After huging eatch other we promised never to tell others about our secrets.,After hugging each other we promised never to tell others about our secrets.,R:VERB:INFL R:SPELL
Despite of going to school by bus easier than riding bycyle I had prefered to going to school by bycyle to by bus.,"Despite the fact that going to school by bus was easier than going by bicycle, I had preferred going to school by bicycle to going by bus.",U:PREP M:OTHER M:VERB R:VERB M:PREP R:SPELL M:PUNCT R:VERB:INFL U:VERB:TENSE R:SPELL M:VERB
"Refering to optional lessons, it was recommended that Speaking and listening, Computer and Business English are suitable for filming.","Referring to optional lessons, it was recommended that Speaking and listening, Computer and Business English are suitable for filming.",R:VERB:INFL
"To make a daily life video in school, we should concentrat on the most things we do in a school, the most thing we do in a school is haveing lesson, it is a very useful parts of this video and is the main subject.","To make a daily life video in school, we should concentrate on the things we do most in a school. The thing we do most in a school is have lessons. It will be a very useful part of this video and should be the main subject.",UNK R:SPELL R:WO R:PUNCT R:WO R:VERB:INFL R:NOUN:NUM R:PUNCT R:VERB:TENSE R:NOUN:NUM R:VERB:TENSE
O.K. I am just kiding.,O.K. I am just kidding.,R:VERB:INFL
"So, there I was, controling the illumination in Mano's concert!!!!","So, there I was, controlling the illumination of Mano's concert!!!!",R:VERB:INFL R:PREP
"Finaly, I must choose traveling there in July because I am not allowed to take holidays in other months due to my work.","Finally, I must choose travelling there in July because I am not allowed to take holidays in other months due to my work.",R:SPELL R:VERB:INFL
"That was a very hot summer, every people in our city like to swim in the river, perhaps they didn't think it was interesting if they swimed in the pool.",That was a very hot summer. All the people in our city liked to swim in the river. Perhaps they didn't think it was interesting if they swam in the pool.,R:OTHER R:OTHER R:PUNCT R:VERB:INFL
We suggest visiting the Science Museum in the afternoon on Wednesday 15 March and canceling the Shopping on Tuesday 14 March.,We suggest visiting the Science Museum in the afternoon on Wednesday 15 March and cancelling the shopping on Tuesday 14 March.,R:VERB:INFL R:ORTH
"When I first heard about Over the Rainbow I was very exited about the idea of seeing it, plus when I heard about the facilities that the circle theatre was giving, it becomed the best oportunity I ever had to asist to a musical of that category, but instead of being the best evening I ever had, it was a total disaster and that's the reason why I am writting to you.","When I first heard about Over the Rainbow I was very excited about the idea of seeing it, plus when I heard about the extras that the circle theatre was offering, it became the best opportunity I ever had to attend a musical of that type, but instead of being the best evening I ever had, it was a total disaster and that's the reason why I am writing to you.",R:OTHER R:NOUN R:VERB R:VERB:INFL R:SPELL R:VERB U:PREP R:NOUN R:SPELL
I prefered going by motorbike with the people who studyied with me in the Institute.,I preferred riding a motorbike with the people who studied with me in the Institute.,R:VERB:INFL R:VERB R:OTHER R:SPELL
I will answer your questions in this letter begining with the best moment for the Camp.,"I will answer your questions in this letter, beginning with the best time for my visit.",M:PUNCT R:VERB:INFL R:NOUN R:OTHER
"I've also choosed two activities, swimming and sailing.","I've also chosen two activities, swimming and sailing.",R:VERB:INFL
I was really surprise to heared I have won in your competition.,I was really surprised to hear I had won your competition.,R:MORPH R:VERB:INFL R:VERB:TENSE U:PREP
We worried about it and we tryed to pull it.,We worried about it and we tried to pull it.,R:VERB:INFL UNK
"I'm always very busy traveling from one country to another, you know.","I'm always very busy travelling from one country to another, you know.",R:VERB:INFL
"For example, we will have got computerizated ovens, microwaves and freezers, or we will probably have got central heating controled through Internet from our office.","For example, we will have computerized ovens, microwaves and freezers, or we will probably have central heating controlled through the Internet from our office.",U:VERB:TENSE R:SPELL U:VERB R:VERB:INFL M:DET
"Radio, television, stereo, CD, computer: it's hard to believe, but every day I'm using something that borns from the technology.","Radio, television, stereo, CD, computer: it's hard to believe, but every day I'm using something that was born from technology.",M:VERB:TENSE R:VERB:INFL U:DET
"I ran towards the diamond grabed it got out quickly, ran out of the back door.","I ran towards the diamond, grabbed it, got out quickly, and ran out of the back door.",M:PUNCT R:VERB:INFL M:PUNCT M:CONJ
"As I growed up, T.V was one of the mysteriest things like a telephone and a bus.","As I grew up, T.V was one of the most mysterious things like a telephone and a bus.",R:VERB:INFL R:OTHER
Pat's boyfriend couldn't believe that story but Pat trusted in Jon and she thinked that he was honest.,Pat's boyfriend couldn't believe that story but Pat trusted Jon and she thought that he was honest.,U:PREP R:VERB:INFL
"As requested, I have choosed two activities - sailing and surfing.","As requested, I have chosen two activities - sailing and surfing.",R:VERB:INFL
"The day I shaked their hands, I though I was over the moon! I will never forget that day.","The day I shook their hands, I thought I was over the moon! I will never forget that day.",R:VERB:INFL R:OTHER
"In reply to your letter recieved the 13rd of June, I first would like to say that it is a great pleasure for me to have been choosed.","In reply to your letter received on the 13th of June, I first would like to say that it is a great pleasure for me to have been chosen.",R:SPELL M:PREP R:NOUN R:VERB:INFL
"Furthermore, I've choosed two activities whose are Sailing and Climbing.","Furthermore, I've chosen two activities, which are sailing and climbing.",R:VERB:INFL M:PUNCT R:DET R:ORTH
"To end with, I would like to know how much money we will need for the free time and what kind of clothes and materials do I need to practise the activities I've choosed.","To end, I would like to know how much money we will need for the free time and what kind of clothes and equipment do I need to do the activities I've chosen.",U:PREP R:NOUN R:VERB R:VERB:INFL
It developes day by day.,It develops day by day.,R:VERB:INFL
They teached me paticulaly.,They taught me specially.,R:VERB:INFL R:SPELL
"The other bad point was the time when the show started, it was already 20:15 when the first star entred on the scene, but your advertisement sayed 19.30!","The other bad point was the time when the show started, it was already 20:15 when the first star came on stage, but your advertisement said 19.30!",R:VERB U:DET R:NOUN R:VERB:INFL
"So, in my opinion, new tecnology has changed, is changeing and will change my daily life, I hope that after my life is better.","So, in my opinion, new technology has changed, is changing and will change my daily life; I hope that afterwards my life will be better.",R:SPELL R:VERB:INFL R:PUNCT R:OTHER R:VERB:TENSE
"I have been traveling around Jamaica for a year without any conpert due to an inclination for adventure, so I would rather you provided a tend, I don't mind.","I have been travelling around Jamaica for a year without any conpert due to an inclination for adventure, so I would rather you provided a tent, I don't mind.",R:VERB:INFL UNK R:NOUN
"You should have seen, there was really terrible rush before concert and everybody was runing around to do something.","You should have seen it, there was a really terrible rush before the concert and everybody was running around doing something.",M:PRON M:DET M:DET R:VERB:INFL R:VERB:FORM
"But in the other hand, I have never done surfing, I am a completely Beginer but I am dieing to do it.","But on the other hand, I have never been surfing. I am a complete beginner but I am dying to do it.",R:PREP R:VERB R:PUNCT R:MORPH R:SPELL R:VERB:INFL
"It could make things worse that the visit to your theatre restaurant, which had already been closed because of lack of customers, was canceled.","It made things worse that our visit to your theatre restaurant, which had already been closed because of a lack of customers, was cancelled.",R:VERB:TENSE R:DET M:DET R:VERB:INFL
"At first, I applyed for the volenteer at the pop concert and then I got a responsibility for control the audience.","At first, I applied to be a volunteer at the pop concert and then I got responsibility for controlling the audience.",R:VERB:INFL R:OTHER U:DET R:VERB:FORM
"He was one of my best friends, but all secrets told to him spreaded throughout the school in a matter of minutes.","He was one of my best friends, but all secrets told to him spread throughout the school in a matter of minutes.",R:VERB:INFL
"At this point, I would like to know which air line I will be traveling in and if it possible can you send me more information about the Camp California.","At this point, I would like to know which airline I will be travelling on and if it is possible can you send me more information about Camp California.",R:ORTH R:VERB:INFL R:PREP M:VERB U:DET
"I prefered to come at 19:30 because it is better at night and it wouldn't finish late, but the theatre started at 20:15 and we got bored waiting to start.","I preferred to go at 19:30 because it is better at night and it wouldn't finish late, but the show started at 20:15 and we got bored waiting for it to start.",R:VERB:INFL R:VERB R:NOUN M:OTHER
I have never traveled abroad and don't know if I should bring a credit card with me.,I have never travelled abroad and don't know if I should bring a credit card with me.,R:VERB:INFL
I was draged to learn sailing.,I was dragged into learning sailing.,R:VERB:INFL M:PREP R:OTHER
"I'm writing this letter to you to make a complain about the "" Over the rainbow "" musical show which I saw yesterday. I have to say that I'm very disappointed with what I saw because by seing your advertisment I expected more That show was entirely different to what it says on the advertisment.","I'm writing this letter to you to make a complaint about the musical show "" Over the Rainbow "" which I saw yesterday. I have to say that I'm very disappointed with what I saw because after seeing your advertisement I expected more. The show was entirely different to what it says in the advertisement.",R:NOUN R:WO R:PREP R:VERB:INFL R:SPELL M:PUNCT R:DET R:PREP R:SPELL
He just said there weren't resources to face it at that moment but... I bursted into teas as well as my Mother.,He just said there weren't resources to cure it at that moment but... I burst into tears as did my Mother.,R:VERB R:VERB:INFL R:NOUN R:OTHER
"Secondly I think we have more mixing clothes from all over the world, because we are traveling more and more around.","Secondly I think we will be mixing clothes from all over the world, because we are travelling around more and more.",R:OTHER R:VERB:INFL R:WO
"I had just quarreled with Jon, who is my fiance.","I had just quarrelled with Jon, who is my fiance.",R:VERB:INFL
Prefered lessons.,Preferred lessons.,R:VERB:INFL
Prefered activities.,Preferred activities.,R:VERB:INFL
"The point here is, that Caroline choosed the worst friend to told this.",The point here is that Caroline chose the worst friend to tell this to.,U:PUNCT R:VERB:INFL R:VERB:FORM M:PREP
"Unfortunately, in the last edition there were artists who cames from only six countries, so I think you should invite artists from other countries, for example from Africa.","Unfortunately, in the last edition the artists came from only six countries, so I think you should invite artists from other countries, for example from Africa.",UNK R:OTHER U:PRON R:VERB:INFL
Not only is the plot interesting but also it catchs your attention since the first moment.,Not only is the plot interesting but also it catches your interest from the first moment.,R:VERB:INFL R:NOUN R:PREP
One day the man quarreled with his sons and they left the house trying to find work.,One day the man quarrelled with his sons and they left the house to try to find work.,R:VERB:INFL R:VERB:FORM
"Refering about sports I would choose swimming and basketball, because when I was a child I used to swim a lot, I won a lot of prizes and I went to a lot of competitions.","Referring to sports, I would choose swimming and basketball, because when I was a child I used to swim a lot, I won a lot of prizes and I went to a lot of competitions.",R:VERB:INFL R:PREP M:PUNCT
Technology maked our life different than life of people for example living in nineteenth century.,"Technology makes our life different than the life of people, for example, living in the nineteenth century.",R:VERB:INFL M:DET M:PUNCT M:PUNCT M:DET
The security guard heard her and agreeded with Pat that if Peter continued acting on this way he would obliged us to go out of the concert.,The security guard heard her and agreed with Pat that if Peter continued acting in this way he would advise us to leave the concert.,R:VERB:INFL R:PREP R:VERB R:OTHER
"Last night, I cam to your musical show, "" Over the rainbow "" and I was very disappointed because it wasn't what you writed in your advertisement.","Last night, I came to your musical show, "" Over the rainbow "", and I was very disappointed because it wasn't like what you wrote in your advertisement.",R:MORPH M:PUNCT M:PREP R:VERB:INFL
"Modern technology, such as computer, car and other else, changed my life in many different ways like communication, traveling and working.","Modern technology, such as computers, cars and other things, have changed my life in many different ways such as communication, travelling and working.",R:NOUN:NUM R:NOUN:NUM R:OTHER M:VERB:TENSE R:OTHER R:VERB:INFL
According to Camp California in the U.S.A. I expect to traveling on July because I will have a long holiday break on that time and my children have to go to France with student's school on July as well.,"Regarding Camp California in the U.S.A., I expect to travel in July because I will have a long holiday at that time and my children have to go to France with school in July as well.",R:OTHER M:PUNCT R:VERB:INFL R:PREP U:NOUN R:PREP U:OTHER R:PREP
So you have to explaining too many time to make people clamed down and standed in the row.,So you have to explain a lot of times to make people calm down and stand in a row.,R:VERB:FORM U:ADV R:OTHER R:NOUN:NUM R:SPELL R:VERB:INFL R:DET
"The activities listed in your letter seemded to be all interesting. I choosed to do baskelball (I play in a club, I have a good level) and photography (there must be beautiful pictures to take in California).","The activities listed in your letter all seemed to be interesting. I chose to play basketball (I play in a club, I am quite good) and to do photography (there must be beautiful pictures to take in California).",R:OTHER R:VERB:INFL R:VERB R:SPELL R:OTHER M:VERB
"When the other man came out, I caught him and fighted him.","When the other man came out, I caught him and fought him.",R:VERB:INFL
The advertisement saids it is taking place on Tuesday 14 March from 10 am to 7 pm.,The advertisement said it is taking place on Tuesday 14 March from 10 am to 7 pm.,R:VERB:INFL
"When I did that, I was traveling around Japan.","When I did that, I was travelling around Japan.",R:VERB:INFL
"When Sally heared that, was very suprised and very excited.","When Sally heard that, she was very surprised and very excited.",R:VERB:INFL M:PRON R:SPELL
"Another actor standed for him, without any advice.","Another actor stood in for him, without any advance warning.",R:VERB:INFL M:PART R:NOUN
"I had a really nice time with them even tought I would've prefered to stay at the front with the others people,","I had a really nice time with them even though I would've preferred to stay at the front with the other people,",R:SPELL R:VERB:INFL R:MORPH
"In my opinion we must spend more time for more interesting than shopping things like sport, reading, chating about ideas which make our lives better.","In my opinion we must spend more time on more interesting things than shopping, like sport, reading, chatting about ideas which make our lives better.",R:PREP R:WO M:PUNCT R:VERB:INFL
She was sended to New York to discover how some people from government gave money to the merchants because they want to build a Trade Center there.,She was sent to New York to discover how some people from the government gave money to the merchants because they wanted to build a Trade Centre there.,R:VERB:INFL M:DET R:VERB:TENSE R:SPELL
"In spite of my family telling me to turn the PC off and talk with them, I kept on stucked in front of the screen.","In spite of my family telling me to turn the PC off and talk to them, I kept on, stuck in front of the screen.",R:PREP M:PUNCT R:VERB:INFL
"In my opinion, it dependes on your mood, your financial ability, off course where you are going to do shopping and what you are going to buy.","In my opinion, it depends on your mood, your financial situation, of course, where you are going to go shopping and what you are going to buy.",R:VERB:INFL R:NOUN R:PREP M:PUNCT R:VERB
"Despite the bad aspects that the modern technology can bring, in my opinion, if the governments tryed to do the best, and if everybody contribute with a little bit, we can solve the main problems and only take advantage of the benefits to our lifes.","Despite the bad things that modern technology can bring, in my opinion, if the governments tried to do their best, and if everybody contributed a little bit, we could solve the main problems and only take advantage of the benefits to our lives.",R:NOUN U:DET R:VERB:INFL R:DET R:VERB:TENSE U:PREP R:VERB:TENSE R:NOUN:INFL
"Probably, I started useing mobile - phone 5 years ago.","Probably, I started using a mobile phone 5 years ago.",R:VERB:INFL M:DET U:PUNCT
"I am writeing to you to "" help "" you with your festival next year, last year wasn't very good so maybe we can make it more atracite this year?","I am writing to you to "" help "" you with your festival next year. Last year wasn't very good so maybe we can make it more attractive this year.",R:VERB:INFL R:PUNCT R:SPELL R:PUNCT
"There we will have the chance to be maked up or to try new hairstyles, too.","There we will have the chance to be made up or to try new hairstyles, too.",R:VERB:INFL
Sorry about my last mail but I've been traveled.,Sorry about my last letter but I've been travelling.,R:NOUN R:VERB:INFL
For example: cancer occured in Africa after American nuclear tests,"For example, cancer occurred in Africa after American nuclear tests.",R:PUNCT R:VERB:INFL M:PUNCT
May be it would contine reduceing in 100 years to come.,Maybe it would continue reducing in 100 years to come.,R:ORTH R:SPELL R:VERB:INFL
"As few months ago I chated, by internet, to a nice guy from Buenos Aires, who happened to be one of the member of "" Los Pericos "".","A few months ago I chatted, via the Internet, to a nice guy from Buenos Aires who happened to be one of the members of "" Los Pericos "".",R:OTHER R:VERB:INFL R:PREP M:DET R:ORTH U:PUNCT R:NOUN:NUM
"It might seem a bit strange but if Pat had been able to choose whether she wanted to know a secret or not, she would have prefered not to know it.","It might seem a bit strange but if Pat had been able to choose whether she wanted to know a secret or not, she would have preferred not to know it.",R:VERB:INFL
"In fact, if I had knowned, I would have probably stayed at home.","In fact, if I had known, I would have probably stayed at home.",R:VERB:INFL
We were stedy at the same class at school and he also knowed Pat as well.,We were studying in the same class at school and he also knew Pat as well.,R:SPELL R:PREP R:VERB:INFL
"I'm writing back to answer the questions that you send me in the past letter, so refering to the question of when I would like to travel, I would like to go anytime during july, because I have to be in august back home, because I need to apply and get everithing sortted out, to go into college next september.","I'm writing to answer the questions that you sent me in the last letter, so referring to the question of when I would like to travel, I would like to go anytime during July, because I have to be back home in August, because I need to apply and get everything sorted out, to go to college next September.",U:ADV R:VERB:TENSE R:ADJ R:VERB:INFL R:ORTH R:WO R:SPELL R:SPELL R:PREP R:ORTH
"For example, the politicians the have choosed their careers, they must know that they are going to involved with everything that it has to do with publicity and their country and the most important is that they have to realize that they should be extremely careful of their movements or else they are going to have bad reputation, and they will be not trustworthy.","For example, politicians have chosen their careers; they must know that they are going to involved with everything that it has to do with publicity and their country and the most important thing is that they have to realize that they should be extremely careful about their movements or else they are going to have a bad reputation, and they will not be considered trustworthy.",U:DET U:DET R:VERB:INFL R:PUNCT UNK M:NOUN R:PREP M:DET R:WO M:VERB
"I also choosed painting because I have never done before, I would like to learn and moreover I want to do a calm activity.",I also chose painting because I have never done it before. I would like to learn and moreover I want to do a relaxing activity.,R:VERB:INFL M:PRON R:PUNCT R:OTHER
"With the accomodation, I would prefered tents becase it is more according with a camp.","Regarding the accommodation, I would prefer a tent because it is more appropriate to a camp.",R:OTHER R:SPELL R:VERB:INFL M:DET R:NOUN:NUM R:SPELL R:OTHER R:PREP
Wouldn't it be better to prepare the shopping list instead of dialing home to ask which salad to buy.,Wouldn't it be better to prepare the shopping list instead of dialling home to ask which salad to buy?,R:VERB:INFL R:PUNCT
"Moreover, with computer network, it can be possible that people work from home, making projects, controling operations or having conferences.","Moreover, with computer networks, it is possible for people to work from home, making projects, controlling operations or having conferences.",R:NOUN:NUM R:VERB:TENSE R:PREP M:VERB:FORM UNK R:VERB:INFL UNK
"Firstly, Palace Hotel has been booked into for the group accomodation and I spoke with the hotel manager for traveling to the conference.","Firstly, Palace Hotel has been booked for the group's accommodation and I spoke with the hotel manager about travelling to the conference.",U:PREP M:NOUN:POSS R:SPELL R:PREP R:VERB:INFL
"In spite of the disadvantages, I would strongly recomended to students and public to visit the new Acapulco resort buildings. and have a great experience knowing about buildings history and at the same time traveling around Mexico.","In spite of the disadvantages, I would strongly recommend students and the public to visit the new Acapulco resort buildings and have a great experience learning about the buildings' history and at the same time travelling around Mexico.",R:SPELL U:PREP M:DET U:PUNCT R:VERB M:DET M:NOUN:POSS R:VERB:INFL
Since I have been traveling around the world I would have imagined beeing in tough with my family or friends without internet or my mobile phone.,"Since I have been travelling around the world, I would have imagined being in touch with my family or friends without the Internet or my mobile phone.",R:VERB:INFL M:PUNCT UNK R:SPELL R:OTHER M:DET R:ORTH
"Cars have definitely changed all our lives, and I am not refering only in a positive way, but in a negative way as well.","Cars have definitely changed all our lives, and I am not referring only in a positive way, but in a negative way as well.",R:VERB:INFL
The Computer was invented 30 year or mor ago and estart lake a procesing information with a big cad was perfored and maked a smol hold and aeche hold mean something lake a Codig.,The computer was invented 30 years or more ago and started processing information with a big card which was perforated and made a small hole and each hole meant something like a code.,R:ORTH R:NOUN:NUM R:SPELL R:SPELL U:OTHER R:SPELL R:NOUN M:DET R:SPELL R:VERB:INFL R:SPELL R:NOUN R:SPELL R:OTHER R:VERB:TENSE UNK R:OTHER R:NOUN
Even comeing to Basingstoke seems like a international journey to me.,Even coming to Basingstoke seems like an international journey to me.,R:VERB:INFL R:DET
"Finally, you can spend an afternoon on the last day visiting local historical places (castles, builded in 13-th century) or art gallery, as well as beatiful Bodnant garden.","Finally, you can spend an afternoon on the last day visiting local historic places (castles built in the 13th century) or art galleries, as well as the beautiful Bodnant Garden.",R:MORPH U:PUNCT R:VERB:INFL M:DET R:OTHER R:NOUN:NUM M:DET R:SPELL R:ORTH
It is clear and irrefutable that the use of this invention has becomed a necessary condition in some professional activities.,It is clear and irrefutable that the use of this invention has become a necessary condition in some professional activities.,R:VERB:INFL UNK
"Of course it is a pity that Mr. Brown has been ill, but we are happy that you are comeing now.","Of course it is a pity that Mr. Brown has been ill, but we are happy that you are coming now.",R:VERB:INFL
