Original sentence,Expected sentence,Mistake categories
"Second, I can travel all around the world, meet different people who are very friendly.","Second, I can travel all around the world, and meet different people who are very friendly.",M:CONJ
"I am 29 years old, originally from Brazil.","I am 29 years old, and originally from Brazil.",M:CONJ
Today in my class there was a discussion on television education.,Today in my class there was a discussion on television and education.,M:CONJ
But family never let you go or family never go away from you!,But family never let you go and family never go away from you!,R:CONJ
It's much faster much more convenient than using public transportation.,It's much faster and much more convenient than using public transportation.,M:CONJ
And for spring and summer they open a beautiful and large terrace.,And for spring and summer they open a beautiful large terrace.,U:CONJ
"In my opinion, what is expected is a new role for teachers but not their disappearance from classrooms.","In my opinion, what is expected is a new role for teachers and not their disappearance from classrooms.",R:CONJ
I am trying my best hope I will pass my course and get a good job.,I am trying my best and hope I will pass my course and get a good job.,M:CONJ
"Moreover, you can learn many things and expand your knowledge, have friends from different backgrounds.","Moreover, you can learn many things and expand your knowledge, and have friends from different backgrounds.",M:CONJ
"Admittedly, some knowledge is not accurate and logical enough, it still offers us many other useful sources.","Admittedly, some knowledge is not accurate and logical enough, but it still offers us many other useful sources.",M:CONJ
It was a lovely and sunny day.,It was a lovely sunny day.,U:CONJ
"Moreover, insurance, petrol, repair fees are very expensive.","Moreover, insurance, petrol, and repair fees are very expensive.",M:CONJ
"In a family, responsibilities increase with age. I have some, not a lot.","In a family, responsibilities increase with age. I have some, but not a lot.",M:CONJ
"However, television shouldn't be used only for this purpose for different reasons.","However, television shouldn't be used only for this purpose but for different reasons.",M:CONJ
"Dear Sir Madam,","Dear Sir or Madam,",M:CONJ
"My hometown, Piliyandala, is probably the smallest town in Colombo district provides shelter for more than 100,000 people.","My hometown, Piliyandala, is probably the smallest town in Colombo district and provides shelter for more than 100,000 people.",M:CONJ
"On the other hand, after Ali starts his kickboxing career, Stephanie always cares about his conditions, then becomes his middleman.","On the other hand, after Ali starts his kickboxing career, Stephanie always cares about his conditions, and then becomes his middleman.",M:CONJ
"They're being followed constantly by paparazzi, their private photos are being bought for millions of dollars.","They're being followed constantly by paparazzi, and their private photos are being bought for millions of dollars.",M:CONJ
"In my opinion, the main decision is to develop people's potential, increase their awareness of personal effects on nature.","In my opinion, the main decision is to develop people's potential, and increase their awareness of personal effects on nature.",M:CONJ
"In conclusion, shopping might be both: enjoyable or not.","In conclusion, shopping might be both: enjoyable and not.",R:CONJ
"Although it had been a very long and tiring day, but Tom felt he had achieved something really good.","Although it had been a very long and tiring day, Tom felt he had achieved something really good.",U:CONJ
"She never just shuts one door, and she also opens another one.","She never just shuts one door, but she also opens another one.",R:CONJ
"It includes domes, cupolas, arches, towers, and spires is sure to inspire you every bit as much in real life as in the photos.","It includes domes, cupolas, arches, towers, and spires and is sure to inspire you every bit as much in real life as in the photos.",M:CONJ
"Sadly, I couldn't meet Lady Gaga nor Justin Timberlake.","Sadly, I couldn't meet Lady Gaga or Justin Timberlake.",R:CONJ
"After not being a wizard nor kidnapped by aliens, I did not meet Lady Gaga in New York nor hang out with her and Justin Timberlake.","After not being a wizard nor kidnapped by aliens, I did not meet Lady Gaga in New York or hang out with her and Justin Timberlake.",R:CONJ
"All these memories are always with me, and to go through them again I don't even need to close my eyes, everything in my mind heart is too vivid to forget.","All these memories are always with me, and to go through them again I don't even need to close my eyes, everything in my mind and heart is too vivid to forget.",M:CONJ
"It is a different kind of restaurant, because you can find not only the typical Spanish food, also dishes from different parts of the world.","It is a different kind of restaurant, because you can find not only the typical Spanish food, but also dishes from different parts of the world.",M:CONJ
"Everyone in this world has their own favorite sports, so do I. My favorite sport is football.","Everyone in this world has their own favorite sports, and so do I. My favorite sport is football.",M:CONJ
"Bullying can cause loneliness, depression, anxiety, lead to low self - esteem and illnesses.","Bullying can cause loneliness, depression, anxiety, and lead to low self - esteem and illnesses.",M:CONJ
"They don't respect other passengers, just keep laughing and teasing each other, despite the fact that some people have told them not to do this.","They don't respect other passengers, but just keep laughing and teasing each other, despite the fact that some people have told them not to do this.",M:CONJ
"On the other hand, I am also a good team player that can work well with colleagues, presentable with a strong sense of responsibility.","On the other hand, I am also a good team player that can work well with colleagues, presentable and with a strong sense of responsibility.",M:CONJ
"Students, children from large families, old people will continue to use public transportation for a long time.","Students, children from large families, and old people will continue to use public transportation for a long time.",M:CONJ
"The sport would go underground, there would be no safety measures like gloves, a doctor, paramedics or early stopping of the fight if someone looked unable to continue.","The sport would go underground, and there would be no safety measures like gloves, a doctor, paramedics or early stopping of the fight if someone looked unable to continue.",M:CONJ
"Women supporting equal pay for women and and other "" liberal "" causes like affirmative action are only seen in the shadow of the bra - burning, anti - shaving leaders of the 1970s.","Women supporting equal pay for women and other "" liberal "" causes like affirmative action are only seen in the shadow of the bra - burning, anti - shaving leaders of the 1970s.",U:CONJ
"Styles mix, colours and shapes come back from the past, only the fabrics are different.","Styles mix, colours and shapes come back from the past, and only the fabrics are different.",M:CONJ
They can't communicate with ordinary children and attend ordinary schools.,They can't communicate with ordinary children or attend ordinary schools.,R:CONJ
"It is very pleasant when you are looking for something special or for special occasions like wedding, birthday, Christmas presents.","It is very pleasant when you are looking for something special or for special occasions like wedding, birthday, or Christmas presents.",M:CONJ
"It is a remarkable piece of literature, which portrays deep feelings of love and hate, depicts strong and unique characters, reveals eternal concerns with good and bad, life and death.","It is a remarkable piece of literature, which portrays deep feelings of love and hate, depicts strong and unique characters, and reveals eternal concerns with good and bad, life and death.",M:CONJ
Nobody believed her... neither me.,Nobody believed her... nor me.,R:CONJ
"You are feeling sick, angry with your boyfriend.","You are feeling sick, or angry with your boyfriend.",M:CONJ
We aren't allowed to smoke and drink any alcohol.,We aren't allowed to smoke or drink any alcohol.,R:CONJ
"There seems to be a general opinion that sports, art and music activities such as tennis, football, orchestra, painting, photography should be included.","There seems to be a general opinion that sports, art and music activities such as tennis, football, orchestra, painting, and photography should be included.",M:CONJ
But sometimes some goods are expensive but of a very bad quality.,Sometimes some goods are expensive but of a very bad quality.,U:CONJ
"Last not least, I always have backache after sleeping in a tent for a couple of days.","Last but not least, I always have backache after sleeping in a tent for a couple of days.",M:CONJ
"And finally when the show ended I decided to go eat something, but the restaurant was closed because the chef was sick.","And finally when the show ended I decided to go and eat something, but the restaurant was closed because the chef was sick.",M:CONJ
"People like designer's clothes like Armani, Chanel.. so on.","People like designer's clothes like Armani, Chanel.. and so on.",M:CONJ
That disappointed both me and the people who just went to see him.,That disappointed me and the people who just went to see him.,U:CONJ
Nobody saw or nobody heard what had happened.,Nobody saw and nobody heard what had happened.,R:CONJ
That was a little bit odd but and funny at the same time.,That was a little bit odd but funny at the same time.,U:CONJ
"In addition, there was no discount available, the show started at 20:15 and not at 19:30.","In addition, there was no discount available, and the show started at 20:15 and not at 19:30.",M:CONJ
Dear Sir and Madam,Dear Sir or Madam,R:CONJ
"He enjoyed himself reading, playing piano at home.","He enjoyed himself reading, and playing piano at home.",M:CONJ
And I'll try to explain why.,I'll try to explain why.,U:CONJ
"Secondly, the classical concerts were excellent and the halls were so crowded that nobody could walk.","Secondly, the classical concerts were excellent but the halls were so crowded that nobody could walk.",R:CONJ
Dear Sir and Madam,Dear Sir or Madam,R:CONJ
"However, the rest of the students and I have heard about the London Fashion and Leisure show that will be celebrated at the Central Exhibition Hall in London where the latest fashions will be shown.","However, the rest of the students and I have heard about the London Fashion and Leisure show that will be celebrated at the Central Exhibition Hall in London and where the latest fashions will be shown.",M:CONJ
They only want to know where I am and when I go out at what time I came home.,They only want to know where I am and when I go out and at what time I came home.,M:CONJ
But in a few days she told the secret to all the class. All our mates wanted to enjoy our fantastic and secret path to look for exams.,But in a few days she told the secret to all the class. All our mates wanted to enjoy our fantastic secret path to look for exams.,U:CONJ
I was in her room and helping her.,I was in her room helping her.,U:CONJ
"That is to say, they are never happy with what they get and see. They always find a problem.","That is to say, they are never happy with what they get or see. They always find a problem.",R:CONJ
The sales assistants in the stores aren't so nice and helpful.,The sales assistants in the stores aren't so nice or helpful.,R:CONJ
I hope you will be happy with our conference and party and etc.,I hope you will be happy with our conference and party etc.,U:CONJ
"I have no car, no local bus service to use.","I have no car, and no local bus service to use.",M:CONJ
