Original sentence,Expected sentence,Mistake categories
This was one of the everyday invents that affects our lives.,This was one of the everyday inventions that affects our lives.,R:MORPH
"Other signals are, for example, if you travel by car, you can park the car in front of the place where you want to go.","Other signs are, for example, if you travel by car, you can park the car in front of the place where you want to go.",R:MORPH
"After all the wise advises, his mother kissed him on his forehead.","After all the wise advice, his mother kissed him on his forehead.",R:MORPH
He always helps me by giving good advance.,He always helps me by giving good advice.,R:MORPH
The other side of the problem is ecology.,The other side of the problem is ecological.,R:MORPH
My favorite international league is the English premiere league.,My favorite international league is the English premier league.,R:MORPH
"Firstly, people do not have to buy their own cars.","First, people do not have to buy their own cars.",R:MORPH
"After careful considering this issue, I also develop my own points of view.","After carefully considering this issue, I also develop my own points of view.",R:MORPH
Recycling is another way to be ecologist.,Recycling is another way to be ecological.,R:MORPH
Advertisement is important for the economy.,Advertising is important for the economy.,R:MORPH
"Final, family members will always prepare the food you like to eat.","Finally, family members will always prepare the food you like to eat.",R:MORPH
I like their style and live.,I like their style and lives.,R:MORPH
"Firstly, you save money if you use a car.","First, you save money if you use a car.",R:MORPH
"They say the reason why he has a human face is the farmer gave his mom an extra dose of Vitamin A. As a result, that causes the deform in his face.","They say the reason why he has a human face is the farmer gave his mom an extra dose of Vitamin A. As a result, that causes the deformity in his face.",R:MORPH
"The big deal is entertaining, and quality is part of it.","The big deal is entertainment, and quality is part of it.",R:MORPH
English - I find it greating!,English - I find it great!,R:MORPH
"To learn, to read, to be knowledge.","To learn, to read, to be knowledgeable.",R:MORPH
"Years ago, pollution was not a big problematic to deal with.","Years ago, pollution was not a big problem to deal with.",R:MORPH
I like playing games and read.,I like playing games and reading.,R:MORPH
This assertive is totally false.,This assertion is totally false.,R:MORPH
specific area.,special area.,R:MORPH
"Therefor, running can let me feel happy.","Therefore, running can let me feel happy.",R:MORPH
There are many accidentally problems encountered by international students studying in Australia.,There are many accidental problems encountered by international students studying in Australia.,R:MORPH
"If you have any specially eating customs, will you tell me?","If you have any special eating customs, will you tell me?",R:MORPH
I have to Presentation this project next Monday.,I have to present this project next Monday.,R:MORPH
"He won only one gold ball, but he should have won more than that.","He won only one golden ball, but he should have won more than that.",R:MORPH
"Also, it's good for fit and health.","Also, it's good for fitness and health.",R:MORPH
Every evening we went to the restaurant on the cruise.,Every evening we went to the restaurant on the cruiser.,R:MORPH
"In addition, indoor swimming pool sales have a slightly declining from 2012 to 2014.","In addition, indoor swimming pool sales have a slightly decline from 2012 to 2014.",R:MORPH
I think this sport is the most completely compared to the other sports.,I think this sport is the most complete compared to the other sports.,R:MORPH
It was a really challenge for me to live alone.,It was a real challenge for me to live alone.,R:MORPH
"If more skateboarded users are willing to go to Central Plaza, there are more customers to help the growth of business.","If more skateboard users are willing to go to Central Plaza, there are more customers to help the growth of business.",R:MORPH
The chefs take great care in selection the best quality ingredients and the service is great.,The chefs take great care in selecting the best quality ingredients and the service is great.,R:MORPH
In our daily life we wake up earlier in the morning.,In our daily life we wake up early in the morning.,R:MORPH
It is very common that the bad economy of some countries force their people to emigrate to another country.,It is very common that the bad economy of some countries forces their people to emigrate to another country.,R:MORPH
Public transport will be worse in the future than travelling by car because it is uncomfortable and slowly.,Public transport will be worse in the future than travelling by car because it is uncomfortable and slow.,R:MORPH
These were experiential models.,These were experimental models.,R:MORPH
Dear Sir or Madame,Dear Sir or Madam,R:MORPH
This new way of teaching pupils has received a mix response.,This new way of teaching pupils has received a mixed response.,R:MORPH
"In conclusion, I think that social networks can constitute a big problem, especially for people who are not aware of what dangerous there are on the internet.","In conclusion, I think that social networks can constitute a big problem, especially for people who are not aware of what dangers there are on the internet.",R:MORPH
"Finally, you be able to hear and feel the nature and peace that you can find in this paradise.","Finally, you are able to hear and feel the nature and peace that you can find in this paradise.",R:MORPH
"Apart from this, the president election in the US is full of unfairness.","Apart from this, the presidential election in the US is full of unfairness.",R:MORPH
"In sum, absorbing ideas and facts is the most effective strategy.","In summary, absorbing ideas and facts is the most effective strategy.",R:MORPH
The first question we discussed was:' Does it exist just to make money for clothing designers and manufactures? ',The first question we discussed was:' Does it exist just to make money for clothing designers and manufacturers? ',R:MORPH
"Famous people should realize that if they try to gain famous all the time and waste their time on it, they will not have their own private life.","Famous people should realize that if they try to gain fame all the time and waste their time on it, they will not have their own private life.",R:MORPH
One of my other big hobbies is photographing.,One of my other big hobbies is photography.,R:MORPH
"In the same place where Manuel Belgrano first raised the Argentina flag on February 27, 1812.","In the same place where Manuel Belgrano first raised the Argentinian flag on February 27, 1812.",R:MORPH
"After sixteen years of continues work, it is the perfect moment to take a rest and enjoy your life by travelling.","After sixteen years of continuous work, it is the perfect moment to take a rest and enjoy your life by travelling.",R:MORPH
"Last but not least, public transport can share the cost of traveling.","Last but not least, public transport can share the cost of travelling.",R:MORPH
"Later, the United States House of Representatives approves a resolution to military intervene in Cuba if necessary.","Later, the United States House of Representatives approves a resolution to militarily intervene in Cuba if necessary.",R:MORPH
She was starstrucked.,She was starstruck.,R:MORPH
"As you know, my father runs a tour agency which needs some new staff and they are looking for people who speak at least three languages.","As you know, my father runs a tourist agency which needs some new staff and they are looking for people who speak at least three languages.",R:MORPH
"A high number of tourists visits Cáceres searching for culture, heritage and typical food from Extremadura.","A high number of tourists visit Cáceres searching for culture, heritage and typical food from Extremadura.",R:MORPH
"As far as I am concerned, the later point of view carries more weight.","As far as I am concerned, the latter point of view carries more weight.",R:MORPH
fashion enough.,fashionable enough.,R:MORPH
"Trapagaran, environmentally friend","Trapagaran, environmentally friendly",R:MORPH
"More specifically, it allows for understanding of teamwork, develops organizational skills and practice discipline.","More specifically, it allows for understanding of teamwork, develops organizational skills and practises discipline.",R:MORPH
We need external help to find out how to cope with both societal and environment problems.,We need external help to find out how to cope with both societal and environmental problems.,R:MORPH
This is caused by the changes that the labor market has experimented recently.,This is caused by the changes that the labor market has experienced recently.,R:MORPH
"If you are travelling in your car, it gives you flexibility to choose any way to reach your destination, you can make any number of stoppage, and even stop for your favorite ice cream.","If you are travelling in your car, it gives you flexibility to choose any way to reach your destination, you can make any number of stops, and even stop for your favorite ice cream.",R:MORPH
A case in point would be the latest news broadcasted recently.,A case in point would be the latest news broadcast recently.,R:MORPH
Peter ran and ran and when he arrived he saw the door opened.,Peter ran and ran and when he arrived he saw the door open.,R:MORPH
-Danish and European historic documents and previous research about the Euro;,-Danish and European historical documents and previous research about the Euro;,R:MORPH
As if I cannot imagine if I were a heroin of one of the enormous heroic stories.,As if I cannot imagine if I were a heroine of one of the enormous heroic stories.,R:MORPH
My recommend: do not hesitate to invest in a second microwave.,My recommendation: do not hesitate to invest in a second microwave.,R:MORPH
"The dominate colour will be white, but there will be some elements in more vivid colours.","The dominant colour will be white, but there will be some elements in more vivid colours.",R:MORPH
It was done very natural in their lives.,It was done very naturally in their lives.,R:MORPH
"Finally, not every assistant is able to advise you appropriate.","Finally, not every assistant is able to advise you appropriately.",R:MORPH
"After having had a long day at work, people long to get home as quick as possible.","After having had a long day at work, people long to get home as quickly as possible.",R:MORPH
How are you? I'm fin.,How are you? I'm fine.,R:MORPH
Educational institutes should dissuade students.,Educational institutions should dissuade students.,R:MORPH
The historic context is recreated in the film.,The historical context is recreated in the film.,R:MORPH
You should speak accurately and also fluent.,You should speak accurately and also fluently.,R:MORPH
This weird feeling is especially caused by experiencing something dead or non - living as life - likeness.,This weird feeling is especially caused by experiencing something dead or non - living as life - like.,R:MORPH
I was very inspired by your idea and decided to organize an even with charity club members in my school as well.,I was very inspired by your idea and decided to organize an event with charity club members in my school as well.,R:MORPH
"My favourites dishes are the "" Nachos "" and "" Catarapi "", the second is a dish of spicy pasta, it is spectacular.","My favourite dishes are the "" Nachos "" and "" Catarapi "", the second is a dish of spicy pasta, it is spectacular.",R:MORPH
"But, on the other hand, sport helps you to keep your muscles in tonus.","But, on the other hand, sport helps you to keep your muscles in tone.",R:MORPH
"Also, you can suffer from jet - lagged if you travel a long distance.","Also, you can suffer from jet - lag if you travel a long distance.",R:MORPH
"For example, saving the endanger wildlife and the scarce fish in the sea is much more important than those inventions which only make our lives more convenient.","For example, saving the endangered wildlife and the scarce fish in the sea is much more important than those inventions which only make our lives more convenient.",R:MORPH
The top 50 riches in the world hold most of the power to control the direction of our future.,The top 50 richest in the world hold most of the power to control the direction of our future.,R:MORPH
I believe this job would suit me for the following reasons: I am familiarized with the environment in summer camps as I spent my previous summer in one.,I believe this job would suit me for the following reasons: I am familiar with the environment in summer camps as I spent my previous summer in one.,R:MORPH
Sometimes the members of a group began to be so close to you that you love them the same as if they were part of your family.,Sometimes the members of a group begin to be so close to you that you love them the same as if they were part of your family.,R:MORPH
"Finally, after much time travels, Alice had this feeling.","Finally, after much time travelling, Alice had this feeling.",R:MORPH
"In every historic period, artists have represented their life and what they feel in different ways.","In every historical period, artists have represented their life and what they feel in different ways.",R:MORPH
"The journey to the United States was surprisingly good, I had some friends on the plan who were going to the same destination as me and I actually didn't miss my family that much.","The journey to the United States was surprisingly good, I had some friends on the plane who were going to the same destination as me and I actually didn't miss my family that much.",R:MORPH
It's really important for people to know the bound between curiosity and nosiness.,It's really important for people to know the boundary between curiosity and nosiness.,R:MORPH
"Later that night, while Michael was cheerful chatting with the barman, his mobile phone emitted a sound.","Later that night, while Michael was cheerfully chatting with the barman, his mobile phone emitted a sound.",R:MORPH
"In other words, keeping pets is beneficial to children in terms of their personality development.","In other words, keeping pets is beneficial to children in terms of their personal development.",R:MORPH
Thanks you very much.,Thank you very much.,R:MORPH
Nobody is sinless and people should not be treated as serious as being sent to jail.,Nobody is sinless and people should not be treated as seriously as being sent to jail.,R:MORPH
"After all, we were in a team in search of personal glory to be the first to ever climb the west face of this Andes mountain!","After all, we were in a team in search of personal glory to be the first to ever climb the west face of this Andean mountain!",R:MORPH
"Although we can choose more destinations and it is more comfortable, prices are not competitive enough to definitely substitute the car.","Although we can choose more destinations and it is more comfortable, prices are not competitive enough to definitively substitute the car.",R:MORPH
My surprise favorite was the microwave sponge cake that the chef added at the last minute.,My surprise favorite was the microwaved sponge cake that the chef added at the last minute.,R:MORPH
"Ragged and worn, it certain had seen better days.","Ragged and worn, it certainly had seen better days.",R:MORPH
"She could distinctively hear his low, manly voice in her head.","She could distinctly hear his low, manly voice in her head.",R:MORPH
The streets were calmed and the lights were pleasant. Travelling at night was a pleasure in this town.,The streets were calm and the lights were pleasant. Travelling at night was a pleasure in this town.,R:MORPH
"It also helps to overcome some stressful situations, even though it's temporarily, it's still beneficial for your heart, rather than being constantly stressed.","It also helps to overcome some stressful situations, even though it's temporary, it's still beneficial for your heart, rather than being constantly stressed.",R:MORPH
"Therefore, it would be incredible expensive to reunite all of them again for another film.","Therefore, it would be incredibly expensive to reunite all of them again for another film.",R:MORPH
"I know it could be a problem for you since you can't cook, but organisers need volunteers in many fields: scenography, sounding, VIP - escort.","I know it could be a problem for you since you can't cook, but organisers need volunteers in many fields: scenography, sound, VIP - escort.",R:MORPH
He was able to reach the South by a connection flight from Rome.,He was able to reach the South by a connecting flight from Rome.,R:MORPH
"It could seem to point towards public transport, nevertheless it will push car travelling even further.","It could seem to point towards public transport, nevertheless it will push car travel even further.",R:MORPH
This is the kind of dream vacation I want so bad.,This is the kind of dream vacation I want so badly.,R:MORPH
"Princess Sophie grew up, she was so unhappy because she couldn't do anything, she was condemned to live in a room of the castle until someone could find the cure for her cursed.","Princess Sophie grew up, she was so unhappy because she couldn't do anything, she was condemned to live in a room of the castle until someone could find the cure for her curse.",R:MORPH
"However, I was not going to give up on skating that easy.","However, I was not going to give up on skating that easily.",R:MORPH
"However, people who have bigger houses tend to compost the organic waste and that makes up for the disobedient.","However, people who have bigger houses tend to compost the organic waste and that makes up for the disobedience.",R:MORPH
It is evidently that those types of acting are different and the actors should adapt to the conditions they work in in one way or another.,It is evident that those types of acting are different and the actors should adapt to the conditions they work in in one way or another.,R:MORPH
"However, when I was reading your article I felt ashamed due to the fact that when every teacher teaches the way I do it is logical that our students can't be quiet and can't sit without making a move.","However, when I was reading your article I felt ashamed due to the fact that when every teacher teaches the way I do it is logical that our students can't be quiet and can't sit without making a movement.",R:MORPH
"My family members all the time expression their warm feelings with hugs, kisses and beautiful words.","My family members all the time express their warm feelings with hugs, kisses and beautiful words.",R:MORPH
"The school government should offer more extra - curricular activities, including organising excursions in the local area and giving students a chance to choose the school course which appeals to them the most.","The school governors should offer more extra - curricular activities, including organising excursions in the local area and giving students a chance to choose the school course which appeals to them the most.",R:MORPH
"Doubtlessly, such interactions with other people will help you to broaden your mind and learn new things.","Doubtless, such interactions with other people will help you to broaden your mind and learn new things.",R:MORPH
My tasks included back office administration and services in the hotel's restaurant.,My tasks included back office administration and serving in the hotel's restaurant.,R:MORPH
"In 2015, after 30 years of service in the Church of the Sacred Heart in Peluzuchampa, north of Bolivia, the priest Inocencio Raudales, 66 years old, realized that the wine drunk at the moment of communion is not the truly blood of Jesus Christ, as he has thought for his whole life.","In 2015, after 30 years of service in the Church of the Sacred Heart in Peluzuchampa, north of Bolivia, the priest Inocencio Raudales, 66 years old, realized that the wine drunk at the moment of communion is not the true blood of Jesus Christ, as he has thought for his whole life.",R:MORPH
"She thought that she could have done things different, but it was too late to change them.","She thought that she could have done things differently, but it was too late to change them.",R:MORPH
"The responsibility of education institutions should be helping and guiding students to make their own decisions, not making decisions for students.","The responsibility of educational institutions should be helping and guiding students to make their own decisions, not making decisions for students.",R:MORPH
The relieve of telling her was instantly replaced by a bitter hollowness.,The relief of telling her was instantly replaced by a bitter hollowness.,R:MORPH
"I believe he is tender and careful, but impatient and clumsy at the same time.","I believe he is tender and caring, but impatient and clumsy at the same time.",R:MORPH
Kyle is a strong and charismatic individuality and he values his privacy a lot.,Kyle is a strong and charismatic individual and he values his privacy a lot.,R:MORPH
"Our local public cleaning services are responsible not only for the efficient removal, storage, collection and transport of waste material, but also for the maintenance and good care of natural areas and green spaces within our community.","Our local public cleaning services are responsible not only for the efficient removal, storage, collection and transportation of waste material, but also for the maintenance and good care of natural areas and green spaces within our community.",R:MORPH
"It is not an easy task to explain the importance of this exam for me, since I do not have any specific objective in mind that requires a Cambridge certification.","It is not an easy task to explain the importance of this exam for me, since I do not have any specific objective in mind that requires a Cambridge certificate.",R:MORPH
"Thus, more and more people, when buying a new car, also consider its environmental friendliness and the possible impact on the community.","Thus, more and more people, when buying a new car, also consider its environment friendliness and the possible impact on the community.",R:MORPH
"Therefore, the first chapter features Detective Sergeant Steve Arnott, a high - flying counter - terrorism officer, who is recruited to AC-12 after refusing to collude with his colleagues in the cover - up of a failed operation in which a man was mistaken shot by another cop.","Therefore, the first chapter features Detective Sergeant Steve Arnott, a high - flying counter - terrorism officer, who is recruited to AC-12 after refusing to collude with his colleagues in the cover - up of a failed operation in which a man was mistakenly shot by another cop.",R:MORPH
""" We are broken.",""" We are broke.",R:MORPH
""" We can move to smaller house or fired some of the servants? """,""" We can move to smaller house or fire some of the servants? """,R:MORPH
Slowly he became illness one more time.,Slowly he became ill one more time.,R:MORPH
The world of the first half of the XIX century was quite different from that.,The world of the first half of the XIXth century was quite different from that.,R:MORPH
I fully believe that this combination method is the most effective way for students to learn English.,I fully believe that this combined method is the most effective way for students to learn English.,R:MORPH
"To test the research's hypothesis, self - administrated questionnaires were used on a total of 400 customers.","To test the research's hypothesis, self - administered questionnaires were used on a total of 400 customers.",R:MORPH
The background music in the advertising is relaxed and excite.,The background music in the advertisement is relaxed and excite.,R:MORPH
"Also, I can play several music instruments, such as: violin, guitar, drums and tambourine.","Also, I can play several musical instruments, such as: violin, guitar, drums and tambourine.",R:MORPH
"Public institutions should encourage the use of public transport, especially trains as they use electricity and are less pollutant than other means of transport.","Public institutions should encourage the use of public transport, especially trains as they use electricity and are less polluting than other means of transport.",R:MORPH
"And, it can change according to your degree of familiarity or intimate with the other person.","And, it can change according to your degree of familiarity or intimacy with the other person.",R:MORPH
It is common for children to watch violence scenes.,It is common for children to watch violent scenes.,R:MORPH
"In other words, students have the opportunity to discuss with their classmates in order to solve a mathematic problem in cooperation or to talk about a subject.","In other words, students have the opportunity to discuss with their classmates in order to solve a mathematical problem in cooperation or to talk about a subject.",R:MORPH
"This is bad, because it will be necessary to work as team in their future job and then they will face serious communicative problems.","This is bad, because it will be necessary to work as team in their future job and then they will face serious communication problems.",R:MORPH
"One of these is athleticism. ""","One of these is athletics. """,R:MORPH
"Campo de Marte "" is one of the few places in Lima where you can practise athleticism professionally.","Campo de Marte "" is one of the few places in Lima where you can practise athletics professionally.",R:MORPH
They just have to calm talk about it.,They just have to calmly talk about it.,R:MORPH
Let us bath.,Let us bathe.,R:MORPH
My favorite sport is swims.,My favorite sport is swimming.,R:MORPH
"Secondly, tourism, especially in developed countries, has played an important part in their growing from an economic point of view.","Secondly, tourism, especially in developed countries, has played an important part in their growth from an economic point of view.",R:MORPH
"In addition, behind one add there are a lot of things: one industry.","In addition, behind one ad there are a lot of things: one industry.",R:MORPH
She wanted to be his wife so bad.,She wanted to be his wife so badly.,R:MORPH
Sometime I think that Taipei is too crowded.,Sometimes I think that Taipei is too crowded.,R:MORPH
I would like to apply for the position of beach lifeguard assistance which I saw advertised.,I would like to apply for the position of beach lifeguard assistant which I saw advertised.,R:MORPH
"E.g., it offers less flexibility than cars, and is less environment friendly than bicycles.","E.g., it offers less flexibility than cars, and is less environmentally friendly than bicycles.",R:MORPH
"I hope you considerate me for the job, rodrigo","I hope you consider me for the job, rodrigo",R:MORPH
Big Broadcast groups are used by all of them.,Big broadcasting groups are used by all of them.,R:MORPH
"But on the other hand, there should be some inviolability spheres of life without journalists following them all the time.","But on the other hand, there should be some inviolable spheres of life without journalists following them all the time.",R:MORPH
"Firstly, Spain is a great place for holidays in summer.","First, Spain is a great place for holidays in summer.",R:MORPH
Don't forget to ask for a litter of beer.,Don't forget to ask for a litre of beer.,R:MORPH
"During this festivity, Lugo becomes the 3rd century town once again, so you can see Roman circus, Celtic weddings, artisan markets, many musical events taking place and local people and visitors get into period costumes, such as gladiators and Roman Emperors.","During this festival, Lugo becomes the 3rd century town once again, so you can see Roman circus, Celtic weddings, artisan markets, many musical events taking place and local people and visitors get into period costumes, such as gladiators and Roman Emperors.",R:MORPH
"In accord with the aforementioned, the amount of garbage produced during the years 2007 and 2010 more than doubled, 86% of it discarded inadequately.","In accordance with the aforementioned, the amount of garbage produced during the years 2007 and 2010 more than doubled, 86% of it discarded inadequately.",R:MORPH
"After that, I would make a list of target markets and device some strategies to attract them.","After that, I would make a list of target markets and devise some strategies to attract them.",R:MORPH
"Archaeological sites, beaches, valleys, natural reserves and the exquisite cuisine give Peru's capital an authentic personality and sightseeing in Lima is a unique and fantastic experience.","Archaeological sites, beaches, valleys, nature reserves and the exquisite cuisine give Peru's capital an authentic personality and sightseeing in Lima is a unique and fantastic experience.",R:MORPH
I want to build my career as a fully fledged researcher and academician.,I want to build my career as a fully fledged researcher and academic.,R:MORPH
"Generally, people may be famous for two reasons: because of their job or because of their scandalising private life.","Generally, people may be famous for two reasons: because of their job or because of their scandalous private life.",R:MORPH
"If you decide to became famous because of your scandalising private life, it would be silly to complain about tiring paparazzi.","If you decide to became famous because of your scandalous private life, it would be silly to complain about tiring paparazzi.",R:MORPH
They helped each other and the elders ones taught the youngsters.,They helped each other and the elder ones taught the youngsters.,R:MORPH
"In the municipality of Artà you will find a coaster town, situated on the edge of the mountain range of Llevant.","In the municipality of Artà you will find a coastal town, situated on the edge of the mountain range of Llevant.",R:MORPH
"On the other hand, there is a prehistorical tower called "" Talaiot "".","On the other hand, there is a prehistoric tower called "" Talaiot "".",R:MORPH
"People who inherit money or live off the interest of investors often seem to spend their time in search of a new thrill, some sort of excitement that money cannot buy.","People who inherit money or live off the interest of investments often seem to spend their time in search of a new thrill, some sort of excitement that money cannot buy.",R:MORPH
These opinions are based on a rather faulty American premise that all people are given an equal chance in life and what they make of it is their own responsibly.,These opinions are based on a rather faulty American premise that all people are given an equal chance in life and what they make of it is their own responsibility.,R:MORPH
We have also become more considerable of our animal life.,We have also become more considerate of our animal life.,R:MORPH
"Today, racial prejudice still exists, but less action has taken place than 30 years ago.","Today, racial prejudice still exists, but less activity has taken place than 30 years ago.",R:MORPH
"He is prejudice toward Jews, Blacks, and Mexicans.","He is prejudiced toward Jews, Blacks, and Mexicans.",R:MORPH
"For instance, Native Americans poetry is more expressive and visual partly because their language is deeply rooted in the observation of the natural environment.","For instance, Native American poetry is more expressive and visual partly because their language is deeply rooted in the observation of the natural environment.",R:MORPH
You promised a perfect evening but it became a big disastrous!,You promised a perfect evening but it became a big disaster!,R:MORPH
I demand a full refund or I will be forced to take this mater further.,I demand a full refund or I will be forced to take this matter further.,R:MORPH
"If you say that the wage is far from satisfaction, why don't you teach younger students as a private teacher.","If you say that the wage is far from satisfactory, why don't you teach younger students as a private teacher.",R:MORPH
It is really interesting and diversity at the same time.,It is really interesting and diverse at the same time.,R:MORPH
"Besides, when we wanted to buy our tickets we were hoping that the discounting was available.","Besides, when we wanted to buy our tickets we were hoping that the discount was available.",R:MORPH
During the trip home non of us spoke.,During the trip home none of us spoke.,R:MORPH
"Besides this, in connexion with the activities we will have the chance to do, I would like to inform you that I choose swimming and tennis because I am quite good at both, especially at tennis.","Besides this, in connection with the activities we will have the chance to do, I would like to inform you that I choose swimming and tennis because I am quite good at both, especially at tennis.",R:MORPH
That is not difference from now.,That is not different from now.,R:MORPH
"There was nothing for us to do, the show started 45 minutes later.","There was nothing for us to do, the show started 45 minutes late.",R:MORPH
Now it's colourful and there are many channels on TV.,Now it's colour and there are many channels on TV.,R:MORPH
She grew very quick and was so beautiful.,She grew very quickly and was so beautiful.,R:MORPH
"The headmaster was extremely angry about it and he gave both students a heavy punishment, which was suspended from school for a week.","The headmaster was extremely angry about it and he gave both students a heavy punishment, which was suspension from school for a week.",R:MORPH
I was training to be a personal assistance to Madonna herself.,I was training to be a personal assistant to Madonna herself.,R:MORPH
"Dear Madame,","Dear Madam,",R:MORPH
"Everything was going so bad and I knew, I could die.","Everything was going so badly and I knew, I could die.",R:MORPH
Something was telling me that I was going to lose a friend and a love.,Something was telling me that I was going to lose a friend and a lover.,R:MORPH
I really had butterflies in my stomach when I was responsible for the lightening!,I really had butterflies in my stomach when I was responsible for the lighting!,R:MORPH
loves and kisses.,love and kisses.,R:MORPH
"However, reading an unusual, sometimes fantastic story we could dream about fairy lands and observe our world from another point of view.","However, reading an unusual, sometimes fantastical story we could dream about fairy lands and observe our world from another point of view.",R:MORPH
"yours faithful,","yours faithfully,",R:MORPH
"About my accommodation prefers, I would really like to be in a tent.","About my accommodation preferences, I would really like to be in a tent.",R:MORPH
"In addition, it was reasonable - priced.","In addition, it was reasonably - priced.",R:MORPH
For me the most disappointing problem was that the starring Danny Brook wasn't there.,For me the most disappointing problem was that the star Danny Brook wasn't there.,R:MORPH
"Dear Madame,","Dear Madam,",R:MORPH
"Dear Sir/ Madame,","Dear Sir/ Madam,",R:MORPH
"Dear Sir / MADAME,","Dear Sir / MADAM,",R:MORPH
But I think I'll need some money for clubing or evening events.,But I think I'll need some money for clubbing or evening events.,R:MORPH
"Furthermore, I was so disappointed to find out that Danny Brook was not on the stage and the leading actor sang so bad that I left the theatre before it finished.","Furthermore, I was so disappointed to find out that Danny Brook was not on the stage and the leading actor sang so badly that I left the theatre before it finished.",R:MORPH
"However, they are equal important for our society. '","However, they are equally important for our society. '",R:MORPH
Thanks a lot for your briefly and nice letter.,Thanks a lot for your brief and nice letter.,R:MORPH
In the afternoon the singers cames in and I also could have an interview with Ricky Martin.,In the afternoon the singers came in and I also could have an interview with Ricky Martin.,R:MORPH
I was really surprise to hear that.,I was really surprised to hear that.,R:MORPH
The first good new was that we both had passed the exams.,The first good news was that we both had passed the exams.,R:MORPH
"First of all, the play started 45 minutes later.","First of all, the play started 45 minutes late.",R:MORPH
"If it rains, we will not be pleasant.","If it rains, we will not be pleased.",R:MORPH
"Dear Madame,","Dear Madam,",R:MORPH
Dear madame,Dear Madam,R:MORPH
And it was real good news.,And it was really good news.,R:MORPH
But Golf is an absolute new trial.,But Golf is an absolutely new trial.,R:MORPH
And that mad the concert absolutely perfect.,And that made the concert absolutely perfect.,R:MORPH
"Dear Madame,","Dear Madam,",R:MORPH
Can I change money on the campus?,Can I change money on the camp?,R:MORPH
I'm also good at swimming but I do not do it professional.,I'm also good at swimming but I do not do it professionally.,R:MORPH
It wasn't truth.,It wasn't true.,R:MORPH
"A peaceful man who was caught up in the wills of the apartheid regime, dying such a violent death.","A peaceful man who was caught up in the wiles of the apartheid regime, dying such a violent death.",R:MORPH
"All materials should be thin, delicate and soft, because of the warmly climate.","All materials should be thin, delicate and soft, because of the warm climate.",R:MORPH
"Second, there should be friends and family members in the home to provide joyful and fun.","Second, there should be friends and family members in the home to provide joy and fun.",R:MORPH
I would like you then to send the money back to me because I did not enjoy the show at all and the ticket costed a fortune.,I would like you then to send the money back to me because I did not enjoy the show at all and the ticket cost a fortune.,R:MORPH
"In spite of being incredibly famous, they might feel very anxiously and lonely.","In spite of being incredibly famous, they might feel very anxious and lonely.",R:MORPH
"Although I do not play perfectly, I play quite well, but I would still like to practice.","Although I do not play perfectly, I play quite well, but I would still like to practise.",R:MORPH
Yours Faithful,Yours faithfully,R:MORPH
"The concert went terrific, too!","The concert went terrifically, too!",R:MORPH
I hope you understand me and the show is going to be succeeded.,I hope you understand me and the show is going to be successful.,R:MORPH
This is the most terribly disadvantage technology has.,This is the most terrible disadvantage technology has.,R:MORPH
I would like to choose painting and photography which are my favourites ones.,I would like to choose painting and photography which are my favourite ones.,R:MORPH
"Dear Sir / Madame,","Dear Sir / Madam,",R:MORPH
Loves,Love,R:MORPH
It is opened from 10:00 to 19:00 and it is for free for students.,It is open from 10:00 to 19:00 and it is for free for students.,R:MORPH
"When our final day arrived, we went shoping in the morning and then we went to the hotel to change our clothes and get ready for the show.","When our final day arrived, we went shopping in the morning and then we went to the hotel to change our clothes and get ready for the show.",R:MORPH
"She always talks about her private life to me, and I thought we understood each other, because when I talked about my private life to her, she seemed very understandable.","She always talks about her private life to me, and I thought we understood each other, because when I talked about my private life to her, she seemed very understanding.",R:MORPH
and you could have a real great time.,and you could have a really great time.,R:MORPH
It was very hard working.,It was very hard work.,R:MORPH
The survive of my family depended on me.,The survival of my family depended on me.,R:MORPH
I remember very well two people who thought very different about shopping.,I remember very well two people who thought very differently about shopping.,R:MORPH
"Jazz, rock and classical concerts, plays and dance show etc.","Jazz, rock and classical concerts, plays and dance shows etc.",R:MORPH
July should be the hotest month!,July should be the hottest month!,R:MORPH
We think we would all have another chance for shopping in London sometimes later.,We think we would all have another chance for shopping in London sometime later.,R:MORPH
"On the other two days I helped to prepare the breakfast, lunch and diner for the band.","On the other two days I helped to prepare the breakfast, lunch and dinner for the band.",R:MORPH
Loves,Love,R:MORPH
"The add also mentioned discounts, but that wasn't true either.","The ad also mentioned discounts, but that wasn't true either.",R:MORPH
"Now, they are both prouding of me!","Now, they are both proud of me!",R:MORPH
Forty - five minutes later!,Forty - five minutes late!,R:MORPH
Shopping is Not Enjoy Anymore,Shopping is Not Enjoyable Anymore,R:MORPH
I just wonder how much time we spend shopping at the supermarket or how much time we spend buying cloths.,I just wonder how much time we spend shopping at the supermarket or how much time we spend buying clothes.,R:MORPH
I couldn't stand being watched and my furious led me straight to Pat.,I couldn't stand being watched and my fury led me straight to Pat.,R:MORPH
"People are trying to buy as many things as they can, and everyone wants to be first to the check - out - you have to wait ages to get there! People are pushing each other, they are not as kind as usually.","People are trying to buy as many things as they can, and everyone wants to be first to the check - out - you have to wait ages to get there! People are pushing each other, they are not as kind as usual.",R:MORPH
Thank you for the amazing inform about the competition.,Thank you for the amazing information about the competition.,R:MORPH
"At the concert, what I had to do was to give out refreshments and drinkings to the audience.","At the concert, what I had to do was to give out refreshments and drinks to the audience.",R:MORPH
It was because they closed early than usual.,It was because they closed earlier than usual.,R:MORPH
"Sent me, please, news about July.","Send me, please, news about July.",R:MORPH
She felt really badly after that.,She felt really bad after that.,R:MORPH
I am looking forwards to receiving more information.,I am looking forward to receiving more information.,R:MORPH
It is interesting to starts to think about this point.,It is interesting to start to think about this point.,R:MORPH
"Therefore if you could change the program on 14th, we would be very happy.","Therefore if you could change the programme on 14th, we would be very happy.",R:MORPH
"My mum is a lovely woman and she doesn't know how much I love her because most of the day I'm outside, but that's the true.","My mum is a lovely woman and she doesn't know how much I love her because most of the day I'm outside, but that's the truth.",R:MORPH
I went out earlier but the theatre restaurant was closed.,I went out early but the theatre restaurant was closed.,R:MORPH
"Hopeful, you try to find the same thing in another shop.","Hopefully, you try to find the same thing in another shop.",R:MORPH
The concert was organized by the community so everyone who wanted to help was welcomed.,The concert was organized by the community so everyone who wanted to help was welcome.,R:MORPH
"Dear Sir or Madame,","Dear Sir or Madam,",R:MORPH
Most of us live in houses or flats and it is most very comfortable.,Most of us live in houses or flats and it is mostly very comfortable.,R:MORPH
We were all given different sort of jobs to do.,We were all given different sorts of jobs to do.,R:MORPH
Peter had a terribly problem with drugs.,Peter had a terrible problem with drugs.,R:MORPH
I would be gladly to get an answer from you.,I would be glad to get an answer from you.,R:MORPH
I hope you be well.,I hope you are well.,R:MORPH
"Shopping... a great and emotion statement, don't you think?","Shopping... a great and emotional statement, don't you think?",R:MORPH
I collect strange photography by myself.,I collect strange photographs by myself.,R:MORPH
"Another point is the time when it started, exactly 45 minutes later.","Another point is the time when it started, exactly 45 minutes late.",R:MORPH
"Marie was so shocked that, as soon as Pat had stopped speaking, she phoned Nick and, without letting him say anything, she broke up their relation.","Marie was so shocked that, as soon as Pat had stopped speaking, she phoned Nick and, without letting him say anything, she broke up their relationship.",R:MORPH
So we had to find a dog that Leon wouldn't recognized.,So we had to find a dog that Leon wouldn't recognise.,R:MORPH
"I will wait to hearing from you, soon.","I will wait to hear from you, soon.",R:MORPH
The clothes will be more comfortable but less decorations.,The clothes will be more comfortable but less decorative.,R:MORPH
Thank you for your informing letter and your congratulations.,Thank you for your informative letter and your congratulations.,R:MORPH
The concert was absolute marvellous!,The concert was absolutely marvellous!,R:MORPH
Popular design of cloths.,Popular design of clothes.,R:MORPH
"However, on the other hand, it must be so annoying to be followed by journalists or photographs all the time.","However, on the other hand, it must be so annoying to be followed by journalists or photographers all the time.",R:MORPH
"Second, the musical started forty - five minutes later! and, to make matters worse, the actor was not Danny Brook as the advertisement said.","Second, the musical started forty - five minutes late! and, to make matters worse, the actor was not Danny Brook as the advertisement said.",R:MORPH
Thank you so much for organising such a great program.,Thank you so much for organising such a great programme.,R:MORPH
The best advantage of this job is the payment.,The best advantage of this job is the pay.,R:MORPH
"Dear Sir or Madame,","Dear Sir or Madam,",R:MORPH
"Most of all, I'm so happy that I could choose some activities. I'd like to practice golf and tennis.","Most of all, I'm so happy that I could choose some activities. I'd like to practise golf and tennis.",R:MORPH
Howe are things going over there?,How are things going over there?,R:MORPH
We're not allowed to drink alcohol as well and quarrel with any of the teaches.,We're not allowed to drink alcohol as well and quarrel with any of the teachers.,R:MORPH
Each time I see the advertising I get mad.,Each time I see the advertisement I get mad.,R:MORPH
"Nigel himself was a big "" surprising "" present for Sally.","Nigel himself was a big "" surprise "" present for Sally.",R:MORPH
"Quite recently, in my country electrical bicycles have been invented.","Quite recently, in my country electric bicycles have been invented.",R:MORPH
"Sir, Madame","Sir, Madam",R:MORPH
"Unfortunately, Pat wasn't very good at keeping secretes.","Unfortunately, Pat wasn't very good at keeping secrets.",R:MORPH
They use the publicity exclusive for their work.,They use the publicity exclusively for their work.,R:MORPH
"Therefor, I would like to ask for at least half of my money back.","Therefore, I would like to ask for at least half of my money back.",R:MORPH
It is very various and interesting.,It is very varied and interesting.,R:MORPH
"General speaking, homes will change considerably.","Generally speaking, homes will change considerably.",R:MORPH
Loves,Love,R:MORPH
I am quite good at both because I do usually practice them.,I am quite good at both because I do usually practise them.,R:MORPH
And when the sun is shining you are relax and you feel good.,And when the sun is shining you are relaxed and you feel good.,R:MORPH
The criticism spirit has to be preserved but we must keep our secrets.,The critical spirit has to be preserved but we must keep our secrets.,R:MORPH
I look forward to hearing from you in the very near future to offer me a partly refund.,I look forward to hearing from you in the very near future to offer me a partial refund.,R:MORPH
Lovers!,Love!,R:MORPH
I think it could be your nice apologise for all my problems and disappointments.,I think it could be your nice apology for all my problems and disappointments.,R:MORPH
"Dear Sir / Madame,","Dear Sir / Madam,",R:MORPH
The show will be at the Central Exhibition Hall and it will be opened until 7.,The show will be at the Central Exhibition Hall and it will be open until 7.,R:MORPH
"I was terrified, I knew that the only solution was to ask for helping.","I was terrified, I knew that the only solution was to ask for help.",R:MORPH
How convenience it is!,How convenient it is!,R:MORPH
The show started 45 minutes later.,The show started 45 minutes late.,R:MORPH
"During the camp, I will do sing and climbing activities.","During the camp, I will do singing and climbing activities.",R:MORPH
"To sum up, I believe that modern technology could help our daily life but we should not alway rely on it.","To sum up, I believe that modern technology could help our daily life but we should not always rely on it.",R:MORPH
"Dear Sir or Madame,","Dear Sir or Madam,",R:MORPH
Another question - what sorts of clothes shall I bring with me?,Another question - what sort of clothes shall I bring with me?,R:MORPH
LAST WEEK I HAD AN ARGUE WITH MY MOTHER.,LAST WEEK I HAD AN ARGUMENT WITH MY MOTHER.,R:MORPH
That's nearly an hour later!,That's nearly an hour late!,R:MORPH
I expect that much more various kinds of plays and films will be on next year.,I expect that much more varied kinds of plays and films will be on next year.,R:MORPH
"You wanted to cheat me, so I will be very pleasure if you could give my money back.","You wanted to cheat me, so I will be very pleased if you could give my money back.",R:MORPH
I hop that the next time you will come with me!,I hope that the next time you will come with me!,R:MORPH
The town became peace again.,The town became peaceful again.,R:MORPH
"SO, I HAD TO PAY A LOT OF MONEY TO SEE A PLAY THAT WAS A COMPLETELY DISASTER.","SO, I HAD TO PAY A LOT OF MONEY TO SEE A PLAY THAT WAS A COMPLETE DISASTER.",R:MORPH
We hope changing the excursion program a little will not cause any problems.,We hope changing the excursion programme a little will not cause any problems.,R:MORPH
"I arrived at the right time (19.30) that evening but the play, which was' Over The Rainbow ', started almost an hour later.","I arrived at the right time (19.30) that evening but the play, which was' Over The Rainbow ', started almost an hour late.",R:MORPH
The show started forty - five minutes later and this really disappointed me.,The show started forty - five minutes late and this really disappointed me.,R:MORPH
Thanks you very much for your recent letter.,Thank you very much for your recent letter.,R:MORPH
The recreative part will begin at 10 pm with a short musical comedy performed by some of our students and end with fireworks launched from the roof of the college at 2 am.,The recreational part will begin at 10 pm with a short musical comedy performed by some of our students and end with fireworks launched from the roof of the college at 2 am.,R:MORPH
The students have prepared a music program for the end - of - conference party.,The students have prepared a music programme for the end - of - conference party.,R:MORPH
Affecting Our Lifes,Affecting Our Lives,R:MORPH
In the church are many expensive draws.,In the church are many expensive drawings.,R:MORPH
One is the Picasso museum and the other is an important Gallery where you can enjoy seeing differents kinds of paintings.,One is the Picasso museum and the other is an important Gallery where you can enjoy seeing different kinds of paintings.,R:MORPH
I am looking forward to seeing you and hop you have a safe flight over to England.,I am looking forward to seeing you and hope you have a safe flight over to England.,R:MORPH
