Original sentence,Expected sentence,Mistake categories
This sport are for real men.,This sport is for real men.,R:VERB:SVA
That is what everyone say when we ask if they prefer public transport or car.,That is what everyone says when we ask if they prefer public transport or car.,R:VERB:SVA
Adam and John was very angry.,Adam and John were very angry.,R:VERB:SVA
There are a lot of private transport in the streets.,There is a lot of private transport in the streets.,R:VERB:SVA
"Private transport give us traffic jams, a lot of accidents and stressful situations.","Private transport gives us traffic jams, a lot of accidents and stressful situations.",R:VERB:SVA
She always work hard for our family.,She always works hard for our family.,R:VERB:SVA
Television is an object that help people to know the news in real time.,Television is an object that helps people to know the news in real time.,R:VERB:SVA
Three words that I can describe myself with is:,Three words that I can describe myself with are:,R:VERB:SVA
The last sales of the last year was $850.,The last sales of the last year were $850.,R:VERB:SVA
I prefer to watch films at the cinema because there aren't any distractions or noises and the quality of films are better.,I prefer to watch films at the cinema because there aren't any distractions or noises and the quality of films is better.,R:VERB:SVA
I loves Ton Duc Thang university so much.,I love Ton Duc Thang university so much.,R:VERB:SVA
I likes the friendly students and helpful teachers.,I like the friendly students and helpful teachers.,R:VERB:SVA
Your plan sound great and I will be pleased to spend a few days with you and your family.,Your plan sounds great and I will be pleased to spend a few days with you and your family.,R:VERB:SVA
My clients was very impolite.,My clients were very impolite.,R:VERB:SVA
Almost every family have a car now.,Almost every family has a car now.,R:VERB:SVA
"The animals I like to hunt most is birds, rabbits, moose and roe deer.","The animals I like to hunt most are birds, rabbits, moose and roe deer.",R:VERB:SVA
The teacher use lesson time effectively.,The teacher uses lesson time effectively.,R:VERB:SVA
"Studies and monitors students' progress, help them to deal with their problems.","Studies and monitors students' progress, helps them to deal with their problems.",R:VERB:SVA
My favorite sports/ hobbies is windsurfing and sailing.,My favorite sports/ hobbies are windsurfing and sailing.,R:VERB:SVA
Everyone use public transport every day.,Everyone uses public transport every day.,R:VERB:SVA
Almost every family have more than one car.,Almost every family has more than one car.,R:VERB:SVA
"One day, Michael were going to school for his final examination.","One day, Michael was going to school for his final examination.",R:VERB:SVA
We have no idea of how much damage factories causes to the rivers and seas.,We have no idea of how much damage factories cause to the rivers and seas.,R:VERB:SVA
"They are very happy with me, because my marks is good.","They are very happy with me, because my marks are good.",R:VERB:SVA
"Lastly, public transportation make you sure to arrive on time.","Lastly, public transportation makes you sure to arrive on time.",R:VERB:SVA
"Similarly, summer vacation give us more time to do meaningful things.","Similarly, summer vacation gives us more time to do meaningful things.",R:VERB:SVA
"Last year I won the national competition in my country and that make me feel so good, because it's all I want.","Last year I won the national competition in my country and that makes me feel so good, because it's all I want.",R:VERB:SVA
Who care about us?,Who cares about us?,R:VERB:SVA
Who try to make us happy?,Who tries to make us happy?,R:VERB:SVA
My favourite sport are basketball.,My favourite sport is basketball.,R:VERB:SVA
"He live with Chandler, opposite Monica and Rachel's flat.","He lives with Chandler, opposite Monica and Rachel's flat.",R:VERB:SVA
Reducing the rush hours in the main hours cause a CO2 reduction in the air.,Reducing the rush hours in the main hours causes a CO2 reduction in the air.,R:VERB:SVA
I remember when you told me once you was playing a violin for four hours.,I remember when you told me once you were playing a violin for four hours.,R:VERB:SVA
An easy recipe are cookies.,An easy recipe is cookies.,R:VERB:SVA
Football is an important sport that unite nations.,Football is an important sport that unites nations.,R:VERB:SVA
One of my favourite books are Diary of a Wimpy Kid.,One of my favourite books is Diary of a Wimpy Kid.,R:VERB:SVA
"Well, in my hometown there is about a little more than half a million people.","Well, in my hometown there are about a little more than half a million people.",R:VERB:SVA
It build a lot of facilities for residents.,It builds a lot of facilities for residents.,R:VERB:SVA
"It is true that basketball require a lot of physical activity, but a good mental attitude is very important.","It is true that basketball requires a lot of physical activity, but a good mental attitude is very important.",R:VERB:SVA
"Television helps us to find the fields that interests us, like music, sports, movies or nature.","Television helps us to find the fields that interest us, like music, sports, movies or nature.",R:VERB:SVA
"Moreover, the goods is quite cheap.","Moreover, the goods are quite cheap.",R:VERB:SVA
"Nowadays, people is wasting water instead of saving it.","Nowadays, people are wasting water instead of saving it.",R:VERB:SVA
There are a lot of food all over the world.,There is a lot of food all over the world.,R:VERB:SVA
Swimming develop all types of muscles.,Swimming develops all types of muscles.,R:VERB:SVA
"This will be like in ancient times, but in the past the houses was the same all round.","This will be like in ancient times, but in the past the houses were the same all round.",R:VERB:SVA
The power of imagination makes him become a teacher: he has to show men how to understand their feelings and the nature that surround them.,The power of imagination makes him become a teacher: he has to show men how to understand their feelings and the nature that surrounds them.,R:VERB:SVA
Humans is the best!!!!,Humans are the best!!!!,R:VERB:SVA
The city contain about thirty public parks.,The city contains about thirty public parks.,R:VERB:SVA
Our city have a well equipped waste management system.,Our city has a well equipped waste management system.,R:VERB:SVA
That wastes people's time and make people feel exhausted.,That wastes people's time and makes people feel exhausted.,R:VERB:SVA
They was doing rites of pilgrimage.,They were doing rites of pilgrimage.,R:VERB:SVA
"With reference to your advertisement posted on the web (CareerCast IT) a few days ago, I am sending you attached my curriculum vitae in support of my application for the following position: Graduate Project Engineer, which are being offered at your company.","With reference to your advertisement posted on the web (CareerCast IT) a few days ago, I am sending you attached my curriculum vitae in support of my application for the following position: Graduate Project Engineer, which is being offered at your company.",R:VERB:SVA
Watching quiz programs are a main way to educate oneself.,Watching quiz programs is a main way to educate oneself.,R:VERB:SVA
Being aware of current affairs are important in our life.,Being aware of current affairs is important in our life.,R:VERB:SVA
"On the one hand, friends is like a family because you live together a lot of experiences and adventures.","On the one hand, friends are like a family because you live together a lot of experiences and adventures.",R:VERB:SVA
"They argue that a large number of people prefers travelling in private transport, because it is more comfortable and convenient.","They argue that a large number of people prefer travelling in private transport, because it is more comfortable and convenient.",R:VERB:SVA
"In conclusion, the internet have pros and cons, but it can be very useful and fun to use.","In conclusion, the internet has pros and cons, but it can be very useful and fun to use.",R:VERB:SVA
"If so, what is the criteria for giving it.","If so, what are the criteria for giving it.",R:VERB:SVA
"In 2013, the subway delivered over 1.71 billion rides, averaging approximately 5.5 million rides on weekdays.[2] Shanghai Metro system are 14 metro lines and 329 stations, with an operating route length of 334 miles, with 2.5 billion rides delivered in 2013.","In 2013, the subway delivered over 1.71 billion rides, averaging approximately 5.5 million rides on weekdays.[2] Shanghai Metro system is 14 metro lines and 329 stations, with an operating route length of 334 miles, with 2.5 billion rides delivered in 2013.",R:VERB:SVA
Some professional companies even offer their employees free public transport pass as a benefit.,Some professional companies even offer their employees free public transport passes as a benefit.,R:VERB:SVA
"Generally speaking, cars generates more pollution than any public transport.","Generally speaking, cars generate more pollution than any public transport.",R:VERB:SVA
I think playing basketball help me to be healthy.,I think playing basketball helps me to be healthy.,R:VERB:SVA
"I think everything is possible when you are organized. You start to build your own timetable, which make your life more easy and effective.","I think everything is possible when you are organized. You start to build your own timetable, which makes your life more easy and effective.",R:VERB:SVA
Michael don't know anything about love and sweetness.,Michael doesn't know anything about love and sweetness.,R:VERB:SVA
And Michael don't care what people think about him.,And Michael doesn't care what people think about him.,R:VERB:SVA
"As we can see, an unequal percentage are shown depending on the area where the people come from.","As we can see, an unequal percentage is shown depending on the area where the people come from.",R:VERB:SVA
There is a lot of things to visit here.,There are a lot of things to visit here.,R:VERB:SVA
"However, changes always has a negative side.","However, changes always have a negative side.",R:VERB:SVA
"On the other hand, if we don't use public transport and every person use a car, pollution will increase a lot.","On the other hand, if we don't use public transport and every person uses a car, pollution will increase a lot.",R:VERB:SVA
"Studying English abroad is the better alternative, but it have advantages and disadvantages.","Studying English abroad is the better alternative, but it has advantages and disadvantages.",R:VERB:SVA
Everyone know that shopping is a good way to spend time and get positive emotions or just relax.,Everyone knows that shopping is a good way to spend time and get positive emotions or just relax.,R:VERB:SVA
"It is the most important matter, because most of us is not able to buy highly educational books.","It is the most important matter, because most of us are not able to buy highly educational books.",R:VERB:SVA
This sport consist of beating the rival by scoring as many goals as possible.,This sport consists of beating the rival by scoring as many goals as possible.,R:VERB:SVA
The most important events takes place in some different country every four years.,The most important events take place in some different country every four years.,R:VERB:SVA
"First of all, public transport provide the experience of the journey.","First of all, public transport provides the experience of the journey.",R:VERB:SVA
"He went on, "" Every room have a feeling written on it.","He went on, "" Every room has a feeling written on it.",R:VERB:SVA
Another useless thing are gossip.,Another useless thing is gossip.,R:VERB:SVA
The next thing about unpleasant shopping are enormous lines.,The next thing about unpleasant shopping is enormous lines.,R:VERB:SVA
"To sum up, the professor totally disagree with the statement in the reading passage.","To sum up, the professor totally disagrees with the statement in the reading passage.",R:VERB:SVA
This book is very exciting because there is a lot of things that are happening and it's not monotonous at all.,This book is very exciting because there are a lot of things that are happening and it's not monotonous at all.,R:VERB:SVA
"And I find the knowledge to be taught in some subjects interesting, while some are n't.","And I find the knowledge to be taught in some subjects interesting, while some is n't.",R:VERB:SVA
"In this step, skilled machinists is required.","In this step, skilled machinists are required.",R:VERB:SVA
It's one of the biggest countries in Europe if you think about the area Sweden have.,It's one of the biggest countries in Europe if you think about the area Sweden has.,R:VERB:SVA
The weather outside the window were totally different.,The weather outside the window was totally different.,R:VERB:SVA
pop and disco music is something all young people like.,pop and disco music are something all young people like.,R:VERB:SVA
"To summarize, I believe that everybody deserve to have a private life.","To summarize, I believe that everybody deserves to have a private life.",R:VERB:SVA
It takes place in the middle of the village where there are enough space for the spectators.,It takes place in the middle of the village where there is enough space for the spectators.,R:VERB:SVA
Referee advise players about the rules of the game.,Referee advises players about the rules of the game.,R:VERB:SVA
"On Sunday, the bus don't work until 3 p.m.","On Sunday, the bus doesn't work until 3 p.m.",R:VERB:SVA
It is possible to find many examples which confirms that argument.,It is possible to find many examples which confirm that argument.,R:VERB:SVA
We can also watch a documentary that teach us a lot!,We can also watch a documentary that teaches us a lot!,R:VERB:SVA
"It is because of the magic of the fairies, the actions in this book is like a dream.","It is because of the magic of the fairies, the actions in this book are like a dream.",R:VERB:SVA
The beautiful language of the fairies (verse) takes us away from the ordinary human world that usually talk in prose.,The beautiful language of the fairies (verse) takes us away from the ordinary human world that usually talks in prose.,R:VERB:SVA
Even the sound of these two words sound like fantasy.,Even the sound of these two words sounds like fantasy.,R:VERB:SVA
"But in my case, it happen rarely.","But in my case, it happens rarely.",R:VERB:SVA
The diagrams illustrates the process of making bank notes.,The diagrams illustrate the process of making bank notes.,R:VERB:SVA
"If the quality of sheets and bank notes are good, then they will be packaged and distributed.","If the quality of sheets and bank notes is good, then they will be packaged and distributed.",R:VERB:SVA
"As a rule, a friend or psychologist play this role.","As a rule, a friend or psychologist plays this role.",R:VERB:SVA
My advice for people that is going to start football is that you just have to do your best.,My advice for people that are going to start football is that you just have to do your best.,R:VERB:SVA
"Furthermore, football give you the opportunity to make friends because it is a team sport.","Furthermore, football gives you the opportunity to make friends because it is a team sport.",R:VERB:SVA
My holidays was here!,My holidays were here!,R:VERB:SVA
"Finally, the day to comes to England had arrived.","Finally, the day to come to England had arrived.",R:VERB:SVA
"Wearing any kind of clothes have an effect on you, and obviously on your image.","Wearing any kind of clothes has an effect on you, and obviously on your image.",R:VERB:SVA
We will have furniture that do not stain.,We will have furniture that does not stain.,R:VERB:SVA
Everyone in the village try to find the children.,Everyone in the village tries to find the children.,R:VERB:SVA
"However, in soccer, every single player touch the ball, even the goalkeeper has a chance to get the ball.","However, in soccer, every single player touches the ball, even the goalkeeper has a chance to get the ball.",R:VERB:SVA
"Today, recycling used clothes are popular in Japan.","Today, recycling used clothes is popular in Japan.",R:VERB:SVA
There is good points but a lot of work must be done to achieve the eco - friendly title.,There are good points but a lot of work must be done to achieve the eco - friendly title.,R:VERB:SVA
The Alhambra give you this opportunity!,The Alhambra gives you this opportunity!,R:VERB:SVA
"It has wizards, witches, knights, thieves, goblins, but it make you think too.","It has wizards, witches, knights, thieves, goblins, but it makes you think too.",R:VERB:SVA
My favourite sport are slalom.,My favourite sport is slalom.,R:VERB:SVA
"The body parts that help you to get a big angle is your toes, knees, hips and shoulders.","The body parts that help you to get a big angle are your toes, knees, hips and shoulders.",R:VERB:SVA
He also cooks tasty meals and give me them.,He also cooks tasty meals and gives me them.,R:VERB:SVA
It start with your work life.,It starts with your work life.,R:VERB:SVA
"The teacher ask the students to comment on the results and the activity, and discuss the opportunity to repeat the activity.","The teacher asks the students to comment on the results and the activity, and discuss the opportunity to repeat the activity.",R:VERB:SVA
News on TV tell us what is happening in the world.,News on TV tells us what is happening in the world.,R:VERB:SVA
Public transport reduce the car congestion problems.,Public transport reduces the car congestion problems.,R:VERB:SVA
"So, I think that both hobbies has their advantages and disadvantages.","So, I think that both hobbies have their advantages and disadvantages.",R:VERB:SVA
Because public transport have a fixed timetable.,Because public transport has a fixed timetable.,R:VERB:SVA
In front of the building are enormous reflectors which shines into the darkness.,In front of the building are enormous reflectors which shine into the darkness.,R:VERB:SVA
"However, there are also some drawbacks it bring about.","However, there are also some drawbacks it brings about.",R:VERB:SVA
The latest research carried out by The Health Department in Spain show that young people are not as healthy as twenty years ago.,The latest research carried out by The Health Department in Spain shows that young people are not as healthy as twenty years ago.,R:VERB:SVA
"The result are insincere, misleading and often deceitful messages that our minds are saturated with.","The result is insincere, misleading and often deceitful messages that our minds are saturated with.",R:VERB:SVA
It is a girl called Jasmine Thompson and she sing cover songs and I think she is a really good singer.,It is a girl called Jasmine Thompson and she sings cover songs and I think she is a really good singer.,R:VERB:SVA
How do the town try to keep the area clean:,How does the town try to keep the area clean:,R:VERB:SVA
"During Lent, the protagonist gets to know other outcasts (mainly women) and help them.","During Lent, the protagonist gets to know other outcasts (mainly women) and helps them.",R:VERB:SVA
"To conclude, although social media seems flawless, we should always be careful and responsible before we sign up.","To conclude, although social media seem flawless, we should always be careful and responsible before we sign up.",R:VERB:SVA
"Sexual violence has a devastating impact on victims, all areas of a victim's life is affected.","Sexual violence has a devastating impact on victims, all areas of a victim's life are affected.",R:VERB:SVA
The processes that appears more usually are mental and relational (attributive type).,The processes that appear more usually are mental and relational (attributive type).,R:VERB:SVA
"On the other hand, the woman just say "" I'm sorry "".","On the other hand, the woman just says "" I'm sorry "".",R:VERB:SVA
"The other participants appears a few times, but these participants tell us important things about the relationship.","The other participants appear a few times, but these participants tell us important things about the relationship.",R:VERB:SVA
"Therefore, an active social life not only benefits my mental health but also keep me in a good mood.","Therefore, an active social life not only benefits my mental health but also keeps me in a good mood.",R:VERB:SVA
"but let's think... is it really so interesting to know, for example, what Madonna's second husband eat for breakfast?","but let's think... is it really so interesting to know, for example, what Madonna's second husband eats for breakfast?",R:VERB:SVA
"This happens because some people is famous just because they have had an affair with a singer or a footballer, so the only thing people want to know about them is if that is true or not, and when it happened.","This happens because some people are famous just because they have had an affair with a singer or a footballer, so the only thing people want to know about them is if that is true or not, and when it happened.",R:VERB:SVA
"For example, people interested in cooking has some gourmet shops where they will be able to taste our traditional products.","For example, people interested in cooking have some gourmet shops where they will be able to taste our traditional products.",R:VERB:SVA
"Some hikes are short, but steep and some hikes are long and involves no climbing at all.","Some hikes are short, but steep and some hikes are long and involve no climbing at all.",R:VERB:SVA
"Therefore, the oxygen therapy needs to continue immediately along with his admission, via nasal cannula or oxygen mask within 4 to 6L / min, until the anaesthesia effects are completely gone and the patient's oxygen saturation be restored (Farrell & Dempsey, 2010).","Therefore, the oxygen therapy needs to continue immediately along with his admission, via nasal cannula or oxygen mask within 4 to 6L / min, until the anaesthesia effects are completely gone and the patient's oxygen saturation is restored (Farrell & Dempsey, 2010).",R:VERB:SVA
Working on projects help me improve my organizational and planning skills.,Working on projects helps me improve my organizational and planning skills.,R:VERB:SVA
This is one of the reasons why most French under 50 doesn't speak English very well.,This is one of the reasons why most French under 50 don't speak English very well.,R:VERB:SVA
A way that no one ever seems to tells you about.,A way that no one ever seems to tell you about.,R:VERB:SVA
Such programs also allows us to participate by giving our feedback.,Such programs also allow us to participate by giving our feedback.,R:VERB:SVA
The reasons for use is dependent on the individual and the circumstances.,The reasons for use are dependent on the individual and the circumstances.,R:VERB:SVA
I think it is true that colour do influence our decision when we buy different things.,I think it is true that colour does influence our decision when we buy different things.,R:VERB:SVA
"But in modern countries, the environmental effects of one's behavior is becoming important and concerning.","But in modern countries, the environmental effects of one's behavior are becoming important and concerning.",R:VERB:SVA
"We do know that the incident might have caused some inconveniences, but the most important thing is that none of our guests or staff was injured.","We do know that the incident might have caused some inconveniences, but the most important thing is that none of our guests or staff were injured.",R:VERB:SVA
"This article deal with the benefits and drawbacks, if there are any, of learning another language.","This article deals with the benefits and drawbacks, if there are any, of learning another language.",R:VERB:SVA
This text lead us into the (for me unknown) world of horse racing.,This text leads us into the (for me unknown) world of horse racing.,R:VERB:SVA
"Only the brand and the good marketing makes it that expensive, not better quality or better taste.","Only the brand and the good marketing make it that expensive, not better quality or better taste.",R:VERB:SVA
"Also, that make them do their jobs efficiently.","Also, that makes them do their jobs efficiently.",R:VERB:SVA
I understand that the new programme have some specific requisites related to preservation of analysed samples.,I understand that the new programme has some specific requisites related to preservation of analysed samples.,R:VERB:SVA
Although the main reason that prevents me from using them are my colleagues.,Although the main reason that prevents me from using them is my colleagues.,R:VERB:SVA
"They fulfill all the functions that my friends has, and they fulfill them even better.","They fulfill all the functions that my friends have, and they fulfill them even better.",R:VERB:SVA
Eating healthy foods are the other part of that sport.,Eating healthy foods is the other part of that sport.,R:VERB:SVA
It is well known that this kind of facility help students make the most of their time while learning English.,It is well known that this kind of facility helps students make the most of their time while learning English.,R:VERB:SVA
There are an incredible amount of things to learn.,There is an incredible amount of things to learn.,R:VERB:SVA
Some people claim that the youth of today is less healthy than they were two decades ago.,Some people claim that the youth of today are less healthy than they were two decades ago.,R:VERB:SVA
"Furthermore, information about these facts have become much more available.","Furthermore, information about these facts has become much more available.",R:VERB:SVA
"For some people, living a life which enable them do what they like and like what they are doing is enough to be considered as a successful life.","For some people, living a life which enables them do what they like and like what they are doing is enough to be considered as a successful life.",R:VERB:SVA
This not only makes them knowledgeable but increase their potential as well.,This not only makes them knowledgeable but increases their potential as well.,R:VERB:SVA
"Surprisingly, the producer get to maintain his profits due to the proportional decrease in price as well as the cost to produce.","Surprisingly, the producer gets to maintain his profits due to the proportional decrease in price as well as the cost to produce.",R:VERB:SVA
"This automatic, efficient, quick, precise technology reduces the amount of labor needed, saves waste initially caused by human errors, saves time and produce at better quality too.","This automatic, efficient, quick, precise technology reduces the amount of labor needed, saves waste initially caused by human errors, saves time and produces at better quality too.",R:VERB:SVA
"Likewise, the joy of shopping is dependent upon the items one intend to purchase.","Likewise, the joy of shopping is dependent upon the items one intends to purchase.",R:VERB:SVA
He's one of AC-12's leading investigators although he sometimes has the tendency to let his personal feelings sways his professional judgement.,He's one of AC-12's leading investigators although he sometimes has the tendency to let his personal feelings sway his professional judgement.,R:VERB:SVA
There is a lot of old photos compared with new ones.,There are a lot of old photos compared with new ones.,R:VERB:SVA
"Using the phone during breaks let the students focus on the lesson and then, have a bit of distraction when they are not there and, what is more, keep parents relaxed because they can communicate with their children and talk about what they need.","Using the phone during breaks lets the students focus on the lesson and then, have a bit of distraction when they are not there and, what is more, keep parents relaxed because they can communicate with their children and talk about what they need.",R:VERB:SVA
"Furthermore, some learners respond better to an explicit focus on rules, which make them aware of the mistakes they are making.","Furthermore, some learners respond better to an explicit focus on rules, which makes them aware of the mistakes they are making.",R:VERB:SVA
We'd been driving for half an hour when I noticed that there were a white car behind us.,We'd been driving for half an hour when I noticed that there was a white car behind us.,R:VERB:SVA
"Last but not least, time spent on these courses are different too.","Last but not least, time spent on these courses is different too.",R:VERB:SVA
"First of all, public transport bring us closer to other people.","First of all, public transport brings us closer to other people.",R:VERB:SVA
"Indeed, the method by which a person go from point A to point B can spell the difference between a good and a bad day.","Indeed, the method by which a person goes from point A to point B can spell the difference between a good and a bad day.",R:VERB:SVA
"To be more precise, new educational methods promotes the students' teamwork.","To be more precise, new educational methods promote the students' teamwork.",R:VERB:SVA
"However, I believe the educational programmes on TV still plays a vital role in educating both adults and young children.","However, I believe the educational programmes on TV still play a vital role in educating both adults and young children.",R:VERB:SVA
Not only me but also every Indian always follow Sachin for cricket.,Not only me but also every Indian always follows Sachin for cricket.,R:VERB:SVA
"In my opinion, the transportation in our city have nothing to criticize expect that.","In my opinion, the transportation in our city has nothing to criticize expect that.",R:VERB:SVA
"To make sure you get the position successfully, here are some useful advice and information you might want to know.","To make sure you get the position successfully, here is some useful advice and information you might want to know.",R:VERB:SVA
Facing the murder directly makes the horror penetrates into our hearts.,Facing the murder directly makes the horror penetrate into our hearts.,R:VERB:SVA
Everything were new for me.,Everything was new for me.,R:VERB:SVA
"This mean the engineering will find the way to useless petrol for it, so it must useful in the future.","This means the engineering will find the way to useless petrol for it, so it must useful in the future.",R:VERB:SVA
But you'll find your' cool bargain' soon get out of date and you have to keep buying new ones.,But you'll find your' cool bargain' soon gets out of date and you have to keep buying new ones.,R:VERB:SVA
"Then, I am a student, and when I bought my ticket, there wasn't any discounts.","Then, I am a student, and when I bought my ticket, there weren't any discounts.",R:VERB:SVA
There was about 100 000 people.,There were about 100 000 people.,R:VERB:SVA
HERE ARE THE INFORMATION YOU ASKED FOR:,HERE IS THE INFORMATION YOU ASKED FOR:,R:VERB:SVA
This really upset me as no notice were given before the show.,This really upset me as no notice was given before the show.,R:VERB:SVA
Here in Brazil the rules at school depends on the school.,Here in Brazil the rules at school depend on the school.,R:VERB:SVA
It's not easy to shop with someone who are not interested in shopping.,It's not easy to shop with someone who is not interested in shopping.,R:VERB:SVA
"you really like some shoes or clothes, when you want to buy them, someone tell you "" I'm sorry, this one is sold out ""!","you really like some shoes or clothes, when you want to buy them, someone tells you "" I'm sorry, this one is sold out ""!",R:VERB:SVA
Who know?,Who knows?,R:VERB:SVA
I felt really disappointed because the things you said in the advertisement wasn't true.,I felt really disappointed because the things you said in the advertisement weren't true.,R:VERB:SVA
The advertisement for the show said that there was discounts available for children so we brought them and when we bought the tickets we had to pay the maximum price for everyone.,The advertisement for the show said that there were discounts available for children so we brought them and when we bought the tickets we had to pay the maximum price for everyone.,R:VERB:SVA
"However, there was not any.","However, there were not any.",R:VERB:SVA
He make you experience in detail all the struggles the fisherman has when he fights with the swordfish and the sharks.,He makes you experience in detail all the struggles the fisherman has when he fights with the swordfish and the sharks.,R:VERB:SVA
The interview was OK and my friend and I was hired!,The interview was OK and my friend and I were hired!,R:VERB:SVA
"It was also said that discounts was available but this was wrong, because we couldn't get any discounts.","It was also said that discounts were available but this was wrong, because we couldn't get any discounts.",R:VERB:SVA
It could be difficult to feel how many things has been changed in our daily life.,It could be difficult to feel how many things have been changed in our daily life.,R:VERB:SVA
However it often happen.,However it often happens.,R:VERB:SVA
Everybody love her.,Everybody loves her.,R:VERB:SVA
There is a lot of rules at my school.,There are a lot of rules at my school.,R:VERB:SVA
It mean that a job should be part - time.,It means that a job should be part - time.,R:VERB:SVA
"On the other hand, there were a lot that impressed me very much.","On the other hand, there was a lot that impressed me very much.",R:VERB:SVA
There is a lot of other examples of how technology has changed people's lives.,There are a lot of other examples of how technology has changed people's lives.,R:VERB:SVA
Here are the information which you asked me for.,Here is the information which you asked me for.,R:VERB:SVA
Lots of information in your advertisement are not correct.,Lots of information in your advertisement is not correct.,R:VERB:SVA
Fashion are changing every year.,Fashion is changing every year.,R:VERB:SVA
"The good always wins, and we are told that the other part is bad, and that is the end of the story.","The good always win, and we are told that the other part is bad, and that is the end of the story.",R:VERB:SVA
But technology doesn't only makes my life better.,But technology doesn't only make my life better.,R:VERB:SVA
Another thing are the fifty - two steps which take me to the street.,Another thing is the fifty - two steps which take me to the street.,R:VERB:SVA
But the reason I want to try these two activities are their image.,But the reason I want to try these two activities is their image.,R:VERB:SVA
Mobile phones are another thing that is making my life much easier.,Mobile phones are another thing that are making my life much easier.,R:VERB:SVA
"Nowadays, our home life allow us to have more free time to spend doing leisure activities like practising sports or going out.","Nowadays, our home life allows us to have more free time to spend doing leisure activities like practising sports or going out.",R:VERB:SVA
I believe that everyone in this world have curiosity.,I believe that everyone in this world has curiosity.,R:VERB:SVA
In the meantime a man told me he were a doctor and could help the boy.,In the meantime a man told me he was a doctor and could help the boy.,R:VERB:SVA
Everybody make mistakes. I decided to forgive my friend Pat.,Everybody makes mistakes. I decided to forgive my friend Pat.,R:VERB:SVA
We spends a lot of time outside the school during the military things.,We spend a lot of time outside the school during the military things.,R:VERB:SVA
What does it means?,What does it mean?,R:VERB:SVA
I think 50% (£ 80) are enough.,I think 50% (£ 80) is enough.,R:VERB:SVA
Here are some further information you need from me:,Here is some further information you need from me:,R:VERB:SVA
Here are some information about daily life at I.S.O.,Here is some information about daily life at I.S.O.,R:VERB:SVA
"It's evident that whatever we wear look like clothes, and I think we should stop being so stupid.","It's evident that whatever we wear looks like clothes, and I think we should stop being so stupid.",R:VERB:SVA
"Everything is faster, and sometimes technology go so fast that I'm unable to follow it.","Everything is faster, and sometimes technology goes so fast that I'm unable to follow it.",R:VERB:SVA
"Everyone have to use modern technology carefully, because too much technology could be dangerous.","Everyone has to use modern technology carefully, because too much technology could be dangerous.",R:VERB:SVA
The two activities I have chosen is swimming and climbing.,The two activities I have chosen are swimming and climbing.,R:VERB:SVA
They said the soccer game enable them to get together and have fun.,They said the soccer game enables them to get together and have fun.,R:VERB:SVA
It was a very disappointing evening not just for me but for most of the people who was in the theatre.,It was a very disappointing evening not just for me but for most of the people who were in the theatre.,R:VERB:SVA
"At that time, my friends and I was so daring and full of energy.","At that time, my friends and I were so daring and full of energy.",R:VERB:SVA
"Secondly, there were some false information in your advertisement that made me angry.","Secondly, there was some false information in your advertisement that made me angry.",R:VERB:SVA
Also the amount of money I need to bring (is there any shops).,Also the amount of money I need to bring (are there any shops).,R:VERB:SVA
"The organiser of the concert asked my school for about 15 people, who does art, to help decorate the stage.","The organiser of the concert asked my school for about 15 people, who do art, to help decorate the stage.",R:VERB:SVA
I was very disappointed because the actors wasn't Danny Brook and Tina Truelove.,I was very disappointed because the actors weren't Danny Brook and Tina Truelove.,R:VERB:SVA
I have just received your letter which inform me that I have won two weeks at Camp California in the USA.,I have just received your letter which informs me that I have won two weeks at Camp California in the USA.,R:VERB:SVA
But it was closed because there were not anything to drink or to eat.,But it was closed because there was not anything to drink or to eat.,R:VERB:SVA
"These all happen from human who want to live with science and technology, not the natural which the world gives it to us.","These all happens from human who want to live with science and technology, not the natural which the world gives it to us.",R:VERB:SVA
Because too many cars mean too much CO2 in the air.,Because too many cars means too much CO2 in the air.,R:VERB:SVA
What changed my life most is portal computers.,What changed my life most are portal computers.,R:VERB:SVA
"But, instead of him, we saw an unknown actor (who really need singing lessons).","But, instead of him, we saw an unknown actor (who really needs singing lessons).",R:VERB:SVA
His acting and singing was horrible.,His acting and singing were horrible.,R:VERB:SVA
Your time have been stolen.,Your time has been stolen.,R:VERB:SVA
"Finally, new technology have a great influence on my life as it permits me to live on.","Finally, new technology has a great influence on my life as it permits me to live on.",R:VERB:SVA
The third problem were the discounts.,The third problem was the discounts.,R:VERB:SVA
"Imagine, she weren't angry!","Imagine, she wasn't angry!",R:VERB:SVA
I see that you has already organised the programme.,I see that you have already organised the programme.,R:VERB:SVA
Nowadays shopping is one of the activities that makes our society lives.,Nowadays shopping is one of the activities that makes our society live.,R:VERB:SVA
This section is really great and attract a lot of people.,This section is really great and attracts a lot of people.,R:VERB:SVA
I think that modern technology change my daily life.,I think that modern technology changes my daily life.,R:VERB:SVA
Fashion news are followed by lots of people.,Fashion news is followed by lots of people.,R:VERB:SVA
"For example when it is rainy, because then everything get wet.","For example when it is rainy, because then everything gets wet.",R:VERB:SVA
It make me a bit angry.,It makes me a bit angry.,R:VERB:SVA
Everybody deserve to have a private life even if he is a plumber or even if she is a famous singer.,Everybody deserves to have a private life even if he is a plumber or even if she is a famous singer.,R:VERB:SVA
There is a lot of situations which could make you feel similar while you do shopping.,There are a lot of situations which could make you feel similar while you do shopping.,R:VERB:SVA
We buy everything from clothes to food and the only thing that could stop us from this are money.,We buy everything from clothes to food and the only thing that could stop us from this is money.,R:VERB:SVA
The rest you already knows.,The rest you already know.,R:VERB:SVA
Madrid is a big city and have many interesting places.,Madrid is a big city and has many interesting places.,R:VERB:SVA
"Another reason is that there is a good museum, which tell you about the history of my town so easily and clearly.","Another reason is that there is a good museum, which tells you about the history of my town so easily and clearly.",R:VERB:SVA
There is a lot of places you can visit in Peterborough.,There are a lot of places you can visit in Peterborough.,R:VERB:SVA
The following are some information about the International student conference.,The following is some information about the International student conference.,R:VERB:SVA
It must be a very interesting visit for the students who has never experienced an oriental atmosphere.,It must be a very interesting visit for the students who have never experienced an oriental atmosphere.,R:VERB:SVA
"There is so many places of interest in Lausanne, but I think that the Olympic Museum is the most notable for the following reasons:","There are so many places of interest in Lausanne, but I think that the Olympic Museum is the most notable for the following reasons:",R:VERB:SVA
"Nowadays, our lives is becoming better and better.","Nowadays, our lives are becoming better and better.",R:VERB:SVA
"Personally, I do think televisions is the most important invention.","Personally, I do think televisions are the most important invention.",R:VERB:SVA
They all knows where the conference is and when.,They all know where the conference is and when.,R:VERB:SVA
It only take about five minutes if you walk.,It only takes about five minutes if you walk.,R:VERB:SVA
There is a lot of old items that were in the King's family.,There are a lot of old items that were in the King's family.,R:VERB:SVA
