Original sentence,Expected sentence
"First of all, we have an extinction area of cerrado closer to the Federal University of São Carlos, but sometimes, the area is used to construct a new university building.","First of all, we have an extinction area of cerrado close to the Federal University of São Carlos, but sometimes, the area is used to construct a new university building."
Today we have clever cricketers and more famous umpires than other countries.,Today we have cleverer cricketers and more famous umpires than other countries.
Cricket is good for our health than other games.,Cricket is better for our health than other games.
"Maybe, in fact, the lands are more big, so that the transport had not published to anywhere.","Maybe, in fact, the lands are bigger, so that the transport had not published to anywhere."
so the government must take action to make it easy.,so the government must take action to make it easier.
Why does everything look more difficult and hard than it was before?,Why does everything look more difficult and harder than it was before?
"Back in the 40 's, Cairo was considered as one of the cleanest and most environmentally friendly city in the world, Even cleanest than Paris or other cities in Europe.","Back in the 40 's, Cairo was considered as one of the cleanest and most environmentally friendly city in the world, Even cleaner than Paris or other cities in Europe."
Because on occasions it's very bored.,Because on occasions it's very boring.
"It is not important if these people are friends or family, they can change our lives for better or worst, it depends on you to choose the best thing that can help you.","It is not important if these people are friends or family, they can change our lives for better or worse, it depends on you to choose the best thing that can help you."
There are widely differing views on the issue of whether or not the benefits of studying foreign languages at an earlier age outweigh the drawbacks.,There are widely differing views on the issue of whether or not the benefits of studying foreign languages at an early age outweigh the drawbacks.
"In my opinion, the Diet of Gym is very bored.","In my opinion, the Diet of Gym is very boring."
The plane is most fastest than other ways to travel.,The plane is faster than other ways to travel.
Boat is most cheapest than other ways to travel.,Boat is cheaper than other ways to travel.
People's lives are getting easiest and more comfortable.,People's lives are getting easier and more comfortable.
This is my old brother's story.,This is my older brother's story.
"One day, my old brother went to a park where we often go to play tennis. He saw a boy who was holding a red hat crying on the branch, not knowing what to do. He stood behind a big tree and looked at the boy.","One day, my older brother went to a park where we often go to play tennis. He saw a boy who was holding a red hat crying on the branch, not knowing what to do. He stood behind a big tree and looked at the boy."
I do believe that people's lives in the future will change for the bad.,I do believe that people's lives in the future will change for the worse.
"A car is less expensive, more comfortable, more fast and safer.","A car is less expensive, more comfortable, faster and safer."
"Although public transport is slow, it also does not take a long time for people to reach their destination, because public transport nowadays is more fast and enough.","Although public transport is slow, it also does not take a long time for people to reach their destination, because public transport nowadays is faster and enough."
The accomplishment I am the most proudest of was when I scored four goals in a soccer game.,The accomplishment I am the most proud of was when I scored four goals in a soccer game.
"She thought he was so bored, but she didn't want to be alone. she didn't know how to live on her own and Emily was utterly terrified of being alone.","She thought he was so boring, but she didn't want to be alone. she didn't know how to live on her own and Emily was utterly terrified of being alone."
"You can think what you like, but I think that is the better part of Germany.","You can think what you like, but I think that is the best part of Germany."
"This is an interested question because I believe that my family are my best friends, but at the same time, they are not my friends.","This is an interesting question because I believe that my family are my best friends, but at the same time, they are not my friends."
Today I am very exciting because on Sunday I will go to Bangkok.,Today I am very excited because on Sunday I will go to Bangkok.
"What is worst, the space taken up by the house is where some animals lived before, so they lost their homes, which become the houses of people. Nevertheless, the earth does not only belong to the human race.","What is worse, the space taken up by the house is where some animals lived before, so they lost their homes, which become the houses of people. Nevertheless, the earth does not only belong to the human race."
It was the most bad mistake that he had made in all his life....,It was the worst mistake that he had made in all his life....
Public transport is much cheap than cars and reduces traffic in the city.,Public transport is much cheaper than cars and reduces traffic in the city.
This can help heauthy the people and the city will be most clean.,This can help heauthy the people and the city will be cleaner.
"The public transport most used in Toluca is the bus because it is the most cheaper, but it is very bad and unsafe. The quality of it is very bad; the buses are old and obsolete, they have broken windows and old broken seats.","The public transport most used in Toluca is the bus because it is the cheapest, but it is very bad and unsafe. The quality of it is very bad; the buses are old and obsolete, they have broken windows and old broken seats."
I think it's very important as it reduces the problems of both pollution and crowding. We use few vehicles as it is big and carries a lot of people.,I think it's very important as it reduces the problems of both pollution and crowding. We use fewer vehicles as it is big and carries a lot of people.
"Public transport is the best way to save the planet and have a best atmosphere. Also, we save money and can meet people.","Public transport is the best way to save the planet and have a better atmosphere. Also, we save money and can meet people."
"There are 5 people in my family: my father, my mother, my older sister and my young brother.","There are 5 people in my family: my father, my mother, my older sister and my younger brother."
My favourite sport is football. I enjoy playing football with my friends. We play at night. It is very excited to play when it's raining.,My favourite sport is football. I enjoy playing football with my friends. We play at night. It is very exciting to play when it's raining.
I am interesting in natural ways we can help in the local area.,I am interested in natural ways we can help in the local area.
"These also can be a problem, because recently they are falling down because they are older.","These also can be a problem, because recently they are falling down because they are old."
The main characters are very younger and enjoyable.,The main characters are very young and enjoyable.
"Any normal rainy day when you are a teenager in school never ever ends, but one day was a best day than any other normal rainy day because I learnt how to live as a powerful smart girl who used to let others use her because she wanted to feel needed by her friends but did not have many friends in school except "" Michael "".","Any normal rainy day when you are a teenager in school never ever ends, but one day was a better day than any other normal rainy day because I learnt how to live as a powerful smart girl who used to let others use her because she wanted to feel needed by her friends but did not have many friends in school except "" Michael ""."
I was a little worried because I love my sister but she was younger and I had a lot of work.,I was a little worried because I love my sister but she was young and I had a lot of work.
I was so exciting and very happy.,I was so excited and very happy.
"The negatives of playing badminton: your right arm is more strong than your left arm, and sometimes, you can sprain your arm.","The negatives of playing badminton: your right arm is stronger than your left arm, and sometimes, you can sprain your arm."
"Tell me what kind of suit the witness has to wear, whether I have to bay any colour of tie, a flower.... I'm really very exciting about your wedding.","Tell me what kind of suit the witness has to wear, whether I have to bay any colour of tie, a flower.... I'm really very excited about your wedding."
In Tampico City the most important landmarks are the squares in Tampico. The better shopping centres are mall Altama ubicate in Tampico center and the beach Madero. The most important parks are Carpenter's lagoon and my favorite restaurant is Child's in mall Altama.,In Tampico City the most important landmarks are the squares in Tampico. The best shopping centres are mall Altama ubicate in Tampico center and the beach Madero. The most important parks are Carpenter's lagoon and my favorite restaurant is Child's in mall Altama.
"Actually, we have a lot of problems with traffic: lots of carriages on the railway and they aren't running; the number of cars in the street causes pollution; crowded railways cause a later arrival.","Actually, we have a lot of problems with traffic: lots of carriages on the railway and they aren't running; the number of cars in the street causes pollution; crowded railways cause a late arrival."
Swimming is very excited.,Swimming is very exciting.
"My advice for finding work is a bit complicate because, nowadays, there are a lot of people without work.","My advice for finding work is a bit complicated because, nowadays, there are a lot of people without work."
"It was an excited day, all my friends, family … were with me.","It was an exciting day, all my friends, family … were with me."
"When I remember that moment, I am exciting.","When I remember that moment, I am excited."
"In the end, large colleges admit largest numbers of students, so the students may establish more friendships with people of different nationalities. Also they serve the community by qualifying many students in various majors.","In the end, large colleges admit larger numbers of students, so the students may establish more friendships with people of different nationalities. Also they serve the community by qualifying many students in various majors."
"Nowadays, people are using their own cars instead of public transport. This is more obvious in big cities where the price of public transport is more than in small cities.","Nowadays, people are using their own cars instead of public transport. This is more obvious in big cities where the price of public transport is more than in smaller cities."
"In conclusion, I've got to say that now we don't have to worry about the future, we just have to carry on in the present and do the better we can.","In conclusion, I've got to say that now we don't have to worry about the future, we just have to carry on in the present and do the best we can."
"Today, many people use their own vehicle instead of public transport. The other thing is, it is an easy and convenient way to travel to work and any other personal work., therefore, it can be seen that the demand for public transport is getting low and lower.","Today, many people use their own vehicle instead of public transport. The other thing is, it is an easy and convenient way to travel to work and any other personal work., therefore, it can be seen that the demand for public transport is getting lower and lower."
"Firstly, every country requires stability and must be protected by stronger armed forces for national security.","Firstly, every country requires stability and must be protected by strong armed forces for national security."
I went to the address and when I got there it appeared to be an abandon house.,I went to the address and when I got there it appeared to be an abandoned house.
"So, we can say that time is a double - edged sword, either helping you or against you, and the popular saying is right: "" don't put off the work of this day to the next day "" because our work will accumulate. Then it will become more hard to finish it. To ensure the best use of time in our lives, we need to be punctual. Punctuality avoids tension and trouble. Finally, even scientists have another vision of time. They have discovered that time is the fourth dimension through relativity theory, which exchange all concepts in science.","So, we can say that time is a double - edged sword, either helping you or against you, and the popular saying is right: "" don't put off the work of this day to the next day "" because our work will accumulate. Then it will become harder to finish it. To ensure the best use of time in our lives, we need to be punctual. Punctuality avoids tension and trouble. Finally, even scientists have another vision of time. They have discovered that time is the fourth dimension through relativity theory, which exchange all concepts in science."
"On a nice day, my old brother surprised me.","On a nice day, my older brother surprised me."
"However, we were lucky enough to have a great mother who tried her best to support my older brother, my older sister and me in completing our college studies. Of course, my uncle, young brother of my mother lent a big hand to go through the hard times, so that made us often help each other in my family when a member was in difficulty.","However, we were lucky enough to have a great mother who tried her best to support my older brother, my older sister and me in completing our college studies. Of course, my uncle, younger brother of my mother lent a big hand to go through the hard times, so that made us often help each other in my family when a member was in difficulty."
I was very worrying and nervous.,I was very worried and nervous.
"Firstly, private transport provides a comfortable way to travel from one place to another without sharing with stranger people and, by using this kind of transport, is also convenient because you are free to choose the time of a trip.","Firstly, private transport provides a comfortable way to travel from one place to another without sharing with strange people and, by using this kind of transport, is also convenient because you are free to choose the time of a trip."
"To tell the truth, shopping is so bored for men, particularly when they go to the store with women.","To tell the truth, shopping is so boring for men, particularly when they go to the store with women."
"But as this takes 5 days, many people don't have time to watch this game and its losing its popularity with the young generation.","But as this takes 5 days, many people don't have time to watch this game and its losing its popularity with the younger generation."
"The car is a more comfortable mode of transport than public transport, but it is not sustainable, its cost is higher, and if all people travel by car, the cities will be very pollutes.","The car is a more comfortable mode of transport than public transport, but it is not sustainable, its cost is higher, and if all people travel by car, the cities will be very polluted."
"This book got me interesting and I began reading more and more. The more I read, the more I loved it. At this time nothing mattered to me. I wanted to finish the book as soon as possible. I do not know the end, but I wanted the end of the book to be amazing, but at the same time, I did not finish the book because the mystery to open up finished in.","This book got me interested and I began reading more and more. The more I read, the more I loved it. At this time nothing mattered to me. I wanted to finish the book as soon as possible. I do not know the end, but I wanted the end of the book to be amazing, but at the same time, I did not finish the book because the mystery to open up finished in."
"To sum up, I think that we should expect a great future in which man will regain possession of his whole capability and, thanks to that, he will change everyone's lives for the best.","To sum up, I think that we should expect a great future in which man will regain possession of his whole capability and, thanks to that, he will change everyone's lives for the better."
"The government can improve public transport by making a great investment like changing the old vehicles for new and increasing the number of buses, trains and building more bus stops and trains stations. This kind of action will help a lot to improve the quality of public transport for the population and will make the life of the people more easy.","The government can improve public transport by making a great investment like changing the old vehicles for new and increasing the number of buses, trains and building more bus stops and trains stations. This kind of action will help a lot to improve the quality of public transport for the population and will make the life of the people easier."
Now he has founded his owned company.,Now he has founded his own company.
"But living in the 21st century, it's difficult to blame science when we are benefited through its technological applications in our everyday life to an ever - great extent.","But living in the 21st century, it's difficult to blame science when we are benefited through its technological applications in our everyday life to an ever - greater extent."
"But in some countries, you can use the underground (metro). It is more advanced than old types, like bus or taxi. The underground is faster and clean and.","But in some countries, you can use the underground (metro). It is more advanced than old types, like bus or taxi. The underground is faster and cleaner and."
So it makes me exciting.,So it makes me excited.
"However, compared to the line for the indoor swimming pool, the difference of seasonal achievement of the ice - cream van is considerably large.","However, compared to the line for the indoor swimming pool, the difference of seasonal achievement of the ice - cream van is considerably larger."
"Also, I always work with children and I have a teaching qualification. I'm a friendlier person and I have a good CV.","Also, I always work with children and I have a teaching qualification. I'm a friendly person and I have a good CV."
"When we were children, we used to use public transport for going from one place to another because that was the only cheaper option available.","When we were children, we used to use public transport for going from one place to another because that was the only cheap option available."
"Her mom tried to tell Fernanda that they arrived very late because they had a very perplexed problem. So her mom told her that they came out of the park at 9:00pm. It was still late but not too late, so they were on the street and the police arrived because the police thought that she had a globe of wine, and her mother told the police that she didn't have alcohol or wine in her car, and the police didn't believe her and they took them to the police station so they could check her car, and after about 10 minutes, they told her that she didn't have anything. So they went from there to their house and it was late, so that's the reason.","Her mom tried to tell Fernanda that they arrived very late because they had a very perplexing problem. So her mom told her that they came out of the park at 9:00pm. It was still late but not too late, so they were on the street and the police arrived because the police thought that she had a globe of wine, and her mother told the police that she didn't have alcohol or wine in her car, and the police didn't believe her and they took them to the police station so they could check her car, and after about 10 minutes, they told her that she didn't have anything. So they went from there to their house and it was late, so that's the reason."
I remember those years and I would like my children to practise it when they are oldest. It is an interesting sport.,I remember those years and I would like my children to practise it when they are older. It is an interesting sport.
One cannot ignore that it's more easy for young people to improve their knowledge than for older people.,One cannot ignore that it's easier for young people to improve their knowledge than for older people.
It depends on the capacity of children to learn more fast than elderly adults.,It depends on the capacity of children to learn faster than elderly adults.
"When I am tired, stressed, depressed, frustrating, sick of passing fancies or fake friends, there is just one thing that is able to make me feel better and snap out of it: this is, of course, swimming.","When I am tired, stressed, depressed, frustrated, sick of passing fancies or fake friends, there is just one thing that is able to make me feel better and snap out of it: this is, of course, swimming."
"For disable people, there should be expanded services to give them easy mobility.","For disabled people, there should be expanded services to give them easy mobility."
"And last but not the least, public transport is much safe than private transport, because it transports many more people, and so, there is more caution.","And last but not the least, public transport is much safer than private transport, because it transports many more people, and so, there is more caution."
"But, for beginners, I would suggest a lot of patience and persistence, and practising with company because running can be bored, tired, dangerous even, but if you have a strong spirit and willpower, you'll see how you can reduce your physical and mental weaknesses.","But, for beginners, I would suggest a lot of patience and persistence, and practising with company because running can be boring, tiring, dangerous even, but if you have a strong spirit and willpower, you'll see how you can reduce your physical and mental weaknesses."
He realized Adam's marks were getting low and he was involved in some trouble in school and began to investigate him.,He realized Adam's marks were getting lower and he was involved in some trouble in school and began to investigate him.
Customer satisfaction is much great when the customer gets service which has value or quality much greater than expected.,Customer satisfaction is much greater when the customer gets service which has value or quality much greater than expected.
Environmental awareness has positively affected the young generations.,Environmental awareness has positively affected the younger generations.
"The ideal is to start doing this sport as children, because the oldest you are the more difficult it is to overcome fear, but it is never too late to learn to swim.","The ideal is to start doing this sport as children, because the older you are the more difficult it is to overcome fear, but it is never too late to learn to swim."
"Each one makes everyday life a bit more easy, but real progress in the home would be electronic devices that were connected to the mind.","Each one makes everyday life a bit easier, but real progress in the home would be electronic devices that were connected to the mind."
Many people hesitate to tell others about an incident because they think it is embarrassed to tell others about this.,Many people hesitate to tell others about an incident because they think it is embarrassing to tell others about this.
"That is, in any place, suddenly you could find someone who could become your most close relative.","That is, in any place, suddenly you could find someone who could become your closest relative."
All surfaces are used in the better way possible.,All surfaces are used in the best way possible.
"My sister claimed that on her trip, she had seen completely astounded buildings, but while she was talking, we heard a very loud scream.","My sister claimed that on her trip, she had seen completely astounding buildings, but while she was talking, we heard a very loud scream."
And that's why I find this movie so excited.,And that's why I find this movie so exciting.
"Parkour is a discipline in which the main purpose is to train your body and mind to be able to pass through a point A to point B, in any kind of environment, the safest and faster way, without causing any harm to your body.","Parkour is a discipline in which the main purpose is to train your body and mind to be able to pass through a point A to point B, in any kind of environment, the safest and fastest way, without causing any harm to your body."
"Traffic education is also a compulsory measure, especially for young generations as they commit the majority of offences.","Traffic education is also a compulsory measure, especially for younger generations as they commit the majority of offences."
It could be a good idea to find a large venue.,It could be a good idea to find a larger venue.
The doorbell rang insistently. It was Saturday in the earlier morning and I was still in bed.,The doorbell rang insistently. It was Saturday in the early morning and I was still in bed.
I'm interesting in doing a course at your school.,I'm interested in doing a course at your school.
Governments should promote the good mode of transport in order to reduce carbon emissions and people would be encouraged to go green.,Governments should promote the best mode of transport in order to reduce carbon emissions and people would be encouraged to go green.
"The infrastructure built for controlling and maintaining the environmental ecosystem is worst. In other words, the government and people do not care about the environment, rather they spoil the environment.","The infrastructure built for controlling and maintaining the environmental ecosystem is bad. In other words, the government and people do not care about the environment, rather they spoil the environment."
I look forward to hearing from you in the nearing future.,I look forward to hearing from you in the near future.
"This film is interested because it drafts work problems, but not only this, it also shows some important values, like the importance of solidarity, group cohesion and the importance of not losing faith in dreams, even if the situation is withstands.","This film is interesting because it drafts work problems, but not only this, it also shows some important values, like the importance of solidarity, group cohesion and the importance of not losing faith in dreams, even if the situation is withstands."
"Owing to those separated characteristics, actually, Hong Kong can be described as a colourful and brilliant city.","Owing to those separate characteristics, actually, Hong Kong can be described as a colourful and brilliant city."
"Thank you for sending me the correct form of my writing, and I really appreciate that very much.","Thank you for sending me the corrected form of my writing, and I really appreciate that very much."
Sustainability is about finding the better way to interact with the environment.,Sustainability is about finding the best way to interact with the environment.
"It was a shorter soap opera, only ten chapters, but at the end, it seems like you have known them for a long time.","It was a short soap opera, only ten chapters, but at the end, it seems like you have known them for a long time."
"Travelling by bus is expensive, bored and annoying.","Travelling by bus is expensive, boring and annoying."
"First, when I was on the starting line, I felt I could not finish the competition. Then, when we were in the water the coaches did not stop encouraging us so it was easy to swim to the finishing line. I was so exciting to see our families waiting for us, clapping and shouting loudly every time one of us arrived.","First, when I was on the starting line, I felt I could not finish the competition. Then, when we were in the water the coaches did not stop encouraging us so it was easy to swim to the finishing line. I was so excited to see our families waiting for us, clapping and shouting loudly every time one of us arrived."
Maybe in the future homes will be self - cleaned and we won't need to clean up.,Maybe in the future homes will be self - cleaning and we won't need to clean up.
"In winter, it is fine. We can adjust to the crowd, but if we talk about the summer season, we cannot adjust when we are travelling in a suffocated environment.","In winter, it is fine. We can adjust to the crowd, but if we talk about the summer season, we cannot adjust when we are travelling in a suffocating environment."
I know it is the better option when you want to travel abroad.,I know it is the best option when you want to travel abroad.
"At the end of the competition, those whose area is cleaner and most attractive receive an award.","At the end of the competition, those whose area is cleanest and most attractive receive an award."
"Some people think cooking for themselves is too annoying or tired, so they go out to eat.","Some people think cooking for themselves is too annoying or tiring, so they go out to eat."
"These two movies give us a concept: no matter how worse their lives are, love can make people brave and help them find the value of their lives again.","These two movies give us a concept: no matter how bad their lives are, love can make people brave and help them find the value of their lives again."
"Although their hearts are all empty, the harsh environment is more hard to survive.","Although their hearts are all empty, the harsh environment is harder to survive."
"Public transport means such as trains, planes and buses are known as the most cheap and are used by all travelers, and the cost of using them is something that suits people who earn not much money,","Public transport means such as trains, planes and buses are known as the cheapest and are used by all travelers, and the cost of using them is something that suits people who earn not much money,"
The environmental impact is an important factor we should consider. Having this number of cars is like having thousands of factories on our streets giving out tons of CO2 gas and many other polluting gases. The speed of new trains or planes or even buses is now competing with car speeds and is even more fast than cars in a lot of places.,The environmental impact is an important factor we should consider. Having this number of cars is like having thousands of factories on our streets giving out tons of CO2 gas and many other polluting gases. The speed of new trains or planes or even buses is now competing with car speeds and is even faster than cars in a lot of places.
The reason why I want to change my major is that I found that I had a big interest in Accounting than in economics when I studied in the first year of university.,The reason why I want to change my major is that I found that I had a bigger interest in Accounting than in economics when I studied in the first year of university.
"This is a nervous and excited decision for me, but I won't regret it and I am ready to join the field of Accounting and to be a graduate school student.","This is a nervous and exciting decision for me, but I won't regret it and I am ready to join the field of Accounting and to be a graduate school student."
People in modern society have a lot of resources to further research the field of study that they are interesting in.,People in modern society have a lot of resources to further research the field of study that they are interested in.
I think there are more younger parents because they do not live in a religious culture which is far more stricter.,I think there are more younger parents because they do not live in a religious culture which is far more strict.
"It is much more easy to use a car when going shopping, or making a leisure or occasional trip.","It is much easier to use a car when going shopping, or making a leisure or occasional trip."
"David looks bored at first sight, but in fact he is wetty.","David looks boring at first sight, but in fact he is wetty."
"First, we thought it would be good to plant trees, and it's easier to do this.","First, we thought it would be good to plant trees, and it's easy to do this."
Activity makes people exciting and remember their memory.,Activity makes people excited and remember their memory.
"As time passed, Peter and John gradually became more close to each other.","As time passed, Peter and John gradually became closer to each other."
It makes me feel contented that I am contributing to society by participating in the tasks that shape their future.,It makes me feel content that I am contributing to society by participating in the tasks that shape their future.
"Also, the seats of this transport are more clean and the bus driver says the name of each stop.","Also, the seats of this transport are cleaner and the bus driver says the name of each stop."
"You will be very exciting seeing St. Basil's Cathedral, the monument of Minin and Pozharsky, and the Kremlin.","You will be very excited seeing St. Basil's Cathedral, the monument of Minin and Pozharsky, and the Kremlin."
I hold the belief that children are much easy to raise than before.,I hold the belief that children are much easier to raise than before.
"Today, everyone knows how everything is easier with technological devices, but it's more sad because you can't share your thoughts with anybody.","Today, everyone knows how everything is easier with technological devices, but it's sadder because you can't share your thoughts with anybody."
Only the faster competitors were given the land.,Only the fastest competitors were given the land.
"In addition, moderate drinking helps to maintain healthy movement, because some research has shown that people who drink moderately have a less proportion of body fat, because alcohol speeds up the metabolism, which makes calories burn quickly.","In addition, moderate drinking helps to maintain healthy movement, because some research has shown that people who drink moderately have a lesser proportion of body fat, because alcohol speeds up the metabolism, which makes calories burn quickly."
"But excluding cases like mine: flying is the fastest, the most safe and often the cheapest way to travel.","But excluding cases like mine: flying is the fastest, the safest and often the cheapest way to travel."
"Moreover, I also didn't like to do exercise which was tired and my strength was extremely weak so that every time we did 800 kilometers, I always ranked in the last three.","Moreover, I also didn't like to do exercise which was tiring and my strength was extremely weak so that every time we did 800 kilometers, I always ranked in the last three."
"I have 6 youngest siblings; 4 girls and 2 boys, and every time my parents go out for a job interview, dinner, to the movies, etc.,","I have 6 younger siblings; 4 girls and 2 boys, and every time my parents go out for a job interview, dinner, to the movies, etc.,"
"Rental cost is also a limitation, as it is relatively higher in Australia.","Rental cost is also a limitation, as it is relatively high in Australia."
"This process makes people close to each other, encouraging them to cooperate and become friends.","This process makes people closer to each other, encouraging them to cooperate and become friends."
"Classical art was more easy for us to understand because it has been studied at school and it is very famous, while modern artworks are totally new and more complicated to understand because of their composition and their significance.","Classical art was easier for us to understand because it has been studied at school and it is very famous, while modern artworks are totally new and more complicated to understand because of their composition and their significance."
"The plot revolves around Vianne Rocher, a single mother and chocolate expert, opening a' chocolaterie' right before Lent in a small, close - minded French village, the mayor of which decides to boycott her.","The plot revolves around Vianne Rocher, a single mother and chocolate expert, opening a' chocolaterie' right before Lent in a small, closed - minded French village, the mayor of which decides to boycott her."
"Hundreds gather there, parking spaces are full, again facing longest queues in stores - no matter how unpleasant it sounds, it is the reality nowadays.","Hundreds gather there, parking spaces are full, again facing long queues in stores - no matter how unpleasant it sounds, it is the reality nowadays."
"Once I got fitter enough, I started enjoying the game, learning its strategies, developing personal and group skills and having fun at the same time.","Once I got fit enough, I started enjoying the game, learning its strategies, developing personal and group skills and having fun at the same time."
"I definitely embrace the fact that the diving community has recently been exploding with many new enthusiastic members, not only bringing a unique experience into our lives, but also enhancing awareness about environmental conservation issues among the broad public.","I definitely embrace the fact that the diving community has recently been exploding with many new enthusiastic members, not only bringing a unique experience into our lives, but also enhancing awareness about environmental conservation issues among the broader public."
"Others problems cited included pretty low uptime of the website, connection issues and login problems, particularly correct credentials not working.","Other problems cited included pretty low uptime of the website, connection issues and login problems, particularly correct credentials not working."
The text discusses the idea of how advance communication technologies give us the advantage of creating a 24/7 international working day and provides several reasons to support this.,The text discusses the idea of how advanced communication technologies give us the advantage of creating a 24/7 international working day and provides several reasons to support this.
"He was sweating, looking at people in a confusing way.","He was sweating, looking at people in a confused way."
"Rivalries, arguments about which team is the better team and watching matches in a group just add to the excitement.","Rivalries, arguments about which team is the best team and watching matches in a group just add to the excitement."
"A feminine gay man is considered as lesser than his masculine counterpart, because femininity is regarded as weak, unattractive, and second - class.","A feminine gay man is considered as less than his masculine counterpart, because femininity is regarded as weak, unattractive, and second - class."
You can never really say a thing is worst unless you have indulged yourself in it.,You can never really say a thing is bad unless you have indulged yourself in it.
"When I found out I would be teaching at the remotest high school in Ozamiz, I said I was very unfortunate, and when I found out I would be spending my days in the mountains, I said my life would be miserable.","When I found out I would be teaching at the most remote high school in Ozamiz, I said I was very unfortunate, and when I found out I would be spending my days in the mountains, I said my life would be miserable."
"Cars are improving, becoming safer and more environmentally friendlier.","Cars are improving, becoming safer and more environmentally friendly."
"It is important to note that the difficulty implementing the changes to the new teaching approach referred to above lies not with the students themselves but with the old generation of teachers, since they sometimes have trouble applying the new outlook on education methods.","It is important to note that the difficulty implementing the changes to the new teaching approach referred to above lies not with the students themselves but with the older generation of teachers, since they sometimes have trouble applying the new outlook on education methods."
Many people believe that public transport will be replaced by private transport in the nearest future.,Many people believe that public transport will be replaced by private transport in the near future.
"Moreover, it is the sombrest day of the year, which recalls the Crucifixion caused by people's sins.","Moreover, it is the most sombre day of the year, which recalls the Crucifixion caused by people's sins."
Scout (Jean Louise) Finch is a round character.,Scout (Jean Louise) Finch is a rounded character.
I am writing to you with concern about the U - turns your party have made and your broke promises.,I am writing to you with concern about the U - turns your party have made and your broken promises.
Would you be interesting in this job?,Would you be interested in this job?
"But, even if it's true that it's the faster option, you must be very careful when it's time to get off a plane.","But, even if it's true that it's the fastest option, you must be very careful when it's time to get off a plane."
"However, the better option is to choose a train.","However, the best option is to choose a train."
I went to the abandon house and started to think of the best way to make his life miserable. I spent the next 2 weeks looking for ideas to make him suffer.,I went to the abandoned house and started to think of the best way to make his life miserable. I spent the next 2 weeks looking for ideas to make him suffer.
"I expected it to be more famous, better and biggest.","I expected it to be more famous, better and bigger."
"In addition to this, I also admire the bullet train in Japan which I consider the fastest and safe public vehicle I've experienced.","In addition to this, I also admire the bullet train in Japan which I consider the fastest and safest public vehicle I've experienced."
Buses are more simple - you just buy a ticket.,Buses are simpler - you just buy a ticket.
"On the other hand, public transport is better for the environment, because the pollution is lesser than using your own car.","On the other hand, public transport is better for the environment, because the pollution is less than using your own car."
"First, if you are planning to travel to another country, it is really useful to speak the local language, it makes your trip more easy and more comfortable.","First, if you are planning to travel to another country, it is really useful to speak the local language, it makes your trip easier and more comfortable."
"The higher the temperature increase, the worst the quality of life is.","The higher the temperature increase, the worse the quality of life is."
"But, technology is here for best or worst, and we have to learn to deal with it the best we can.","But, technology is here for better or worse, and we have to learn to deal with it the best we can."
"The more people you meet, the more easy it will become for you to find a friend.","The more people you meet, the easier it will become for you to find a friend."
"Also, they make us more clever.","Also, they make us cleverer."
I was really exciting!,I was really excited!
"In my case... I'm much better now. I'm settled back home and I'm up and running, even though my untreated sprained ankle has got worst.","In my case... I'm much better now. I'm settled back home and I'm up and running, even though my untreated sprained ankle has got worse."
"He promised to keep it secret. The next morning we had an argument with Pat. The 3 of us were shouting at each other. In shorter, Pat left us.","He promised to keep it secret. The next morning we had an argument with Pat. The 3 of us were shouting at each other. In short, Pat left us."
"And referring to the question about which type of accommodation I prefer, I choose a log cabin, because I think that a tent is more messy, so I would appreciate it if you give me a cabin.","And referring to the question about which type of accommodation I prefer, I choose a log cabin, because I think that a tent is messier, so I would appreciate it if you give me a cabin."
We know it is more easy for those with a busy life.,We know it is easier for those with a busy life.
"IT IS VERY PLEASED TO KNOW THAT I HAVE A CHANCE TO SPEND TWO WEEKS AT CAMP CALIFORNIA IN THE USA, WHERE I HAVE NEVER BEEN BEFORE.","IT IS VERY PLEASING TO KNOW THAT I HAVE A CHANCE TO SPEND TWO WEEKS AT CAMP CALIFORNIA IN THE USA, WHERE I HAVE NEVER BEEN BEFORE."
I know it was difficult and tired but I enjoyed it a lot.,I know it was difficult and tiring but I enjoyed it a lot.
"We know we are going for only three days, but we'll have enough time to see one of the bigger cities in the world.","We know we are going for only three days, but we'll have enough time to see one of the biggest cities in the world."
"I had a week's holiday in London, so I wanted to spend my last evening with great pleasure, however it was the worse evening in my life.","I had a week's holiday in London, so I wanted to spend my last evening with great pleasure, however it was the worst evening in my life."
"Imagine that all the people have hats with broad brims to protect their faces from the sun, and it's the most trendy fashion of the year!","Imagine that all the people have hats with broad brims to protect their faces from the sun, and it's the trendiest fashion of the year!"
"Nowadays, we can make a phone call with an astonish rapidity, whereas in my grandparents' time it took one month or more to get in contact with people abroad, because the only means of communication was the post and its service was very slow!","Nowadays, we can make a phone call with an astonishing rapidity, whereas in my grandparents' time it took one month or more to get in contact with people abroad, because the only means of communication was the post and its service was very slow!"
I would suggest this place because it is interesting to discover the oldest civilisation in the world in one of the modernest buildings.,I would suggest this place because it is interesting to discover the oldest civilisation in the world in one of the most modern buildings.
"In this world, where the nations fight to be the better one couldn't be different, the airplane became the most important thing in the war.","In this world, where the nations fight to be the best one couldn't be different, the airplane became the most important thing in the war."
I was very please to receive your letter.,I was very pleased to receive your letter.
I think that we have to think about which hotel is better for the students.,I think that we have to think about which hotel is best for the students.
"On the other hand, this kind of facility has made our life more comfortable and easy.","On the other hand, this kind of facility has made our life more comfortable and easier."
"The world is packed with so many types of chairs, from the common wooden ones to the most sophisticate and comfortable others finding a basic range of prices.","The world is packed with so many types of chairs, from the common wooden ones to the most sophisticated and comfortable others finding a basic range of prices."
"What a biggest person Einstein was, who invented light.","What a big person Einstein was, who invented light."
"To be honest, the next great invention of mankind, the computer, can't work if you haven't got the phone.","To be honest, the next greatest invention of mankind, the computer, can't work if you haven't got the phone."
The principal reason is the cheapest price.,The principal reason is the cheap price.
"First of all, in my opinion, TV has a great educational function, and it also makes the world small.","First of all, in my opinion, TV has a great educational function, and it also makes the world smaller."
I was very disappointing during a week's holiday because I had a lot of problems with the show.,I was very disappointed during a week's holiday because I had a lot of problems with the show.
I was really disappointing because he is my favourite actor.,I was really disappointed because he is my favourite actor.
If you go shopping for clothes that is the worse kind of shopping.,If you go shopping for clothes that is the worst kind of shopping.
I hoped that it would be the most excited evening during my week's holiday in London.,I hoped that it would be the most exciting evening during my week's holiday in London.
And lastly that was the worse night I had ever had so I asked for my money back but they wouldn't give me it so I had an argument with the people who worked there but I couldn't get my money back.,And lastly that was the worst night I had ever had so I asked for my money back but they wouldn't give me it so I had an argument with the people who worked there but I couldn't get my money back.
"That's why modern technology is so important in our daily lives, because it helps to make our lives easiest and to do what we have to do faster so then we can use our time better.","That's why modern technology is so important in our daily lives, because it helps to make our lives easier and to do what we have to do faster so then we can use our time better."
"Secondly, I would prefer to stay in tents, I have always admired outdoors life.","Secondly, I would prefer to stay in tents, I have always admired outdoor life."
"The reason for choosing these two activities is that they contrast with each other. I want one that is more exciting and that asks for more agility and another that is more calm and relaxing, that asks only for my ability to paint.","The reason for choosing these two activities is that they contrast with each other. I want one that is more exciting and that asks for more agility and another that is calmer and relaxing, that asks only for my ability to paint."
"I was so disappointing, because I came from far away to see Danny Broke.","I was so disappointed, because I came from far away to see Danny Broke."
It can be said that I'm much more free at home. I'm allowed to do whatever I want in my room.,It can be said that I'm much freer at home. I'm allowed to do whatever I want in my room.
"After that what is waiting for you is the struggle with ill - fitted clothes, taking off and putting on.","After that what is waiting for you is the struggle with ill - fitting clothes, taking off and putting on."
"I was very disappoint with that change, because Mr. Brook is one of my favourite actors.","I was very disappointed with that change, because Mr. Brook is one of my favourite actors."
I'm so happy and exciting to receive this letter about the fact that I've won the first prize in your competition.,I'm so happy and excited to receive this letter about the fact that I've won the first prize in your competition.
"Secondly, I am very interesting in photography because my father is a photographer and we are used to spending time together.","Secondly, I am very interested in photography because my father is a photographer and we are used to spending time together."
Remember: going shopping is not always the better choice.,Remember: going shopping is not always the best choice.
What are the better clothes to wear at the camp?,What are the best clothes to wear at the camp?
It seemed likely to be the bigger party of her life.,It seemed likely to be the biggest party of her life.
"So we did, but unfortunately it was close and I was so disappointed about it, not only because we had expected Danny Brook and Tina Truelove to be the actor of starring.","So we did, but unfortunately it was closed and I was so disappointed about it, not only because we had expected Danny Brook and Tina Truelove to be the actor of starring."
"I am really surprised for the information because I won, and I would like to say thank you for everything. This is why I wrote and sent this letter with the information you need I can only travel in July because it is the only time when I can do it before for my work I do not really care what accommodation I will have. I would prefer to come in July I will be available for the moment. I would really appreciate it if you could tell the people who work at Camp California I choose the Golf and Photography because I think I am really interesting in those subjects. I am not really really good but I have some experience.","I am really surprised for the information because I won, and I would like to say thank you for everything. This is why I wrote and sent this letter with the information you need I can only travel in July because it is the only time when I can do it before for my work I do not really care what accommodation I will have. I would prefer to come in July I will be available for the moment. I would really appreciate it if you could tell the people who work at Camp California I choose the Golf and Photography because I think I am really interested in those subjects. I am not really really good but I have some experience."
It was an upset evening.,It was an upsetting evening.
"What will be better to take with me, what will I need at Camp?","What will be best to take with me, what will I need at Camp?"
"And by the way may I ask you how up - to - date your leaflets are because in spite of the advert saying the staring actor was Danny Brook, it was n't.","And by the way may I ask you how up - to - date your leaflets are because in spite of the advert saying the starring actor was Danny Brook, it was n't."
"In conclusion, I can say that this is not the bigger problem that the world has and--it is not my problem because I am not famous!","In conclusion, I can say that this is not the biggest problem that the world has and--it is not my problem because I am not famous!"
"It is from 10 am to 7 p.m. It is about the latest fashion, leisure and sports wear, make - up and hairstyles. All of us are really interesting, and it is free for students to get in as well.","It is from 10 am to 7 p.m. It is about the latest fashion, leisure and sports wear, make - up and hairstyles. All of us are really interested, and it is free for students to get in as well."
I spent the worse evening of my holiday at this show!,I spent the worst evening of my holiday at this show!
"To answer the question: "" How has modern technology changed my daily life? "", I can confirm that it has been in many ways, and the most important one that I can remember was the invention of computers and later the Internet, because it was easiest for me, and for everyone, to do your homework,, and, in fact, it was easier for me to search for information that in the past I would have to look up in a library.","To answer the question: "" How has modern technology changed my daily life? "", I can confirm that it has been in many ways, and the most important one that I can remember was the invention of computers and later the Internet, because it was easier for me, and for everyone, to do your homework,, and, in fact, it was easier for me to search for information that in the past I would have to look up in a library."
I am very exciting.,I am very excited.
It was a very excited experience and I really enjoyed myself very much.,It was a very exciting experience and I really enjoyed myself very much.
I retired four years ago and my life is very bored.,I retired four years ago and my life is very boring.
It was already the worse holiday in my life but we continued.,It was already the worst holiday in my life but we continued.
I felt very disappointing after seeing the music show in your theatre.,I felt very disappointed after seeing the music show in your theatre.
"Because everyone has different thinking like Beverley Centre if you go there every day or every week for shopping you will get very boring because sometimes there are too many people everywhere, like in the restaurants and shops.","Because everyone has different thinking like Beverley Centre if you go there every day or every week for shopping you will get very bored because sometimes there are too many people everywhere, like in the restaurants and shops."
"I prefer this accommodation because I think it's more easy to meet people when you stay in a tent, near them, than when you stay in a log cabin.","I prefer this accommodation because I think it's easier to meet people when you stay in a tent, near them, than when you stay in a log cabin."
I think it could be interested to show how students work to write the school newspaper.,I think it could be interesting to show how students work to write the school newspaper.
"I was expecting the perfect evening out, it was in the end one of the most disappointed of my life.","I was expecting the perfect evening out, it was in the end one of the most disappointing of my life."
Using the TV and computer makes people more close.,Using the TV and computer makes people more closed.
"However, the second day was less heavier than the first one.","However, the second day was less heavy than the first one."
"First of all, I think people have to be careful about the things that they buy because probably are not good quality, which is very annoyed.","First of all, I think people have to be careful about the things that they buy because probably are not good quality, which is very annoying."
"I was very frightening I might put too much make - up on their faces, but everything was all right.","I was very frightened I might put too much make - up on their faces, but everything was all right."
I am writing to let you know about the disappointed evening I had seeing your show with the worst services I have ever experienced.,I am writing to let you know about the disappointing evening I had seeing your show with the worst services I have ever experienced.
They make their lifestyle much easier and more fast because they need to catch up with other people.,They make their lifestyle much easier and faster because they need to catch up with other people.
"Of all the recent technological advances, the one that has had the great impact on my life is the Internet.","Of all the recent technological advances, the one that has had the greatest impact on my life is the Internet."
"The show has many interesting parts such as the latest fashions, leisure and sports wear, make - up and Hairstyles and we are all agreed that it's a great opportunity for us because most of us are going to study on a Fashion and Design course next term and the other students are also interesting in new fashions.","The show has many interesting parts such as the latest fashions, leisure and sports wear, make - up and Hairstyles and we are all agreed that it's a great opportunity for us because most of us are going to study on a Fashion and Design course next term and the other students are also interested in new fashions."
"Indeed, I was very surprise to hear when I asked for a discount that it was not possible to get one.","Indeed, I was very surprised to hear when I asked for a discount that it was not possible to get one."
"If I compare my life now with the life of my grandparents, I think both are comparable. I say that because without knowing about the technology, it's difficult to imagine a best life, in fact, you leave with your time.","If I compare my life now with the life of my grandparents, I think both are comparable. I say that because without knowing about the technology, it's difficult to imagine a better life, in fact, you leave with your time."
So in fact people's homes will become more convenient and comfortabler.,So in fact people's homes will become more convenient and more comfortable.
"With reference to the show last week, I am writing to complain about the show, which was very disappointed.","With reference to the show last week, I am writing to complain about the show, which was very disappointing."
Why are the media so interesting in famous people?,Why are the media so interested in famous people?
"It must be very exhausted to have the media around you day and night because you can't be yourself, you have to show your best side and character.","It must be very exhausting to have the media around you day and night because you can't be yourself, you have to show your best side and character."
I'm really surprising and happy about it.,I'm really surprised and happy about it.
I was so exciting!,I was so excited!
I am very happy and exciting about it.,I am very happy and excited about it.
"First of all, I believe that it was very interesting, but there were few artists than I had expected.","First of all, I believe that it was very interesting, but there were fewer artists than I had expected."
"We hadn't enough money to buy food or new clothes and the worse was that my youngest brother was terribly ill, and without money we couldn't take him to a doctor.","We hadn't enough money to buy food or new clothes and the worst was that my youngest brother was terribly ill, and without money we couldn't take him to a doctor."
Also you can compare the different cultures of all the countries and sometimes there are planed visits to historical places.,Also you can compare the different cultures of all the countries and sometimes there are planned visits to historical places.
I am writing to you in order to get further information about my trip to Camp California and to make some things a bit more clear for you.,I am writing to you in order to get further information about my trip to Camp California and to make some things a bit clearer for you.
It will provide a good service for their customers and be more cool for them.,It will provide a good service for their customers and be cooler for them.
I'm very please to receive this prize.,I'm very pleased to receive this prize.
"I am very please to receive your letter, and read all the questions you have asked me. Now, I will answer your questions.","I am very pleased to receive your letter, and read all the questions you have asked me. Now, I will answer your questions."
"When you go shopping with your girlfriend, she wants to look at every item of clothing in the shopping centre, but you are not interesting in that. Romantic, no!","When you go shopping with your girlfriend, she wants to look at every item of clothing in the shopping centre, but you are not interested in that. Romantic, no!"
I think you will feel boring.,I think you will feel bored.
"If you interesting in the clothes as well, but you need to remember, one is male, but one is female, they should have different fashion, at that moment should be had one is boring or have some bad chat, so in the end you both will feel unhappy or angry with each other.","If you interested in the clothes as well, but you need to remember, one is male, but one is female, they should have different fashion, at that moment should be had one is boring or have some bad chat, so in the end you both will feel unhappy or angry with each other."
"If you go out with your same - sex friend that should be fine, same fashion, but if every time you go to the same place, everyone will feel boring.","If you go out with your same - sex friend that should be fine, same fashion, but if every time you go to the same place, everyone will feel bored."
"Finally, could you let me know what sort of clothes would be better to bring.","Finally, could you let me know what sort of clothes would be best to bring."
"The better thing to do to avoid queues and crowds is not to go shopping on Saturdays, but it is not always possible.","The best thing to do to avoid queues and crowds is not to go shopping on Saturdays, but it is not always possible."
I am exciting and looking forward to camping there.,I am excited and looking forward to camping there.
"Well, in one word it made my life comfortabler.","Well, in one word it made my life more comfortable."
"After the show, my friends and I decided to go to your restaurant, but we were amazed to find it close.","After the show, my friends and I decided to go to your restaurant, but we were amazed to find it closed."
I have just been staying in a tent and I think it is always a beautiful and interested adventure.,I have just been staying in a tent and I think it is always a beautiful and interesting adventure.
"Even if the job was very hard, it was an amused experience.","Even if the job was very hard, it was an amusing experience."
"Nevertheless, when I found him studying harder for his final exams I realised I would rather his girlfriend told my poor brother the truth.","Nevertheless, when I found him studying hard for his final exams I realised I would rather his girlfriend told my poor brother the truth."
I'm writing to you on behalf of all the English class in order to let you know how exciting we are about the trip to London and to give you some ideas of other things we are interested in doing in London while we're there.,I'm writing to you on behalf of all the English class in order to let you know how excited we are about the trip to London and to give you some ideas of other things we are interested in doing in London while we're there.
Dears sirs:,Dear sirs:
"Although there is plenty for us to do during the day, the most funny events happen while we are playing basketball and football.","Although there is plenty for us to do during the day, the funniest events happen while we are playing basketball and football."
"People are used to going to the shopping centre because it is easier and familiar. It is one place where you can have lunch or dinner, watch a movie after that, and, if you want, buy something at the shops.","People are used to going to the shopping centre because it is easy and familiar. It is one place where you can have lunch or dinner, watch a movie after that, and, if you want, buy something at the shops."
It was the most excited experience I have ever had!,It was the most exciting experience I have ever had!
"Also, you say in the advertisement we should visit your restaurant, however, it was close. How can you explain that?","Also, you say in the advertisement we should visit your restaurant, however, it was closed. How can you explain that?"
In the advertisement the cast was very interested - Danny Brook and Tina Truelove.,In the advertisement the cast was very interesting - Danny Brook and Tina Truelove.
The better thing to do would be to show the cooking personnel because they are very nice.,The best thing to do would be to show the cooking personnel because they are very nice.
"We paid to see Danny Brook, my son's favourite actor, but we were quite disappointing. My son was very happy because he would see his favourite actor for the first time.","We paid to see Danny Brook, my son's favourite actor, but we were quite disappointed. My son was very happy because he would see his favourite actor for the first time."
"We think that this is a great opportunity and we are all very interesting in going because we can see there the latest fashions, leisure and sports wear, a lot of different kinds of make - up and some famous hairstylists.","We think that this is a great opportunity and we are all very interested in going because we can see there the latest fashions, leisure and sports wear, a lot of different kinds of make - up and some famous hairstylists."
Life at home will be more easy because a refrigerator which fills itself up or a bathroom which cleans itself.,Life at home will be easier because a refrigerator which fills itself up or a bathroom which cleans itself.
I am so exciting that I have won the first prize. I will give you all the information you need and ask some questions.,I am so excited that I have won the first prize. I will give you all the information you need and ask some questions.
"Shopmania is really unstoppable. I know women who do everything they can to buy only a dress, or even worst, women who buy things they have no use for, for example, snap, sculptures, kitchen tissues, or everything sold by telemarketing that really is useless, but they cannot resist the fact of it "" being there. ""","Shopmania is really unstoppable. I know women who do everything they can to buy only a dress, or even worse, women who buy things they have no use for, for example, snap, sculptures, kitchen tissues, or everything sold by telemarketing that really is useless, but they cannot resist the fact of it "" being there. """
I am writing to you because I was very disappointing with the show you have put on to attract people to come to your theatre.,I am writing to you because I was very disappointed with the show you have put on to attract people to come to your theatre.
"Although swimming is so bored, it would be a good thing to help cure my back.","Although swimming is so boring, it would be a good thing to help cure my back."
"The principal reason I'm writing to you at the moment is that I want my money back, because I felt so disappointing with the theatre and also with the play.","The principal reason I'm writing to you at the moment is that I want my money back, because I felt so disappointed with the theatre and also with the play."
"Moreover I would be grateful if you could tell me how much money I have to take, and what clothes are better to wear during the holiday.","Moreover I would be grateful if you could tell me how much money I have to take, and what clothes are best to wear during the holiday."
This report shows which lessons and activities are better to film in order to make a short video about daily life at our school.,This report shows which lessons and activities are best to film in order to make a short video about daily life at our school.
I am very disappointing by this evening's show.,I am very disappointed by this evening's show.
Computers have a lot of programs that help you communicate with others in an more easy way. ',Computers have a lot of programs that help you communicate with others in an easier way. '
I am interesting in reading articles and developing myself.,I am interested in reading articles and developing myself.
Also I had to look for a dried place in case it was raining.,Also I had to look for a dry place in case it was raining.
"Despite all these things, I gained a lot of experience and I could be near one of my favourite pop stars, which was the better experience I've ever had.","Despite all these things, I gained a lot of experience and I could be near one of my favourite pop stars, which was the best experience I've ever had."
Because it'll be easy to manage the artists' schedule and the audience can enjoy the live.,Because it'll be easier to manage the artists' schedule and the audience can enjoy the live.
I hope you will answer my letter and tell me if you are interesting in my proposition.,I hope you will answer my letter and tell me if you are interested in my proposition.
"When we went to the restaurant, we saw that it was close.","When we went to the restaurant, we saw that it was closed."
"Later when the show finished, I planned to go to the restaurant and get some food, but it was close, because it was being repaired.","Later when the show finished, I planned to go to the restaurant and get some food, but it was closed, because it was being repaired."
"In addition to this, there is less communication between members of my family, because when we arrive home after an exhausted day racing against time, the only thing we want to do is lie on the sofa while watching television.","In addition to this, there is less communication between members of my family, because when we arrive home after an exhausting day racing against time, the only thing we want to do is lie on the sofa while watching television."
I rather prefer to stay in tents because I like to stay as closest as possible to nature; it makes me feel better.,I rather prefer to stay in tents because I like to stay as close as possible to nature; it makes me feel better.
To conclude I think the difficults situations allow us to discover ourselves getting out of ourselves.,To conclude I think the most difficult situations allow us to discover ourselves getting out of ourselves.
We would be very interesting in seeing English fashion.,We would be very interested in seeing English fashion.
"Maybe, the skirts will be shorter and the colours brighter, the shoes moderner so that you cannot walk in them anymore.","Maybe, the skirts will be shorter and the colours brighter, the shoes more modern so that you cannot walk in them anymore."
"Sometimes, shopping can be really bore, especially on important dates when the shops are absolutely crowded and you can't see anything you wanted with careful.","Sometimes, shopping can be really boring, especially on important dates when the shops are absolutely crowded and you can't see anything you wanted with careful."
It is annoyed.,It is annoying.
I was really embarrassed because I had to dance in front of a lot of people but that was the very good experience I have ever had.,I was really embarrassed because I had to dance in front of a lot of people but that was the very best experience I have ever had.
I'm very surprise to win this prize.,I'm very surprised to win this prize.
Hoping that you will think about it carefully because we are all very exciting.,Hoping that you will think about it carefully because we are all very excited.
"Since always, medias has been keen of famous people life and it's becoming worst and worst, you can find everything in "" gossip "" newspapers.","Since always, medias has been keen of famous people life and it's becoming worse and worse, you can find everything in "" gossip "" newspapers."
"In my opinion, you don't deserve to have a private life when you're famous because when you start your career you know that the media will be hunting you everywhere and the more famous you get the worst it is going to be because that is the lifestyle people want to know everything about, for instance, about their favourite actor or about their president. They saw them many times on T.V. or in the cinema.","In my opinion, you don't deserve to have a private life when you're famous because when you start your career you know that the media will be hunting you everywhere and the more famous you get the worse it is going to be because that is the lifestyle people want to know everything about, for instance, about their favourite actor or about their president. They saw them many times on T.V. or in the cinema."
"In my opinion the better time for shopping is weekdays, preferably in the morning.","In my opinion the best time for shopping is weekdays, preferably in the morning."
In my opinion the hall for the rock concerts was too small. You have to consider booking a big one for next year because these kinds of events are attended by a lot of young people.,In my opinion the hall for the rock concerts was too small. You have to consider booking a bigger one for next year because these kinds of events are attended by a lot of young people.
"To make things worst, the restaurant was closed.","To make things worse, the restaurant was closed."
This is a very embarrassed situation.,This is a very embarrassing situation.
"In conclusion, it was the worse evening I have ever had in my life so I must ask you for my money back.","In conclusion, it was the worst evening I have ever had in my life so I must ask you for my money back."
In the classroom it became even worser.,In the classroom it became even worse.
"Sometimes when I'm boring and can't find something else to do,","Sometimes when I'm bored and can't find something else to do,"
"Unfortunately, I had a really disappointed evening!","Unfortunately, I had a really disappointing evening!"
"Spending a lot of time in the same place in my opinion is the worse thing to do, especially during a holiday!","Spending a lot of time in the same place in my opinion is the worst thing to do, especially during a holiday!"
"17th of June of 2000 Dear Sir, I am writing to complain about various things which I am very disappointing with.","17th of June of 2000 Dear Sir, I am writing to complain about various things which I am very disappointed with."
They were worst than the previous actors.,They were worse than the previous actors.
"They believe that people in the future will wear comfortable clothes because they will be outgoing, amused, etc.","They believe that people in the future will wear comfortable clothes because they will be outgoing, amusing, etc."
"I was really looking forward to seeing his performance, but on starting the show, I found it disappointed.","I was really looking forward to seeing his performance, but on starting the show, I found it disappointing."
I've never been to the U.S.A so I'm very exciting to visit Camp California.,I've never been to the U.S.A so I'm very excited to visit Camp California.
Before the concert I was really exciting. I couldn't sleep well and I didn't know what I had to do at the concert.,Before the concert I was really excited. I couldn't sleep well and I didn't know what I had to do at the concert.
I was really exciting.,I was really excited.
